"microsim.init.id","microsim.init.sex","microsim.init.age","microsim.init.race","microsim.roles.employment.status","microsim.roles.parenthood.status","microsim.roles.marital.status","microsim.init.education","microsim.init.income","microsim.init.drinkingstatus","microsim.init.heavy.episodic.drinking","microsim.init.alc.gpd","microsim.init.drink.frequency","microsim.init.drinks.per.month","microsim.init.annual.frequency","microsim.init.spawn.year","microsim.spawn.tick"
1001,0,18,"BLA",0,0,0,"highschool",1013.21182860591,1,0,5.83909006686407,5,12.5123358575659,60,1985,84
1002,0,18,"BLA",0,0,0,"highschool",31920.6949541284,1,0,0.697933221050685,2,1.49557118796575,12,1987,886
1003,0,18,"BLA",1,0,0,"highschool",23841.9220183486,1,0,2.79173288420274,3,5.98228475186301,24,1987,817
1004,0,18,"BLA",0,0,0,"somecollege",4923.59862385321,0,2,0,1,0,0,1987,791
1005,0,18,"BLA",0,0,0,"somecollege",7313.30389908257,0,2,0,1,0,0,1987,923
1006,0,18,"BLA",0,0,0,"somecollege",5122.91743119266,1,0,2.918734,2,6.25443,12,1987,1093
1007,0,18,"BLA",1,1,0,"somecollege",3466.74709463199,0,0,0,1,0,0,1988,1252
1008,0,18,"BLA",1,0,1,"highschool",97699.2363032651,0,0,0,1,0,0,1988,1268
1009,0,18,"BLA",0,0,0,"highschool",59871.9141039236,1,0,1.47799772169525,2,3.16713797506125,12,1989,1695
1010,0,18,"BLA",1,1,1,"highschool",27968.3308589608,0,0,0,1,0,0,1989,1666
1011,0,18,"BLA",0,0,0,"highschool",157192.45068929,0,0,0,1,0,0,1989,1657
1012,0,18,"BLA",1,0,0,"highschool",31452.6205154118,1,0,3.093075,4,6.62801785714286,36,1990,2032
1013,0,18,"BLA",0,0,0,"highschool",23212.0040424457,0,0,0,1,0,0,1990,2035
1014,0,18,"BLA",0,0,0,"highschool",26704.5724037055,0,0,0,1,0,0,1991,2463
1015,0,18,"BLA",0,0,0,"highschool",24719.5994291151,0,0,0,1,0,0,1992,2639
1016,0,18,"BLA",0,1,0,"somecollege",73566.6672727273,0,0,0,1,0,0,1994,3352
1017,0,18,"BLA",0,1,0,"highschool",158621.713271194,1,0,1.559693,2,3.34219928571429,12,1995,3916
1018,0,18,"BLA",0,1,0,"somecollege",15804.7234798047,0,1,0,1,0,0,1995,3703
1019,0,18,"BLA",1,1,0,"highschool",33208.138482024,0,0,0,1,0,0,1995,3989
1020,0,18,"BLA",0,1,0,"highschool",24843.7319130049,0,0,0,1,0,0,1995,3724
1021,0,18,"BLA",0,1,0,"highschool",3234.35105923044,1,30,141.4998,7,303.213857142857,360,1996,4065
1022,0,18,"BLA",1,0,0,"highschool",16616.7431231485,0,0,0,1,0,0,1997,4565
1023,0,18,"BLA",0,1,0,"highschool",19062.7752856538,0,0,0,1,0,0,1997,4600
1024,0,18,"BLA",0,0,0,"highschool",101334.464300626,1,0,3.216343,2,6.89216357142857,12,1998,4791
1025,0,18,"BLA",0,0,0,"somecollege",64317.4070981211,1,4,3.216343,2,6.89216357142857,12,1998,4997
1026,0,18,"BLA",1,1,0,"highschool",32224.3256784969,1,0,3.216343,2,6.89216357142857,12,1998,5055
1027,0,18,"BLA",0,0,0,"somecollege",10843.8638830898,1,0,3.216343,2,6.89216357142857,12,1998,5063
1028,0,18,"BLA",1,0,0,"highschool",42525.4881439084,1,0,10.83085,5,23.2089642857143,60,1999,5400
1029,0,18,"BLA",1,0,0,"somecollege",9467.24284546198,0,0,0,1,0,0,1999,5261
1030,0,18,"BLA",0,0,0,"somecollege",43245.6899960459,1,0,5.986182,5,12.8275328571429,60,2000,5696
1031,0,18,"BLA",0,1,0,"somecollege",45566.0138408304,1,0,0.7100141,2,1.52145878571429,12,2001,5939
1032,0,18,"BLA",1,0,0,"somecollege",70203.7078046905,1,0,2.969255,2,6.36268928571429,12,2001,6142
1033,0,18,"BLA",0,1,0,"highschool",1730.02573807721,0,1,0,1,0,0,2002,6533
1034,0,18,"BLA",0,1,0,"highschool",1283.52233156699,1,1,2.873412,2,6.15731142857143,12,2002,6327
1035,0,18,"BLA",1,0,0,"somecollege",54819.9074759437,1,0,0.6892203,2,1.47690064285714,12,2003,6640
1036,0,18,"BLA",0,1,0,"highschool",120291.752035529,1,0,2.882297,2,6.17635071428571,12,2003,6864
1037,0,18,"BLA",0,1,0,"highschool",16920.1823423423,1,1,1.448624,3,3.10419428571429,24,2004,7200
1038,0,18,"BLA",0,1,1,"highschool",23583.2454054054,0,0,0,1,0,0,2004,7083
1039,0,18,"BLA",0,1,0,"highschool",25780.7236036036,1,1,3.029048,2,6.49081714285714,12,2004,7222
1040,0,18,"BLA",1,1,0,"highschool",8633.24442943957,0,0,0,1,0,0,2006,7869
1041,0,18,"BLA",0,1,0,"highschool",36448.1471978393,0,0,0,1,0,0,2006,7794
1042,0,18,"BLA",1,1,1,"somecollege",46033.7645939086,1,0,1.464207,2,3.13758642857143,12,2009,8869
1043,0,18,"BLA",1,1,0,"somecollege",53853.2982233503,0,2,0,1,0,0,2009,8918
1044,0,18,"BLA",0,0,0,"highschool",114077.199238579,0,0,0,1,0,0,2009,9111
1045,0,18,"BLA",0,1,0,"highschool",101215.151649746,0,0,0,1,0,0,2009,9021
1046,0,18,"BLA",0,1,0,"highschool",44406.5038071066,0,0,0,1,0,0,2009,8793
1047,0,18,"BLA",0,0,0,"highschool",15567.5006345178,1,0,3.061634,2,6.56064428571429,12,2009,9028
1048,0,18,"BLA",0,1,0,"highschool",89905.0280898876,0,3,0,1,0,0,2010,9234
1049,0,18,"BLA",0,0,0,"highschool",14101.7990012484,0,0,0,1,0,0,2010,9361
1050,0,18,"BLA",0,1,0,"highschool",101535.722846442,1,2,3.124801,2,6.69600214285714,12,2010,9214
1051,0,18,"BLA",0,0,0,"highschool",16724.1011235955,1,0,3.124801,2,6.69600214285714,12,2010,9454
1052,0,21,"BLA",0,1,1,"highschool",33149.2081818182,1,0,3.102708,2,6.64866,12,1994,3511
1053,0,33,"BLA",1,1,0,"somecollege",68683.84544406,1,0,12.21224,5,26.1690857142857,132,2001,5985
1054,0,45,"BLA",0,1,0,"highschool",4729.9363434493,1,2,3.306563,2,7.08549214285714,12,2003,6781
1055,1,18,"BLA",1,0,0,"highschool",83663.4116251483,1,0,4.00369439216567,4,8.57934512606929,48,1986,648
1056,1,18,"BLA",1,0,0,"highschool",30875.8873072361,0,2,0,1,0,0,1986,446
1057,1,18,"BLA",0,0,0,"somecollege",23102.6298932384,1,0,4.654568,2,9.97407428571429,12,1986,710
1058,1,18,"BLA",0,0,0,"somecollege",5228.96322657177,1,2,4.654568,2,9.97407428571429,12,1986,608
1059,1,18,"BLA",0,0,0,"highschool",51097.7087155963,0,0,0,1,0,0,1987,973
1060,1,18,"BLA",0,0,0,"highschool",191794.610957388,1,0,1.40444216671742,2,3.00951892868019,12,1988,1188
1061,1,18,"BLA",0,0,0,"highschool",47367.9623685667,1,5,63.4105638272917,6,135.879779629911,192,1988,1194
1062,1,18,"BLA",1,0,0,"highschool",10985.5362479247,0,2,0,1,0,0,1988,1223
1063,1,18,"BLA",1,0,0,"highschool",11114.4648588821,0,2,0,1,0,0,1988,1297
1064,1,18,"BLA",0,0,0,"highschool",10980.0141485599,1,2,3.093075,4,6.62801785714286,36,1990,1959
1065,1,18,"BLA",1,1,0,"collegeplus",133287.588863109,1,2,9.272698,4,19.8700671428571,36,1993,3094
1066,1,18,"BLA",0,0,0,"highschool",59070.5072727273,1,0,19.14168,6,41.0178857142857,192,1994,3502
1067,1,18,"BLA",1,1,0,"highschool",18306.7809090909,1,4,38.28336,5,82.0357714285714,60,1994,3636
1068,1,18,"BLA",0,1,0,"highschool",8046.51181818182,0,2,0,1,0,0,1994,3367
1069,1,18,"BLA",0,1,0,"highschool",15830.8018181818,0,2,0,1,0,0,1994,3523
1070,1,18,"BLA",1,1,0,"highschool",44338.2485574789,1,0,5.439749,2,11.656605,12,1995,3819
1071,1,18,"BLA",1,0,0,"highschool",46988.4219628188,1,0,0.7861101,2,1.68452164285714,12,1996,4201
1072,1,18,"BLA",0,1,0,"highschool",94774.6398616515,0,0,0,1,0,0,1996,4137
1073,1,18,"BLA",0,0,0,"highschool",5482.05416842996,0,0,0,1,0,0,1997,4401
1074,1,18,"BLA",0,0,0,"highschool",12014.7203597711,1,0,2.707712,3,5.80224,24,1999,5196
1075,1,18,"BLA",1,0,0,"highschool",6172.90842191333,0,2,0,1,0,0,1999,5396
1076,1,18,"BLA",0,0,1,"highschool",27488.6128904705,0,0,0,1,0,0,2000,5642
1077,1,18,"BLA",1,1,0,"somecollege",49337.9454056132,0,1,0,1,0,0,2001,5968
1078,1,18,"BLA",1,0,0,"highschool",101546.632096896,0,1,0,1,0,0,2002,6416
1079,1,18,"BLA",0,1,0,"highschool",33542.343679031,1,0,4.792775,2,10.2702321428571,12,2002,6498
1080,1,18,"BLA",0,0,0,"highschool",114900.774241303,0,0,0,1,0,0,2003,6663
1081,1,18,"BLA",0,1,0,"highschool",22128.0729237002,1,2,5.143286,2,11.0213271428571,12,2006,7986
1082,1,18,"BLA",0,1,0,"highschool",41983.1050558109,1,0,5.129201,2,10.991145,12,2007,8317
1083,1,18,"BLA",0,1,0,"somecollege",26593.3316471704,1,0,1.473617,2,3.15775071428571,12,2008,8535
1084,1,18,"BLA",1,0,0,"somecollege",91457.3974075245,0,0,0,1,0,0,2008,8744
1085,1,18,"BLA",1,1,0,"highschool",10670.7701549162,0,2,0,1,0,0,2008,8505
1086,1,18,"BLA",1,1,0,"highschool",27605.9454314721,0,0,0,1,0,0,2009,9029
1087,1,18,"BLA",0,1,0,"highschool",94279.0552030457,1,1,5.106723,2,10.9429778571429,12,2009,8961
1088,1,18,"BLA",0,1,0,"somecollege",31510.3302122347,1,1,0.7472084,2,1.60116085714286,12,2010,9442
1089,1,20,"BLA",1,0,0,"highschool",28716.3058744092,1,0,6.341171,5,13.5882235714286,60,2006,7951
1090,0,18,"OTH",0,0,0,"somecollege",142420.982498491,1,0,5.43171169010611,5,11.6393821930845,60,1985,166
1091,0,18,"OTH",0,0,0,"highschool",167032.656608328,1,0,1.554382,2,3.33081857142857,12,1985,335
1092,0,18,"OTH",1,0,0,"highschool",35025.6059767571,1,0,2.80888433343485,3,6.01903785736039,24,1988,1180
1093,0,18,"OTH",1,0,0,"highschool",92801.9955727726,1,0,0.702221083358712,2,1.5047594643401,12,1988,1370
1094,0,18,"OTH",0,0,0,"somecollege",32070.2481442206,1,0,2.95599544339051,4,6.33427595012252,36,1989,1745
1095,0,18,"OTH",0,0,0,"highschool",47426.5861084681,1,2,7.595667,4,16.2764292857143,36,1992,2825
1096,0,18,"OTH",0,0,0,"highschool",125550.794481446,0,0,0,1,0,0,1992,2857
1097,0,18,"OTH",0,0,0,"collegeplus",115518.312761021,1,1,9.272698,4,19.8700671428571,48,1993,3029
1098,0,18,"OTH",1,1,0,"highschool",144701.059090909,0,0,0,1,0,0,1994,3345
1099,0,18,"OTH",0,1,0,"highschool",49718.899427637,1,1,1.549721,2,3.32083071428571,12,1999,5232
1100,0,18,"OTH",0,0,0,"highschool",125821.196520364,1,0,0.6960677,2,1.49157364285714,12,2000,5790
1101,0,18,"OTH",0,0,0,"highschool",17534.5767012687,0,0,0,1,0,0,2001,6127
1102,0,18,"OTH",0,0,0,"somecollege",39600.3052672049,1,1,1.625467,2,3.48314357142857,12,2001,6082
1103,0,18,"OTH",0,1,0,"highschool",55717.8659459459,1,0,1.658199,2,3.55328357142857,12,2004,7018
1104,0,18,"OTH",0,0,0,"highschool",21214.1850101283,1,2,2.949382,2,6.32010428571429,12,2006,7667
1105,0,18,"OTH",1,0,0,"somecollege",27693.8001350439,1,0,1.688037,2,3.61722214285714,12,2006,7838
1106,0,18,"OTH",0,0,0,"highschool",11363.5193696651,0,0,0,1,0,0,2007,8271
1107,0,18,"OTH",0,0,0,"highschool",50428.6592639594,1,0,1.676037,2,3.59150785714286,12,2009,8921
1108,0,18,"OTH",0,0,0,"highschool",762.595177664975,1,0,1.676037,2,3.59150785714286,12,2009,8954
1109,0,18,"OTH",0,1,0,"highschool",6361.85268414482,0,1,0,1,0,0,2010,9231
1110,0,23,"OTH",0,0,0,"highschool",41761.5183867141,0,0,0,1,0,0,1986,415
1111,0,20,"OTH",0,0,1,"highschool",36042.3054234063,1,0,1.73891,2,3.72623571428571,12,1992,2634
1112,0,28,"OTH",1,0,0,"collegeplus",69346.9849124925,1,0,1.554382,2,3.33081857142857,12,1985,301
1113,0,29,"OTH",1,0,0,"collegeplus",83631.343417825,0,2,0,1,0,0,1999,5276
1114,0,29,"OTH",0,1,1,"somecollege",46645.0617202889,1,1,1.683414,2,3.60731571428571,12,2007,8136
1115,0,27,"OTH",1,1,1,"collegeplus",46791.9619172685,1,0,1.683414,2,3.60731571428571,12,2007,8374
1116,0,28,"OTH",0,1,1,"collegeplus",110337.516853933,1,0,1.710617,2,3.66560785714286,12,2010,9464
1117,0,26,"OTH",0,1,1,"somecollege",36779.1722846442,1,0,1.710617,2,3.66560785714286,12,2010,9184
1118,0,33,"OTH",0,1,1,"highschool",29037.6840565578,1,0,1.720877,2,3.68759357142857,12,1991,2439
1119,0,32,"OTH",1,1,1,"somecollege",5786.07591933571,0,0,0,1,0,0,2000,5728
1120,0,30,"OTH",0,1,1,"somecollege",102708.451891892,1,0,12.45816,6,26.6960571428571,252,2004,6986
1121,0,31,"OTH",1,1,0,"collegeplus",57589.7334208798,0,0,0,1,0,0,2007,8069
1122,0,30,"OTH",0,1,1,"somecollege",67724.317893401,0,0,0,1,0,0,2009,9021
1123,0,47,"OTH",0,0,1,"collegeplus",86879.4708377519,1,0,0.8692323,2,1.86264064285714,12,1989,1649
1124,0,36,"OTH",0,0,0,"somecollege",71259.2463424278,1,0,0.6960677,2,1.49157364285714,12,2000,5619
1125,0,48,"OTH",1,1,1,"collegeplus",52084.7873894656,1,0,0.8351395,2,1.78958464285714,12,2001,5970
1126,0,38,"OTH",0,0,1,"somecollege",131844.477668433,1,1,41.22575,6,88.3408928571429,288,2002,6247
1127,0,40,"OTH",1,0,1,"somecollege",47497.8389682816,1,0,1.405683,3,3.01217785714286,24,2005,7489
1128,0,35,"OTH",0,0,1,"somecollege",82815.0923666783,0,0,0,1,0,0,2005,7474
1129,0,38,"OTH",1,1,1,"collegeplus",32069.0972464273,1,0,0.8267031,2,1.77150664285714,12,2005,7471
1130,0,38,"OTH",0,1,1,"highschool",22775.7848984772,1,0,0.861122,2,1.84526142857143,12,2009,9044
1131,0,57,"OTH",1,0,1,"somecollege",16851.0308601445,1,0,3.161902,5,6.77550428571429,60,2007,8368
1132,0,71,"OTH",1,0,0,"collegeplus",22031.0312109863,1,0,1.494417,4,3.20232214285714,36,2010,9307
1133,0,72,"OTH",0,0,1,"collegeplus",91699.7815230961,0,0,0,1,0,0,2010,9235
1134,1,18,"OTH",1,0,0,"highschool",22694.665480427,1,6,24.022166352994,5,51.4760707564157,60,1986,684
1135,1,18,"OTH",1,0,0,"highschool",75789.558384062,1,10,36.2346079013095,5,77.6455883599489,132,1988,1410
1136,1,18,"OTH",0,0,0,"highschool",55015.638225256,1,0,1.492905,2,3.19908214285714,12,1991,2192
1137,1,18,"OTH",0,1,0,"highschool",26915.7435463394,0,0,0,1,0,0,1997,4721
1138,1,18,"OTH",1,1,0,"highschool",55834.3958246347,0,1,0,1,0,0,1998,5092
1139,1,18,"OTH",1,1,0,"highschool",43056.1496320523,0,0,0,1,0,0,1999,5259
1140,1,18,"OTH",0,0,0,"somecollege",137168.644367551,1,0,0.7100141,2,1.52145878571429,12,2001,6090
1141,1,18,"OTH",0,0,0,"somecollege",113611.488658208,1,0,0.7100141,2,1.52145878571429,12,2001,5916
1142,1,18,"OTH",1,0,0,"highschool",21158.645136486,1,0,4.260084,3,9.12875142857143,24,2001,5913
1143,1,18,"OTH",1,1,0,"highschool",32790.7062831189,1,2,1.374192,2,2.94469714285714,12,2002,6419
1144,1,18,"OTH",1,0,0,"highschool",125571.034822104,1,0,0.6870958,2,1.47234814285714,12,2002,6333
1145,1,18,"OTH",0,0,0,"somecollege",9533.33762301287,1,0,4.122575,3,8.83408928571429,24,2002,6332
1146,1,18,"OTH",0,1,0,"highschool",48671.6707040121,0,0,0,1,0,0,2002,6223
1147,1,18,"OTH",1,0,0,"highschool",44084.6971070059,1,8,44.98187,5,96.3897214285714,120,2005,7451
1148,1,18,"OTH",0,0,0,"somecollege",62291.1279191356,0,1,0,1,0,0,2005,7600
1149,1,18,"OTH",0,1,0,"highschool",62847.9546880446,0,1,0,1,0,0,2005,7319
1150,1,18,"OTH",0,0,0,"highschool",21930.8129642134,1,0,1.464416,2,3.13803428571429,12,2006,7939
1151,1,18,"OTH",0,1,0,"highschool",96648.3932975024,0,1,0,1,0,0,2008,8410
1152,1,23,"OTH",0,1,0,"somecollege",113380.242042931,0,0,0,1,0,0,2003,6587
1153,1,23,"OTH",1,1,0,"somecollege",72346.5823585204,0,3,0,1,0,0,2008,8486
1154,1,25,"OTH",0,0,0,"somecollege",7097.61309925726,1,0,1.464416,2,3.13803428571429,12,2006,7985
1155,1,27,"OTH",1,0,0,"collegeplus",36352.699881376,1,0,1.382436,2,2.96236285714286,12,2000,5603
1156,1,27,"OTH",0,0,1,"collegeplus",52985.04556804,0,0,0,1,0,0,2010,9433
1157,1,26,"OTH",1,0,0,"collegeplus",23381.4244694132,1,0,1.484005,2,3.18001071428571,12,2010,9308
1158,1,30,"OTH",1,0,1,"somecollege",88840.0108559499,1,0,23.07295,7,49.4420357142857,360,1998,4940
1159,1,30,"OTH",1,0,1,"highschool",101369.652036378,0,0,0,1,0,0,2000,5644
1160,1,33,"OTH",1,0,0,"collegeplus",102387.20177665,1,1,10.98156,5,23.5319142857143,72,2009,9050
1161,1,45,"OTH",1,1,1,"somecollege",59593.5134080936,1,0,2.25507,4,4.83229285714286,48,1991,2453
1162,1,38,"OTH",1,1,1,"somecollege",56249.9418181818,1,0,10.80292,2,23.1491142857143,12,1994,3531
1163,1,36,"OTH",1,0,0,"highschool",25004.5082660515,1,12,9.159181,5,19.6268164285714,60,2001,6072
1164,1,36,"OTH",1,1,1,"collegeplus",87714.1145713187,0,0,0,1,0,0,2001,5937
1165,1,42,"OTH",1,1,1,"somecollege",125106.335352006,1,0,4.809671,5,10.3064378571429,96,2002,6484
1166,1,51,"OTH",1,1,1,"collegeplus",102856.989194841,1,0,3.022219,5,6.47618357142857,60,2005,7641
1167,1,66,"OTH",0,0,1,"somecollege",45813.4002306805,1,0,1.420028,3,3.04291714285714,24,2001,5979
1168,0,18,"SPA",1,0,0,"highschool",15401.2661436331,0,0,0,1,0,0,1985,232
1169,0,18,"SPA",0,0,0,"highschool",21828.2894424674,1,0,1.978875,2,4.24044642857143,12,1986,692
1170,0,18,"SPA",0,0,1,"highschool",30500.0183486239,0,0,0,1,0,0,1987,994
1171,0,18,"SPA",0,1,0,"highschool",91455.5263761468,0,0,0,1,0,0,1987,733
1172,0,18,"SPA",0,0,0,"highschool",58865.1200885446,1,0,12.6399795004568,5,27.0856703581217,84,1988,1421
1173,0,18,"SPA",1,0,0,"highschool",61881.6402877698,1,0,4.21332650015227,3,9.02855678604058,24,1988,1457
1174,0,18,"SPA",0,0,1,"somecollege",6444.38406198119,0,0,0,1,0,0,1988,1442
1175,0,18,"SPA",0,0,0,"highschool",9474.88542174549,0,0,0,1,0,0,1991,2421
1176,0,18,"SPA",0,0,0,"highschool",17904.0175524135,0,0,0,1,0,0,1991,2446
1177,0,18,"SPA",0,0,0,"highschool",11519.5134080936,0,0,0,1,0,0,1991,2429
1178,0,18,"SPA",0,0,0,"highschool",9022.32666991711,1,0,2.229192,2,4.77684,12,1991,2488
1179,0,18,"SPA",0,0,0,"somecollege",36842.7764034253,0,0,0,1,0,0,1992,2702
1180,0,18,"SPA",1,1,0,"collegeplus",162020.448259861,1,0,1.54545,2,3.31167857142857,12,1993,3181
1181,0,18,"SPA",1,0,1,"somecollege",33887.7512761021,0,1,0,1,0,0,1993,3148
1182,0,18,"SPA",0,1,1,"somecollege",20586.9633410673,0,0,0,1,0,0,1993,3145
1183,0,18,"SPA",0,1,1,"somecollege",24468.5763341067,0,0,0,1,0,0,1993,3048
1184,0,18,"SPA",0,1,1,"highschool",4731.03758700696,1,0,2.291572,2,4.91051142857143,12,1993,2929
1185,0,18,"SPA",1,1,0,"highschool",145060.773636364,1,5,31.9028,6,68.3631428571428,324,1994,3312
1186,0,18,"SPA",1,1,0,"highschool",145733.137272727,1,5,31.9028,6,68.3631428571428,324,1994,3519
1187,0,18,"SPA",0,1,0,"highschool",10826.7354545455,0,0,0,1,0,0,1994,3330
1188,0,18,"SPA",0,1,0,"highschool",15305.7478917,1,0,1.559693,2,3.34219928571429,12,1995,3731
1189,0,18,"SPA",0,1,0,"somecollege",52761.6506701254,1,0,7.074991,4,15.160695,48,1996,4193
1190,0,18,"SPA",1,1,0,"highschool",7934.34617012273,1,1,14.4932,4,31.0568571428571,48,1997,4417
1191,0,18,"SPA",1,0,1,"somecollege",45775.0740584003,1,0,0.6901525,2,1.47889821428571,12,1997,4417
1192,0,18,"SPA",1,1,1,"highschool",1436.63309352518,1,0,8.902967,5,19.0777864285714,60,1997,4704
1193,0,18,"SPA",1,0,0,"somecollege",7040.75412611088,1,0,2.046698,2,4.38578142857143,12,1997,4570
1194,0,18,"SPA",0,1,0,"highschool",87634.1077244259,1,0,3.076393,4,6.59227071428571,36,1998,4895
1195,0,18,"SPA",0,1,0,"somecollege",43423.321085595,1,0,2.307295,2,4.94420357142857,12,1998,4777
1196,0,18,"SPA",0,0,0,"somecollege",14327.8601798855,1,0,20.30784,5,43.5168,72,1999,5254
1197,0,18,"SPA",1,1,0,"highschool",125813.640228945,1,0,6.769281,3,14.5056021428571,24,1999,5234
1198,0,18,"SPA",1,1,0,"highschool",31623.4938675388,0,0,0,1,0,0,1999,5447
1199,0,18,"SPA",0,1,0,"highschool",108986.449980229,0,0,0,1,0,0,2000,5480
1200,0,18,"SPA",0,1,0,"highschool",22748.0371688414,0,0,0,1,0,0,2000,5621
1201,0,18,"SPA",0,1,0,"highschool",25232.3795966785,1,0,2.06424,2,4.42337142857143,12,2000,5498
1202,0,18,"SPA",1,1,0,"highschool",34837.4063821607,1,0,0.7100141,2,1.52145878571429,12,2001,6074
1203,0,18,"SPA",0,0,0,"highschool",31334.1876201461,1,0,2.840056,2,6.08583428571429,12,2001,5895
1204,0,18,"SPA",0,1,0,"somecollege",47502.4521337947,0,0,0,1,0,0,2001,6156
1205,0,18,"SPA",0,1,0,"somecollege",53591.8539023452,1,0,2.105599,2,4.51199785714286,12,2001,6154
1206,0,18,"SPA",1,1,0,"highschool",25617.2871972318,1,0,2.105599,2,4.51199785714286,12,2001,5939
1207,0,18,"SPA",0,0,0,"highschool",30684.161998486,0,0,0,1,0,0,2002,6450
1208,0,18,"SPA",0,1,0,"somecollege",54453.8198334595,0,0,0,1,0,0,2002,6532
1209,0,18,"SPA",1,1,0,"highschool",28112.7379718727,0,0,0,1,0,0,2003,6768
1210,0,18,"SPA",1,1,0,"highschool",15382.3473873874,1,6,43.45871,6,93.1258071428571,180,2004,7217
1211,0,18,"SPA",0,1,0,"highschool",1107.40108108108,0,0,0,1,0,0,2004,7238
1212,0,18,"SPA",0,1,0,"highschool",9768.05045045045,0,0,0,1,0,0,2004,7086
1213,0,18,"SPA",0,1,0,"highschool",3199.60288288288,1,0,2.148,2,4.60285714285714,12,2004,7264
1214,0,18,"SPA",1,1,0,"highschool",20052.2084349948,1,0,0.7028417,2,1.50608935714286,12,2005,7420
1215,0,18,"SPA",0,0,0,"highschool",53697.6925758104,1,0,4.21705,3,9.03653571428571,24,2005,7361
1216,0,18,"SPA",0,1,0,"highschool",25687.5015684908,0,0,0,1,0,0,2005,7528
1217,0,18,"SPA",0,0,0,"highschool",22370.2781904119,1,0,0.7373454,2,1.58002585714286,12,2006,7816
1218,0,18,"SPA",0,1,1,"highschool",48552.1681296421,0,0,0,1,0,0,2006,7745
1219,0,18,"SPA",0,1,0,"highschool",30889.9108710331,1,0,2.186652,2,4.68568285714286,12,2006,7978
1220,0,18,"SPA",0,1,0,"highschool",22998.9862114248,0,0,0,1,0,0,2007,8113
1221,0,18,"SPA",1,1,0,"highschool",7652.16480630335,0,0,0,1,0,0,2007,8352
1222,0,18,"SPA",0,0,1,"highschool",27692.5082074852,1,0,2.180664,2,4.67285142857143,12,2007,8172
1223,0,19,"SPA",1,0,0,"highschool",25299.6132632961,1,0,2.180664,2,4.67285142857143,12,2007,8366
1224,0,18,"SPA",1,1,0,"highschool",25969.0091685109,0,1,0,1,0,0,2008,8576
1225,0,18,"SPA",0,0,0,"somecollege",14672.7473917167,0,0,0,1,0,0,2008,8692
1226,0,18,"SPA",0,1,0,"highschool",14907.7451786279,0,0,0,1,0,0,2008,8626
1227,0,18,"SPA",0,1,0,"highschool",9014.09421435346,0,0,0,1,0,0,2008,8648
1228,0,18,"SPA",0,1,0,"highschool",21619.7963958267,0,0,0,1,0,0,2008,8530
1229,0,18,"SPA",1,1,0,"somecollege",67739.5697969543,0,0,0,1,0,0,2009,9102
1230,0,18,"SPA",1,1,0,"somecollege",19102.8707865169,0,1,0,1,0,0,2010,9202
1231,0,18,"SPA",0,1,0,"highschool",19845.0099875156,0,0,0,1,0,0,2010,9228
1232,0,29,"SPA",0,1,1,"somecollege",25499.8979118329,0,1,0,1,0,0,1993,3033
1233,0,27,"SPA",0,1,1,"highschool",46516.3426542388,0,0,0,1,0,0,1995,3880
1234,0,27,"SPA",1,1,1,"highschool",34139.7062795409,1,1,2.186652,2,4.68568285714286,12,2006,7967
1235,0,28,"SPA",0,1,0,"highschool",9021.088639201,0,0,0,1,0,0,2010,9160
1236,0,31,"SPA",0,1,1,"somecollege",35217.204567079,1,0,2.252551,2,4.826895,12,1992,2820
1237,0,36,"SPA",0,1,1,"highschool",28327.8812064965,0,0,0,1,0,0,1993,3170
1238,0,38,"SPA",1,1,1,"collegeplus",36746.8209902666,0,0,0,1,0,0,1997,4469
1239,0,46,"SPA",1,1,0,"highschool",25319.0380827315,1,3,14.70652,5,31.5139714285714,156,2007,8229
1240,0,50,"SPA",1,0,1,"highschool",15895.4032432432,1,1,8.691742,5,18.6251614285714,60,2004,6999
1241,0,79,"SPA",0,0,1,"highschool",3954.14458743376,0,0,0,1,0,0,2002,6261
1242,1,18,"SPA",1,0,0,"somecollege",129773.688593844,1,1,8.14756753515917,4,17.4590732896268,48,1985,290
1243,1,18,"SPA",0,0,0,"highschool",36800.1447212337,1,7,60.2556006020933,6,129.119144147343,180,1986,607
1244,1,18,"SPA",0,0,0,"highschool",8970.83036773428,1,2,11.4772572575416,5,24.594122694732,120,1986,372
1245,1,18,"SPA",1,0,0,"highschool",26212.5435779817,1,1,21.0077899536256,5,45.0166927577691,60,1987,818
1246,1,18,"SPA",1,1,0,"somecollege",71958.3302752294,0,0,0,1,0,0,1987,742
1247,1,18,"SPA",0,0,0,"highschool",56528.0332042059,1,0,14.0444216671742,5,30.0951892868019,72,1988,1219
1248,1,18,"SPA",1,0,0,"highschool",49960.2545068929,0,1,0,1,0,0,1989,1604
1249,1,18,"SPA",0,0,0,"highschool",34074.1484623542,0,0,0,1,0,0,1989,1816
1250,1,18,"SPA",1,0,0,"highschool",60466.0254506893,1,0,12.90401,2,27.65145,12,1989,1764
1251,1,18,"SPA",1,0,0,"collegeplus",68100.0060636685,1,2,24.7446,4,53.0241428571428,36,1990,2032
1252,1,18,"SPA",0,0,0,"highschool",4296.6036079961,1,0,4.510139,4,9.66458357142857,48,1991,2353
1253,1,18,"SPA",0,0,0,"highschool",4644.58703071672,0,0,0,1,0,0,1991,2540
1254,1,18,"SPA",1,0,0,"highschool",47051.6860068259,1,1,13.12561,2,28.1263071428571,12,1991,2411
1255,1,18,"SPA",0,0,0,"highschool",25520.0704091342,1,2,27.3444,5,58.5951428571429,60,1992,2743
1256,1,18,"SPA",0,0,0,"highschool",18039.6251189343,1,0,4.5574,4,9.76585714285714,36,1992,2785
1257,1,18,"SPA",1,0,0,"highschool",4739.49191246432,0,0,0,1,0,0,1992,2890
1258,1,18,"SPA",0,0,0,"highschool",16053.4015223597,1,0,13.26316,2,28.4210571428571,12,1992,2601
1259,1,18,"SPA",0,1,0,"highschool",21468.9921113689,1,2,1.54545,2,3.31167857142857,12,1993,3211
1260,1,18,"SPA",1,0,0,"highschool",712.143851508121,1,2,13.49292,2,28.9134,12,1993,3209
1261,1,18,"SPA",0,1,0,"highschool",845.497272727273,1,4,186.9652,6,400.639714285714,312,1994,3512
1262,1,18,"SPA",0,1,0,"highschool",16130.0036363636,1,4,186.9652,6,400.639714285714,312,1994,3315
1263,1,18,"SPA",1,0,0,"highschool",42906.8854545455,1,0,5.935404,4,12.7187228571429,36,1994,3452
1264,1,18,"SPA",1,0,0,"highschool",48353.0309090909,1,0,12.95511,2,27.76095,12,1994,3588
1265,1,18,"SPA",0,0,0,"highschool",13432.948069241,1,10,80.48015,6,172.457464285714,204,1995,3732
1266,1,18,"SPA",1,1,0,"highschool",34680.4447403462,1,2,15.59693,4,33.4219928571429,36,1995,3855
1267,1,18,"SPA",1,1,0,"highschool",27307.4238792721,1,3,13.61727,2,29.1798642857143,12,1995,3714
1268,1,18,"SPA",0,0,0,"somecollege",54330.0631214872,1,0,4.716661,4,10.1071307142857,48,1996,4289
1269,1,18,"SPA",0,1,0,"highschool",27195.4085603113,1,1,3.144441,4,6.73808785714286,36,1996,4373
1270,1,18,"SPA",1,1,0,"somecollege",422.080415045396,0,0,0,1,0,0,1996,4071
1271,1,18,"SPA",1,0,0,"highschool",31907.0410722006,0,0,0,1,0,0,1996,4294
1272,1,18,"SPA",1,1,0,"highschool",41929.9678374947,1,6,33.12732,5,70.9871142857143,120,1997,4650
1273,1,18,"SPA",0,0,0,"somecollege",136372.161658908,0,1,0,1,0,0,1997,4684
1274,1,18,"SPA",1,1,0,"highschool",22042.4587388912,1,0,12.05108,2,25.8237428571429,12,1997,4689
1275,1,18,"SPA",1,1,0,"highschool",37823.0513569937,1,0,1.538196,4,3.29613428571429,36,1998,4948
1276,1,18,"SPA",0,0,0,"highschool",150873.767849687,1,4,16.53561,5,35.43345,72,1998,5077
1277,1,18,"SPA",0,0,0,"highschool",142134.444258873,0,0,0,1,0,0,1998,4974
1278,1,18,"SPA",0,0,0,"highschool",68257.8229645094,0,0,0,1,0,0,1998,4924
1279,1,18,"SPA",0,1,0,"highschool",2509.68111201962,1,0,1.353856,2,2.90112,12,1999,5180
1280,1,18,"SPA",0,0,0,"highschool",22901.5960752249,1,0,81.23137,7,174.067221428571,360,1999,5396
1281,1,18,"SPA",0,0,0,"somecollege",54.4268192968111,0,0,0,1,0,0,1999,5347
1282,1,18,"SPA",1,1,0,"highschool",23716.0387504943,0,0,0,1,0,0,2000,5650
1283,1,18,"SPA",0,1,0,"highschool",62831.877739331,1,2,12.39789,2,26.5669071428571,12,2001,5969
1284,1,18,"SPA",1,0,0,"highschool",18481.6018168055,1,3,16.4903,5,35.3363571428571,120,2002,6510
1285,1,18,"SPA",0,1,0,"highschool",22292.9772899319,1,0,2.748383,3,5.88939214285714,24,2002,6508
1286,1,18,"SPA",1,1,1,"highschool",27173.8675055514,1,0,1.378441,2,2.95380214285714,12,2003,6632
1287,1,18,"SPA",0,1,0,"highschool",91925.8201332347,0,0,0,1,0,0,2003,6680
1288,1,18,"SPA",0,0,0,"highschool",56220.0014803849,0,0,0,1,0,0,2003,6588
1289,1,18,"SPA",0,1,1,"highschool",9997.73871206514,0,0,0,1,0,0,2003,6693
1290,1,18,"SPA",1,1,0,"highschool",18620.596036036,1,0,2.897247,3,6.20838642857143,24,2004,7234
1291,1,19,"SPA",1,1,0,"highschool",5350.43963963964,0,0,0,1,0,0,2004,6951
1292,1,18,"SPA",0,1,0,"highschool",53372.4677477477,1,2,12.64755,2,27.1018928571429,12,2004,7117
1293,1,18,"SPA",0,1,0,"highschool",11567.0449634019,1,6,36.26663,6,77.7142071428571,192,2005,7602
1294,1,18,"SPA",1,1,1,"highschool",25995.5608225863,0,0,0,1,0,0,2005,7514
1295,1,18,"SPA",0,0,0,"highschool",88819.0254444057,0,0,0,1,0,0,2005,7540
1296,1,18,"SPA",0,1,0,"highschool",63476.9627047752,1,1,12.27265,2,26.2985357142857,12,2005,7589
1297,1,18,"SPA",1,0,0,"highschool",23178.0452397029,1,0,18.43364,5,39.5006571428571,72,2006,8023
1298,1,18,"SPA",1,1,0,"highschool",19432.6029709656,0,0,0,1,0,0,2006,7688
1299,1,18,"SPA",1,0,0,"highschool",20427.6257386737,1,7,51.47282,5,110.2989,108,2007,8198
1300,1,18,"SPA",0,0,0,"highschool",3492.82534471438,1,2,47.42853,6,101.632564285714,192,2007,8134
1301,1,18,"SPA",0,0,0,"highschool",3620.3007222587,1,0,12.64761,5,27.1020214285714,132,2007,8254
1302,1,18,"SPA",0,1,0,"highschool",73520.4021498577,1,0,1.473617,2,3.15775071428571,12,2008,8468
1303,1,18,"SPA",1,1,0,"highschool",49776.2725260828,0,0,0,1,0,0,2008,8632
1304,1,18,"SPA",0,1,0,"highschool",101381.085045843,0,0,0,1,0,0,2008,8448
1305,1,18,"SPA",0,1,0,"highschool",9878.09105279798,0,0,0,1,0,0,2008,8658
1306,1,18,"SPA",0,1,0,"highschool",37081.7154600063,0,0,0,1,0,0,2008,8654
1307,1,18,"SPA",0,0,0,"highschool",26972.404822335,1,0,12.59218,5,26.9832428571429,60,2009,8941
1308,1,18,"SPA",0,0,0,"highschool",5517.66941624366,1,4,56.66483,5,121.424635714286,60,2009,8788
1309,1,18,"SPA",0,1,0,"highschool",112535.583756345,1,0,18.88828,5,40.4748857142857,132,2009,8810
1310,1,18,"SPA",0,1,0,"somecollege",29946.4132334582,1,1,5.230459,2,11.2081264285714,12,2010,9237
1311,1,18,"SPA",1,1,0,"highschool",19623.4069912609,0,0,0,1,0,0,2010,9214
1312,1,18,"SPA",0,1,0,"highschool",19424.8876404494,0,0,0,1,0,0,2010,9251
1313,1,18,"SPA",0,1,0,"highschool",57362.8589263421,1,0,13.04736,2,27.9586285714286,12,2010,9377
1314,1,21,"SPA",1,0,0,"highschool",87820.6373276776,1,2,70.9438906413721,5,152.02262280294,120,1989,1463
1315,1,20,"SPA",1,0,0,"somecollege",40713.09371293,1,0,25.05844,5,53.6966571428571,84,2000,5670
1316,1,21,"SPA",1,1,0,"highschool",47228.0522875817,1,0,1.420028,2,3.04291714285714,12,2001,5974
1317,1,20,"SPA",1,0,0,"highschool",35714.9586342745,1,0,25.29522,5,54.2040428571429,132,2007,8270
1318,1,21,"SPA",1,0,0,"highschool",98533.0521656655,0,2,0,1,0,0,2008,8664
1319,1,24,"SPA",1,1,1,"highschool",32685.4068801898,1,3,11.97236,6,25.6550571428571,252,2000,5645
1320,1,29,"SPA",1,0,0,"collegeplus",47599.4952279958,0,0,0,1,0,0,1989,1689
1321,1,26,"SPA",1,1,1,"highschool",53232.1074904782,1,0,2.76061,5,5.91559285714286,60,1997,4538
1322,1,28,"SPA",1,1,1,"somecollege",81036.1038062284,1,0,12.39789,2,26.5669071428571,12,2001,5980
1323,1,26,"SPA",1,0,0,"highschool",28324.873427091,1,1,17.78188,6,38.1040285714286,192,2003,6653
1324,1,27,"SPA",1,1,1,"collegeplus",43527.3782009192,0,0,0,1,0,0,2007,8335
1325,1,32,"SPA",1,0,0,"highschool",40448.995412844,0,0,0,1,0,0,1987,983
1326,1,33,"SPA",1,1,1,"highschool",77510.08,1,1,11.12888,6,23.8476,228,1994,3497
1327,1,31,"SPA",1,1,0,"highschool",64363.676003028,1,1,13.74192,2,29.4469714285714,12,2002,6450
1328,1,35,"SPA",0,1,0,"highschool",3647.02014846235,1,0,2.21699658254288,4,4.75070696259189,48,1989,1613
1329,1,36,"SPA",1,1,0,"highschool",41204.1245454545,0,0,0,1,0,0,1994,3436
1330,1,35,"SPA",1,1,1,"collegeplus",110002.498149519,1,0,2.963647,5,6.35067214285714,60,2003,6908
1331,1,38,"SPA",1,1,1,"highschool",38057.1006661732,1,0,10.68461,2,22.8955928571429,12,2003,6723
1332,1,48,"SPA",1,1,1,"highschool",21793.7969543147,1,2,37.77655,5,80.94975,132,2009,8828
1333,0,18,"WHI",0,0,0,"highschool",33085.6065178033,1,2,23.3563602674563,6,50.0493434302635,252,1985,300
1334,0,18,"WHI",0,0,0,"somecollege",4840.65298732649,1,2,14.5977251671602,5,31.2808396439147,60,1985,244
1335,0,18,"WHI",0,0,0,"somecollege",80594.9752564876,0,0,0,1,0,0,1985,98
1336,0,18,"WHI",1,0,1,"highschool",51325.6511768256,1,1,4.337021,2,9.29361642857143,12,1985,91
1337,0,18,"WHI",0,0,0,"highschool",87819.1309595655,1,1,4.337021,2,9.29361642857143,12,1985,79
1338,0,18,"WHI",0,0,0,"somecollege",21508.059311981,1,2,22.9545145150832,5,49.188245389464,120,1986,696
1339,0,18,"WHI",1,0,0,"highschool",91557.3036773428,1,0,1.33456479738856,3,2.85978170868977,24,1986,376
1340,0,18,"WHI",1,0,0,"highschool",3976.55634638197,1,1,8.60794294315618,5,18.445592021049,60,1986,537
1341,0,18,"WHI",0,0,0,"somecollege",30237.6204033215,0,0,0,1,0,0,1986,537
1342,0,18,"WHI",0,0,1,"highschool",17570.9833926453,0,0,0,1,0,0,1986,521
1343,0,18,"WHI",0,0,1,"highschool",51322.3618030842,0,0,0,1,0,0,1986,380
1344,0,18,"WHI",1,0,0,"highschool",25403.4614472123,0,0,0,1,0,0,1986,632
1345,0,18,"WHI",0,0,0,"highschool",70584.4234875445,1,0,4.262403,2,9.13372071428572,12,1986,386
1346,0,18,"WHI",0,0,0,"highschool",94268.2930011862,1,1,4.262403,2,9.13372071428572,12,1986,414
1347,0,18,"WHI",1,0,0,"highschool",131893.919724771,1,0,42.0155799072513,7,90.0333855155385,360,1987,981
1348,0,18,"WHI",1,0,0,"somecollege",42306.4770642202,1,1,6.00222570103589,5,12.8619122165055,60,1987,767
1349,0,18,"WHI",0,0,0,"highschool",59271.9002293578,0,0,0,1,0,0,1987,972
1350,0,18,"WHI",1,0,0,"highschool",99033.881880734,0,0,0,1,0,0,1987,1010
1351,0,18,"WHI",1,0,0,"somecollege",20513.9745434422,1,0,4.21332650015227,3,9.02855678604058,24,1988,1310
1352,0,18,"WHI",0,0,0,"highschool",18324.2346430548,1,4,18.1173039506548,6,38.8227941799746,192,1988,1176
1353,0,18,"WHI",0,0,0,"highschool",59845.3868289984,1,0,0.702221083358712,2,1.5047594643401,12,1988,1220
1354,0,18,"WHI",0,0,0,"somecollege",3427.86386275595,1,0,4.21332650015227,3,9.02855678604058,24,1988,1197
1355,0,18,"WHI",1,0,0,"highschool",95313.0337576093,1,3,14.0444216671742,5,30.0951892868019,60,1988,1171
1356,0,18,"WHI",1,0,0,"highschool",86341.2396236857,0,0,0,1,0,0,1988,1420
1357,0,18,"WHI",0,0,0,"highschool",41412.6884338683,1,0,4.485581,2,9.61195928571429,12,1988,1189
1358,0,18,"WHI",1,0,0,"somecollege",15909.6352067869,1,2,31.7769510164479,5,68.0934664638169,132,1989,1534
1359,0,18,"WHI",1,0,0,"somecollege",133594.661717922,1,2,14.7799772169525,5,31.6713797506125,72,1989,1545
1360,0,18,"WHI",1,0,0,"highschool",13976.3223753977,1,0,4.43399316508576,4,9.50141392518377,48,1989,1785
1361,0,18,"WHI",0,0,0,"highschool",66895.3690349947,0,0,0,1,0,0,1989,1676
1362,0,18,"WHI",1,1,0,"highschool",8876.37645811241,1,1,4.720507,2,10.1153721428571,12,1989,1538
1363,0,18,"WHI",0,1,1,"highschool",89234.347826087,1,0,4.720507,2,10.1153721428571,12,1989,1538
1364,0,18,"WHI",0,0,0,"somecollege",92253.7948458818,1,1,12.3723,5,26.5120714285714,60,1990,2169
1365,0,18,"WHI",0,0,0,"somecollege",16940.9135927236,1,0,0.7732688,2,1.65700457142857,12,1990,2025
1366,0,18,"WHI",1,0,0,"highschool",95409.8948964123,1,0,11.59903,5,24.8550642857143,72,1990,1895
1367,0,18,"WHI",1,0,0,"highschool",163442.630621526,0,0,0,1,0,0,1990,1884
1368,0,18,"WHI",1,0,0,"somecollege",28072.2860030318,0,4,0,1,0,0,1990,1830
1369,0,18,"WHI",0,0,0,"highschool",15640.353713997,0,1,0,1,0,0,1990,1865
1370,0,18,"WHI",1,0,0,"highschool",69727.5745325922,0,0,0,1,0,0,1990,2023
1371,0,18,"WHI",1,0,0,"somecollege",70559.4987810824,1,0,3.758449,5,8.05381928571429,72,1991,2202
1372,0,18,"WHI",0,0,0,"highschool",726.618235007314,1,2,16.16133,5,34.6314214285714,60,1991,2390
1373,0,18,"WHI",0,0,1,"highschool",20237.1292052657,1,0,9.696799,6,20.778855,192,1991,2408
1374,0,18,"WHI",1,0,0,"highschool",28179.4451487079,0,0,0,1,0,0,1991,2493
1375,0,18,"WHI",0,0,0,"highschool",34024.8454412482,0,0,0,1,0,0,1991,2490
1376,0,18,"WHI",0,0,0,"somecollege",48313.8020477816,1,0,4.801573,2,10.289085,12,1991,2201
1377,0,18,"WHI",0,0,0,"highschool",6128.47489029742,1,2,4.801573,2,10.289085,12,1991,2353
1378,0,18,"WHI",1,0,0,"highschool",23273.4738344434,1,0,1.519133,2,3.255285,12,1992,2897
1379,0,18,"WHI",1,0,1,"highschool",33887.191246432,0,0,0,1,0,0,1992,2865
1380,0,18,"WHI",0,0,0,"highschool",73674.9971455756,0,0,0,1,0,0,1992,2726
1381,0,18,"WHI",1,0,0,"highschool",30577.9914367269,0,0,0,1,0,0,1992,2628
1382,0,18,"WHI",1,0,0,"somecollege",53307.848715509,1,0,4.851888,2,10.3969028571429,12,1992,2893
1383,0,18,"WHI",0,0,0,"somecollege",17075.5413891532,1,3,4.851888,2,10.3969028571429,12,1992,2903
1384,0,18,"WHI",0,0,0,"highschool",34024.4148430067,1,0,4.851888,2,10.3969028571429,12,1992,2875
1385,0,18,"WHI",1,1,0,"collegeplus",22822.9234338747,1,0,3.090899,4,6.623355,36,1993,3147
1386,0,18,"WHI",0,0,0,"collegeplus",16219.7197215777,1,1,12.3636,5,26.4934285714286,60,1993,3258
1387,0,18,"WHI",0,0,0,"somecollege",53390.1967517401,0,0,0,1,0,0,1993,3243
1388,0,18,"WHI",0,1,0,"somecollege",57851.8208816705,1,1,4.935938,2,10.57701,12,1993,3222
1389,0,18,"WHI",0,1,0,"highschool",5019.19454545455,1,4,15.9514,5,34.1815714285714,60,1994,3492
1390,0,18,"WHI",0,0,0,"somecollege",61919.6481818182,1,0,4.451553,4,9.53904214285714,36,1994,3313
1391,0,18,"WHI",0,1,1,"highschool",2012.04818181818,0,2,0,1,0,0,1994,3432
1392,0,18,"WHI",0,1,0,"somecollege",76955.4948956946,1,0,3.119386,4,6.68439857142857,36,1995,3974
1393,0,18,"WHI",0,1,0,"highschool",40554.8974700399,0,0,0,1,0,0,1995,3876
1394,0,18,"WHI",0,1,0,"highschool",59373.1708832668,0,1,0,1,0,0,1995,3932
1395,0,18,"WHI",0,1,0,"somecollege",155281.531291611,1,0,4.981429,2,10.6744907142857,12,1995,3973
1396,0,18,"WHI",0,0,0,"highschool",62247.2046160675,1,1,4.981429,2,10.6744907142857,12,1995,3775
1397,0,18,"WHI",0,0,0,"highschool",34334.1162893919,1,1,4.981429,2,10.6744907142857,12,1995,3896
1398,0,18,"WHI",0,0,0,"somecollege",66611.9636835279,1,8,33.80274,5,72.4344428571429,132,1996,4332
1399,0,18,"WHI",0,0,0,"somecollege",61436.682230869,1,8,33.80274,5,72.4344428571429,132,1996,4043
1400,0,18,"WHI",1,1,0,"highschool",32896.691742326,1,2,12.57776,4,26.9523428571429,36,1996,4318
1401,0,18,"WHI",1,0,1,"somecollege",33203.6593169044,1,0,0.7861101,2,1.68452164285714,12,1996,4165
1402,0,18,"WHI",0,1,0,"highschool",104415.340250757,0,0,0,1,0,0,1996,4372
1403,0,18,"WHI",0,0,0,"somecollege",22482.177258971,0,0,0,1,0,0,1996,4258
1404,0,18,"WHI",1,1,0,"highschool",16964.7548638132,0,0,0,1,0,0,1996,4185
1405,0,18,"WHI",0,0,0,"highschool",25126.5750108085,1,0,5.02144,2,10.7602285714286,12,1996,4317
1406,0,18,"WHI",0,0,0,"highschool",106189.996541288,1,4,5.02144,2,10.7602285714286,12,1996,4139
1407,0,18,"WHI",0,0,0,"somecollege",5228.53068133728,1,0,1.380305,2,2.95779642857143,12,1997,4555
1408,0,18,"WHI",0,0,0,"highschool",139959.049513331,1,0,2.76061,3,5.91559285714286,24,1997,4388
1409,0,18,"WHI",1,0,0,"somecollege",10328.7346593314,1,0,2.967656,5,6.35926285714286,60,1997,4562
1410,0,18,"WHI",0,0,0,"somecollege",121714.748201439,1,0,0.6901525,2,1.47889821428571,12,1997,4586
1411,0,18,"WHI",1,1,0,"somecollege",31450.997037664,0,0,0,1,0,0,1997,4561
1412,0,18,"WHI",0,0,0,"somecollege",96957.084214981,0,1,0,1,0,0,1997,4709
1413,0,18,"WHI",0,1,0,"highschool",89088.4663563267,1,2,4.40849,2,9.44676428571429,12,1997,4615
1414,0,18,"WHI",0,1,1,"somecollege",24277.2213288193,1,1,4.40849,2,9.44676428571429,12,1997,4391
1415,0,18,"WHI",0,1,0,"highschool",59688.3448851775,1,1,11.53647,4,24.7210071428571,48,1998,4776
1416,0,18,"WHI",1,0,0,"highschool",32846.5778705637,0,0,0,1,0,0,1998,4883
1417,0,18,"WHI",1,1,0,"somecollege",130412.015866388,0,0,0,1,0,0,1998,4995
1418,0,18,"WHI",0,0,0,"highschool",77166.9920668058,0,0,0,1,0,0,1998,4920
1419,0,18,"WHI",1,0,0,"highschool",35902.2530271399,1,0,4.912772,2,10.5273685714286,12,1998,4796
1420,0,18,"WHI",1,1,0,"highschool",33484.2705636743,1,0,4.912772,2,10.5273685714286,12,1998,4879
1421,0,18,"WHI",0,1,0,"somecollege",55119.5006263048,1,0,4.912772,2,10.5273685714286,12,1998,4910
1422,0,18,"WHI",0,1,0,"somecollege",34197.6217118998,1,0,4.912772,2,10.5273685714286,12,1998,5090
1423,0,18,"WHI",1,0,0,"highschool",30197.8135731807,1,3,11.64316,5,24.9496285714286,60,1999,5303
1424,0,18,"WHI",1,1,0,"somecollege",30684.6312346689,1,0,1.353856,3,2.90112,24,1999,5394
1425,0,18,"WHI",1,1,0,"somecollege",142422.891251022,1,0,4.061568,3,8.70336,24,1999,5215
1426,0,18,"WHI",1,1,0,"highschool",41335.6573998365,1,2,23.28633,5,49.8992785714286,120,1999,5404
1427,0,18,"WHI",1,1,0,"highschool",69383.6116107931,1,0,0.6769281,2,1.45056021428571,12,1999,5367
1428,0,18,"WHI",0,0,0,"highschool",81073.2829108749,1,1,0.6769281,2,1.45056021428571,12,1999,5315
1429,0,18,"WHI",1,1,0,"somecollege",46524.3475061325,1,0,4.061568,4,8.70336,48,1999,5139
1430,0,18,"WHI",1,1,0,"somecollege",86890.9051512674,0,1,0,1,0,0,1999,5212
1431,0,18,"WHI",0,1,0,"highschool",120054.980376124,0,0,0,1,0,0,1999,5335
1432,0,18,"WHI",0,0,0,"highschool",7491.24693376942,1,1,4.324017,2,9.26575071428572,12,1999,5244
1433,0,18,"WHI",1,1,0,"highschool",91245.0506950123,1,2,4.324017,2,9.26575071428572,12,1999,5303
1434,0,18,"WHI",0,1,0,"somecollege",67615.3491498616,1,0,0.6960677,2,1.49157364285714,12,2000,5526
1435,0,18,"WHI",1,0,0,"highschool",67277.5721629102,1,1,8.979274,5,19.2413014285714,60,2000,5755
1436,0,18,"WHI",1,0,0,"highschool",115559.209964413,1,4,47.88946,5,102.620271428571,132,2000,5713
1437,0,18,"WHI",1,1,1,"highschool",40072.6334519573,1,0,2.993091,5,6.41376642857143,60,2000,5476
1438,0,18,"WHI",1,1,0,"highschool",33040.7307236062,0,0,0,1,0,0,2000,5795
1439,0,18,"WHI",1,0,0,"highschool",73465.7635429023,0,0,0,1,0,0,2000,5548
1440,0,18,"WHI",1,1,0,"highschool",31142.745749308,1,0,4.446275,2,9.52773214285714,12,2000,5771
1441,0,18,"WHI",1,0,0,"highschool",101049.421905892,1,4,4.446275,2,9.52773214285714,12,2000,5568
1442,0,18,"WHI",0,1,0,"somecollege",93744.0806642942,1,0,4.446275,2,9.52773214285714,12,2000,5696
1443,0,18,"WHI",0,0,0,"somecollege",114261.23337178,1,1,7.100141,5,15.2145878571429,72,2001,6034
1444,0,18,"WHI",0,0,0,"highschool",35782.8773548635,1,0,0.7100141,2,1.52145878571429,12,2001,5962
1445,0,18,"WHI",1,1,0,"highschool",3477.62706651288,1,0,8.520169,5,18.257505,60,2001,6098
1446,0,18,"WHI",0,0,0,"highschool",42411.1264898116,0,0,0,1,0,0,2001,6161
1447,0,18,"WHI",0,0,0,"highschool",5634.43829296424,0,0,0,1,0,0,2001,6100
1448,0,18,"WHI",1,0,0,"somecollege",115791.048058439,1,0,4.53536,2,9.71862857142857,12,2001,6079
1449,0,18,"WHI",1,0,1,"highschool",35841.169550173,1,0,4.53536,2,9.71862857142857,12,2001,5984
1450,0,18,"WHI",0,1,0,"highschool",101791.579106737,1,0,5.909024,5,12.6621942857143,120,2002,6545
1451,0,19,"WHI",1,0,1,"highschool",66827.1430734292,1,0,0.6870958,2,1.47234814285714,12,2002,6434
1452,0,18,"WHI",1,0,0,"somecollege",34566.9220287661,1,0,11.81805,5,25.3243928571429,120,2002,6467
1453,0,18,"WHI",0,0,0,"highschool",52630.0143830432,1,2,13.74192,5,29.4469714285714,60,2002,6385
1454,0,18,"WHI",0,1,0,"highschool",33678.1143073429,1,0,1.374192,2,2.94469714285714,12,2002,6236
1455,0,18,"WHI",0,0,0,"highschool",60629.2838758516,0,0,0,1,0,0,2002,6256
1456,0,18,"WHI",0,1,0,"highschool",1472.48145344436,1,2,4.388965,2,9.404925,12,2002,6312
1457,0,18,"WHI",0,1,1,"somecollege",101704.797880394,1,0,4.388965,2,9.404925,12,2002,6358
1458,0,18,"WHI",0,0,0,"somecollege",29961.9182437547,1,0,4.388965,2,9.404925,12,2002,6513
1459,0,18,"WHI",1,0,0,"highschool",33644.6831976314,1,2,27.56881,6,59.0760214285714,288,2003,6780
1460,0,18,"WHI",0,0,0,"highschool",28096.3145817913,1,1,13.78441,5,29.5380214285714,72,2003,6849
1461,0,18,"WHI",0,1,0,"highschool",55861.4241302739,1,1,5.513763,5,11.8152064285714,120,2003,6922
1462,0,18,"WHI",1,0,0,"highschool",103678.124352332,1,0,2.756881,2,5.90760214285714,12,2003,6666
1463,0,18,"WHI",0,0,0,"somecollege",119755.254626203,1,0,6.202983,4,13.2921064285714,48,2003,6718
1464,0,18,"WHI",0,1,0,"somecollege",11005.0399703923,1,0,0.6892203,2,1.47690064285714,12,2003,6891
1465,0,18,"WHI",0,1,0,"highschool",114554.514433753,0,0,0,1,0,0,2003,6677
1466,0,18,"WHI",0,1,0,"highschool",43479.5566247224,0,0,0,1,0,0,2003,6615
1467,0,18,"WHI",0,1,0,"highschool",73721.8608438194,1,0,4.402536,2,9.43400571428571,12,2003,6846
1468,0,18,"WHI",0,1,0,"highschool",16204.4115470022,1,0,4.402536,2,9.43400571428571,12,2003,6925
1469,0,18,"WHI",0,0,0,"somecollege",95225.5529237602,1,1,4.402536,2,9.43400571428571,12,2003,6666
1470,0,18,"WHI",1,1,0,"highschool",110582.85981982,1,0,2.897247,3,6.20838642857143,24,2004,7105
1471,0,18,"WHI",0,0,1,"highschool",55489.9891891892,1,3,108.6468,7,232.814571428571,360,2004,6960
1472,0,18,"WHI",1,1,0,"highschool",94297.0010810811,1,0,8.691742,4,18.6251614285714,48,2004,7122
1473,0,18,"WHI",1,0,0,"highschool",45567.3556756757,1,1,11.58899,5,24.83355,60,2004,6984
1474,0,18,"WHI",1,0,1,"highschool",25235.685045045,1,0,4.345871,5,9.31258071428571,84,2004,7036
1475,0,18,"WHI",0,0,0,"somecollege",22826.3214414414,1,0,6.229082,5,13.3480328571429,60,2004,7146
1476,0,18,"WHI",0,1,0,"highschool",65909.6872072072,1,0,0.7243119,2,1.55209692857143,12,2004,7182
1477,0,18,"WHI",1,1,0,"highschool",58123.2317117117,0,1,0,1,0,0,2004,7138
1478,0,18,"WHI",0,1,0,"somecollege",55511.310990991,0,0,0,1,0,0,2004,7091
1479,0,18,"WHI",0,1,0,"highschool",103377.423423423,0,0,0,1,0,0,2004,7053
1480,0,18,"WHI",0,0,0,"somecollege",7585.23099099099,1,0,4.62669,2,9.91433571428571,12,2004,7128
1481,0,18,"WHI",0,1,0,"highschool",25559.5099099099,1,0,4.62669,2,9.91433571428571,12,2004,6981
1482,0,18,"WHI",1,0,0,"highschool",30073.0688288288,1,1,4.62669,2,9.91433571428571,12,2004,7019
1483,0,18,"WHI",1,1,0,"highschool",77567.7734402231,1,0,9.066657,5,19.4285507142857,60,2005,7365
1484,0,18,"WHI",0,0,0,"somecollege",49096.1380271872,1,0,1.405683,3,3.01217785714286,24,2005,7539
1485,0,18,"WHI",0,0,0,"highschool",46907.4994771697,1,0,5.622733,3,12.0487135714286,24,2005,7595
1486,0,18,"WHI",0,0,0,"highschool",5717.78598814918,0,0,0,1,0,0,2005,7401
1487,0,18,"WHI",1,1,0,"highschool",38609.2338794005,0,0,0,1,0,0,2005,7552
1488,0,18,"WHI",0,0,0,"highschool",61861.9072847682,1,0,4.489545,2,9.62045357142857,12,2005,7309
1489,0,18,"WHI",0,0,0,"highschool",36916.8414081562,1,0,4.489545,2,9.62045357142857,12,2005,7580
1490,0,18,"WHI",1,1,0,"highschool",57763.4591492235,1,0,1.474691,2,3.16005214285714,12,2006,7723
1491,0,18,"WHI",0,0,0,"somecollege",59970.773126266,0,0,0,1,0,0,2006,7985
1492,0,18,"WHI",1,0,0,"highschool",31174.5644834571,0,0,0,1,0,0,2006,7943
1493,0,18,"WHI",0,0,0,"highschool",62352.874409183,0,0,0,1,0,0,2006,7988
1494,0,18,"WHI",0,0,0,"somecollege",112212.201890614,0,0,0,1,0,0,2006,7894
1495,0,18,"WHI",0,0,0,"somecollege",7528.33896016205,0,1,0,1,0,0,2006,7867
1496,0,18,"WHI",0,1,0,"highschool",49328.723160027,1,0,4.709945,2,10.0927392857143,12,2006,7973
1497,0,18,"WHI",0,1,0,"highschool",53451.2066171506,1,0,4.709945,2,10.0927392857143,12,2006,7870
1498,0,18,"WHI",1,0,0,"somecollege",51791.9756920999,1,0,4.709945,2,10.0927392857143,12,2006,8025
1499,0,18,"WHI",0,1,0,"highschool",86830.1569271175,1,2,13.23587,5,28.3625785714286,96,2007,8351
1500,0,18,"WHI",1,1,0,"somecollege",85111.0604070913,1,0,4.411956,4,9.45419142857143,48,2007,8134
1501,0,18,"WHI",0,0,0,"highschool",29253.7780695995,0,0,0,1,0,0,2007,8288
1502,0,18,"WHI",0,1,0,"highschool",93667.6933683519,0,0,0,1,0,0,2007,8165
1503,0,18,"WHI",1,1,0,"highschool",23676.4267892318,1,0,4.697046,2,10.0650985714286,12,2007,8090
1504,0,18,"WHI",0,1,0,"somecollege",115119.978332239,1,0,4.697046,2,10.0650985714286,12,2007,8270
1505,0,18,"WHI",0,0,0,"highschool",39402.4647486563,1,0,2.210426,2,4.73662714285714,12,2008,8424
1506,0,18,"WHI",1,0,0,"somecollege",88981.1520708188,1,0,1.473617,2,3.15775071428571,12,2008,8756
1507,0,18,"WHI",0,1,0,"somecollege",103671.436610813,1,1,17.68341,5,37.8930214285714,120,2008,8646
1508,0,18,"WHI",1,1,0,"highschool",20199.2873853936,0,0,0,1,0,0,2008,8545
1509,0,18,"WHI",1,1,0,"highschool",58915.4650648119,1,1,4.706516,2,10.0853914285714,12,2008,8576
1510,0,18,"WHI",0,0,0,"highschool",12933.0622826431,1,0,4.706516,2,10.0853914285714,12,2008,8594
1511,0,18,"WHI",1,1,0,"somecollege",34994.9060913706,1,0,4.392622,4,9.41276142857143,36,2009,8934
1512,0,18,"WHI",1,1,0,"highschool",24719.8159898477,1,0,10.24945,5,21.9631071428571,108,2009,8793
1513,0,18,"WHI",1,1,0,"highschool",97731.8515228426,0,0,0,1,0,0,2009,8862
1514,0,18,"WHI",0,0,0,"highschool",58210.6497461929,1,4,4.676463,2,10.0209921428571,12,2009,8778
1515,0,18,"WHI",0,1,0,"highschool",89475.8788071066,1,0,4.676463,2,10.0209921428571,12,2009,8784
1516,0,18,"WHI",0,1,0,"highschool",4718.70431472081,1,1,4.676463,2,10.0209921428571,12,2009,8910
1517,0,18,"WHI",0,1,0,"highschool",15136.9276649746,1,0,4.676463,2,10.0209921428571,12,2009,8917
1518,0,18,"WHI",0,1,0,"somecollege",45423.9975031211,0,1,0,1,0,0,2010,9173
1519,0,18,"WHI",0,0,0,"highschool",76348.0031210986,0,0,0,1,0,0,2010,9248
1520,0,18,"WHI",0,0,0,"highschool",9150.3570536829,0,0,0,1,0,0,2010,9451
1521,0,18,"WHI",0,1,0,"highschool",24206.6647940075,1,0,4.772947,2,10.2277435714286,12,2010,9395
1522,0,18,"WHI",1,1,0,"somecollege",24235.5193508115,1,0,4.772947,2,10.2277435714286,12,2010,9198
1523,0,20,"WHI",0,1,1,"highschool",27650.7446941323,1,0,0.7472084,2,1.60116085714286,12,2010,9237
1524,0,25,"WHI",1,0,1,"collegeplus",99321.0565440886,1,0,0.6960677,2,1.49157364285714,12,2000,5553
1525,0,24,"WHI",0,1,0,"somecollege",115826.553679946,1,1,4.424072,2,9.48015428571428,12,2006,7867
1526,0,28,"WHI",1,0,1,"somecollege",66392.1557030779,1,0,5.43171169010611,5,11.6393821930845,60,1985,173
1527,0,29,"WHI",0,1,1,"collegeplus",111761.912672357,1,4,14.70652,5,31.5139714285714,60,2007,8237
1528,0,30,"WHI",1,0,1,"somecollege",83768.5153892577,0,0,0,1,0,0,1985,18
1529,0,32,"WHI",1,0,1,"somecollege",50061.1377974544,0,0,0,1,0,0,1988,1216
1530,0,31,"WHI",0,1,1,"highschool",26203.7312641938,0,0,0,1,0,0,2002,6560
1531,0,40,"WHI",0,0,1,"somecollege",78646.2248144221,1,0,1.47799772169525,4,3.16713797506125,36,1989,1612
1532,0,43,"WHI",1,0,0,"collegeplus",75891.3520678685,0,0,0,1,0,0,1989,1502
1533,0,37,"WHI",1,0,1,"collegeplus",110859.872619829,1,0,2.941304,5,6.30279428571429,60,2007,8301
1534,0,49,"WHI",0,1,1,"somecollege",103380.921954315,1,0,1.095155,2,2.34676071428571,12,2009,8926
1535,0,56,"WHI",0,1,0,"somecollege",7449.37601776462,1,3,1.031006,2,2.20929857142857,12,2003,6784
1536,0,74,"WHI",0,0,1,"highschool",44256.1275705821,1,0,21.08525,7,45.1826785714286,360,2005,7388
1537,1,18,"WHI",1,0,0,"highschool",41461.3421846711,1,0,0.678963961263264,2,1.45492277413557,12,1985,50
1538,1,18,"WHI",0,0,0,"somecollege",33764.0567290284,1,0,0.678963961263264,2,1.45492277413557,12,1985,236
1539,1,18,"WHI",0,0,0,"highschool",50037.9348219674,1,0,5.83909006686407,5,12.5123358575659,60,1985,206
1540,1,18,"WHI",1,0,0,"highschool",44991.9613759807,1,0,10.184459418949,5,21.8238416120336,72,1985,126
1541,1,18,"WHI",1,0,0,"somecollege",169068.007242004,1,0,8.75863510029611,6,18.7685037863488,192,1985,229
1542,1,18,"WHI",0,0,0,"somecollege",21163.6294508147,1,3,11.6781801337281,5,25.0246717151316,120,1985,344
1543,1,18,"WHI",1,1,0,"highschool",66876.4441762221,1,2,48.885405210955,5,104.754439737761,84,1985,38
1544,1,18,"WHI",0,0,0,"highschool",88368.14001207,0,0,0,1,0,0,1985,7
1545,1,18,"WHI",1,0,0,"highschool",102653.534097767,0,1,0,1,0,0,1985,133
1546,1,18,"WHI",1,0,0,"highschool",15314.2281231141,0,0,0,1,0,0,1985,301
1547,1,18,"WHI",0,0,0,"highschool",37926.2595051298,1,2,8.878289,2,19.024905,12,1985,256
1548,1,18,"WHI",1,0,0,"highschool",95241.9118889559,1,2,8.878289,2,19.024905,12,1985,109
1549,1,18,"WHI",0,0,0,"highschool",37631.6692818346,1,2,8.878289,2,19.024905,12,1985,11
1550,1,18,"WHI",1,0,0,"somecollege",29726.5682087782,1,1,4.00369439216567,5,8.57934512606929,84,1986,503
1551,1,18,"WHI",1,1,0,"highschool",60848.1115065243,1,20,66.0609574707335,5,141.559194580143,156,1986,705
1552,1,18,"WHI",1,0,0,"highschool",1767.84578884935,1,4,86.0794294315618,6,184.45592021049,180,1986,626
1553,1,18,"WHI",1,0,0,"highschool",94873.6595492289,1,16,45.9090290301663,5,98.3764907789278,120,1986,642
1554,1,18,"WHI",0,0,0,"highschool",10637.7817319098,0,0,0,1,0,0,1986,654
1555,1,18,"WHI",1,0,0,"somecollege",94099.4045077106,0,1,0,1,0,0,1986,624
1556,1,18,"WHI",1,0,0,"highschool",28535.5753262159,1,0,8.725538,2,18.6975814285714,12,1986,673
1557,1,18,"WHI",1,0,0,"highschool",216056.637010676,1,2,8.725538,2,18.6975814285714,12,1986,559
1558,1,18,"WHI",0,0,0,"somecollege",14711.4243119266,1,0,0.697933221050685,2,1.49557118796575,12,1987,840
1559,1,18,"WHI",1,0,0,"highschool",21846.6135321101,1,0,6.00222570103589,5,12.8619122165055,60,1987,826
1560,1,18,"WHI",1,0,0,"somecollege",18265.2362385321,1,12,41.8759932630411,6,89.7342712779452,180,1987,823
1561,1,18,"WHI",0,0,0,"highschool",24458.9621559633,1,4,24.0089028041436,5,51.447648866022,60,1987,866
1562,1,18,"WHI",0,1,0,"somecollege",6465.13876146789,1,8,72.0267084124307,5,154.342946598066,132,1987,782
1563,1,18,"WHI",1,0,0,"highschool",58400.4105504587,0,0,0,1,0,0,1987,968
1564,1,18,"WHI",0,0,0,"highschool",194577.564220183,0,0,0,1,0,0,1987,736
1565,1,18,"WHI",1,0,0,"highschool",96290.0676605505,0,1,0,1,0,0,1987,762
1566,1,18,"WHI",0,0,0,"highschool",137593.589449541,1,2,9.126335,2,19.5564321428571,12,1987,814
1567,1,18,"WHI",0,0,0,"highschool",86419.0060874378,1,10,63.1998975022841,6,135.428351790609,216,1988,1238
1568,1,18,"WHI",1,0,0,"highschool",131003.747648035,1,0,6.03910131688492,5,12.9409313933248,60,1988,1234
1569,1,18,"WHI",0,0,0,"highschool",68160.2589928058,1,1,9.182404,2,19.67658,12,1988,1231
1570,1,18,"WHI",1,0,0,"highschool",17243.6900940786,1,0,9.182404,2,19.67658,12,1988,1107
1571,1,18,"WHI",0,0,0,"highschool",180150.106253459,1,2,9.182404,2,19.67658,12,1988,1183
1572,1,18,"WHI",0,1,0,"highschool",44773.0182623132,1,0,9.182404,2,19.67658,12,1988,1346
1573,1,18,"WHI",1,1,0,"highschool",51344.553552492,1,0,1.47799772169525,2,3.16713797506125,12,1989,1822
1574,1,18,"WHI",1,0,0,"highschool",21376.243902439,1,0,6.65098974762864,4,14.2521208877757,48,1989,1543
1575,1,18,"WHI",1,0,1,"highschool",24599.7391304348,1,1,25.4215608131583,5,54.4747731710535,132,1989,1597
1576,1,18,"WHI",1,0,0,"highschool",33491.8016967126,1,0,2.21699658254288,2,4.75070696259189,12,1989,1565
1577,1,18,"WHI",1,0,0,"highschool",174504.031813362,0,1,0,1,0,0,1989,1646
1578,1,18,"WHI",1,0,0,"highschool",22829.1696712619,0,0,0,1,0,0,1989,1800
1579,1,18,"WHI",0,1,0,"highschool",11821.4432661718,1,2,9.663319,2,20.7071121428571,12,1989,1594
1580,1,18,"WHI",1,0,0,"highschool",157564.995758218,1,2,9.663319,2,20.7071121428571,12,1989,1687
1581,1,18,"WHI",1,0,0,"somecollege",13705.737009544,1,1,9.663319,2,20.7071121428571,12,1989,1489
1582,1,18,"WHI",1,0,0,"highschool",29447.5907023749,1,8,66.5011168064992,5,142.502393156784,132,1990,1918
1583,1,18,"WHI",0,0,0,"somecollege",115308.834765033,1,30,139.188384013603,7,298.260822886292,360,1990,1922
1584,1,18,"WHI",1,0,0,"highschool",8958.16675088428,1,3,4.639613,4,9.94202785714286,36,1990,1972
1585,1,18,"WHI",0,0,0,"highschool",13981.0186963113,1,4,39.90067,5,85.5014357142857,72,1990,2002
1586,1,18,"WHI",1,0,0,"highschool",135478.724608388,1,7,92.79226,6,198.840557142857,312,1990,2184
1587,1,18,"WHI",1,0,0,"somecollege",11348.132390096,1,1,4.639613,4,9.94202785714286,36,1990,2142
1588,1,18,"WHI",0,0,0,"highschool",94195.2915613946,1,5,16.62528,5,35.6256,72,1990,2175
1589,1,18,"WHI",0,0,0,"highschool",48204.8034360788,0,2,0,1,0,0,1990,2113
1590,1,18,"WHI",1,0,0,"highschool",31745.9939363315,0,1,0,1,0,0,1990,1904
1591,1,18,"WHI",0,0,0,"highschool",57480.6356745831,0,0,0,1,0,0,1990,2012
1592,1,18,"WHI",1,0,0,"highschool",1263.18746841839,0,3,0,1,0,0,1990,2157
1593,1,18,"WHI",1,0,0,"highschool",68283.1308741789,1,0,10.11144,2,21.6673714285714,12,1990,1911
1594,1,18,"WHI",1,0,0,"highschool",48429.0378979282,1,2,10.11144,2,21.6673714285714,12,1990,2115
1595,1,18,"WHI",0,0,0,"somecollege",53042.66195048,1,3,10.11144,2,21.6673714285714,12,1990,2002
1596,1,18,"WHI",1,0,1,"highschool",24316.3587670541,1,0,10.11144,2,21.6673714285714,12,1990,2179
1597,1,18,"WHI",1,0,0,"highschool",43627.7454900049,1,2,12.92907,5,27.70515,132,1991,2238
1598,1,18,"WHI",0,0,0,"somecollege",67721.5407118479,1,0,12.92907,5,27.70515,132,1991,2530
1599,1,18,"WHI",0,0,0,"somecollege",11180.5450999512,1,2,7.516898,4,16.1076385714286,36,1991,2299
1600,1,18,"WHI",0,0,0,"somecollege",37511.891760117,1,3,38.7872,5,83.1154285714286,132,1991,2208
1601,1,18,"WHI",0,0,0,"highschool",168759.338859093,1,0,12.92907,5,27.70515,60,1991,2198
1602,1,18,"WHI",1,0,0,"somecollege",7619.57484154071,0,0,0,1,0,0,1991,2380
1603,1,18,"WHI",1,0,0,"highschool",139887.532910775,1,2,9.829269,2,21.0627192857143,12,1991,2539
1604,1,18,"WHI",1,0,0,"highschool",64510.3568990736,1,0,9.829269,2,21.0627192857143,12,1991,2246
1605,1,18,"WHI",1,0,0,"highschool",61525.431018078,1,0,0.7595667,2,1.62764292857143,12,1992,2650
1606,1,18,"WHI",0,0,0,"highschool",53079.1427212179,1,2,16.71047,4,35.80815,36,1992,2732
1607,1,18,"WHI",0,0,0,"highschool",30124.098001903,0,0,0,1,0,0,1992,2901
1608,1,18,"WHI",1,0,0,"highschool",48742.5252140818,0,1,0,1,0,0,1992,2657
1609,1,18,"WHI",1,0,0,"highschool",83043.146527117,0,0,0,1,0,0,1992,2834
1610,1,18,"WHI",1,0,0,"somecollege",7640.53948620362,0,1,0,1,0,0,1992,2711
1611,1,18,"WHI",0,0,0,"highschool",32921.3482397717,1,4,9.932269,2,21.2834335714286,12,1992,2639
1612,1,18,"WHI",1,0,0,"highschool",16048.1236917222,1,2,9.932269,2,21.2834335714286,12,1992,2916
1613,1,18,"WHI",0,1,0,"collegeplus",92147.9823665893,1,0,1.54545,2,3.31167857142857,12,1993,3062
1614,1,18,"WHI",1,1,0,"somecollege",115955.89512761,1,4,64.90888,5,139.090457142857,108,1993,3053
1615,1,18,"WHI",0,0,0,"somecollege",136563.450580046,1,3,92.72698,6,198.700671428571,312,1993,2938
1616,1,18,"WHI",1,1,0,"collegeplus",79365.4292343387,1,0,3.863624,5,8.27919428571429,72,1993,3051
1617,1,18,"WHI",0,1,0,"highschool",91943.777262181,0,3,0,1,0,0,1993,3145
1618,1,18,"WHI",1,1,0,"somecollege",15890.2459396752,0,0,0,1,0,0,1993,2970
1619,1,18,"WHI",1,0,0,"highschool",13733.2222737819,0,2,0,1,0,0,1993,2958
1620,1,18,"WHI",0,1,0,"highschool",40583.6194895592,1,1,10.10433,2,21.6521357142857,12,1993,2999
1621,1,18,"WHI",1,0,0,"somecollege",87705.2343387471,1,2,10.10433,2,21.6521357142857,12,1993,2934
1622,1,18,"WHI",1,0,0,"somecollege",97079.7930394432,1,4,10.10433,2,21.6521357142857,12,1993,3139
1623,1,18,"WHI",1,0,0,"somecollege",32028.0418181818,1,0,12.76112,5,27.3452571428571,132,1994,3565
1624,1,18,"WHI",1,0,0,"highschool",23141.0754545455,1,0,11.12888,5,23.8476,72,1994,3552
1625,1,18,"WHI",1,0,0,"highschool",39178.6290909091,1,2,12.76112,5,27.3452571428571,132,1994,3458
1626,1,18,"WHI",1,1,0,"highschool",102011.010909091,1,2,26.70932,5,57.2342571428571,60,1994,3316
1627,1,18,"WHI",1,0,1,"highschool",36158.0354545455,1,0,0.7419255,2,1.58984035714286,12,1994,3342
1628,1,18,"WHI",0,1,0,"highschool",16316.5845454545,1,0,9.701588,2,20.7891171428571,12,1994,3645
1629,1,18,"WHI",1,0,0,"highschool",7643.84642698624,1,0,3.119386,4,6.68439857142857,36,1995,3675
1630,1,18,"WHI",0,0,0,"highschool",128975.341322681,1,4,53.65344,5,114.971657142857,132,1995,4010
1631,1,18,"WHI",0,0,0,"highschool",75420.8166888593,1,5,31.19386,5,66.8439857142857,60,1995,3887
1632,1,18,"WHI",0,0,0,"highschool",66227.5197514425,0,0,0,1,0,0,1995,3993
1633,1,18,"WHI",1,0,0,"somecollege",97817.2703062583,0,2,0,1,0,0,1995,3776
1634,1,18,"WHI",1,1,0,"highschool",37209.7913892588,1,0,10.19745,2,21.8516785714286,12,1995,3662
1635,1,18,"WHI",1,1,0,"highschool",67599.7026187306,1,2,10.19745,2,21.8516785714286,12,1995,3744
1636,1,18,"WHI",1,1,0,"highschool",68380.9933422104,1,2,10.19745,2,21.8516785714286,12,1995,3745
1637,1,18,"WHI",0,0,0,"highschool",31033.3271193964,1,0,10.19745,2,21.8516785714286,12,1995,3916
1638,1,18,"WHI",1,1,0,"highschool",145776.023346303,1,2,30.42246,6,65.1909857142857,204,1996,4083
1639,1,18,"WHI",0,0,0,"highschool",135371.101599654,1,3,14.14998,4,30.3213857142857,48,1996,4375
1640,1,18,"WHI",0,1,0,"highschool",140368.91742326,1,0,0.7861101,2,1.68452164285714,12,1996,4271
1641,1,18,"WHI",1,0,0,"highschool",39365.3938607869,1,3,33.80274,5,72.4344428571429,132,1996,4056
1642,1,18,"WHI",0,0,0,"somecollege",52098.1530479896,1,12,67.60547,6,144.868864285714,336,1996,4254
1643,1,18,"WHI",1,1,0,"highschool",25395.1716385646,0,0,0,1,0,0,1996,4193
1644,1,18,"WHI",0,1,0,"highschool",147608.236057069,1,0,10.27936,2,22.0272,12,1996,4341
1645,1,18,"WHI",1,0,0,"somecollege",42332.7470817121,1,1,10.27936,2,22.0272,12,1996,4327
1646,1,18,"WHI",0,0,0,"somecollege",133056.011849344,1,7,38.64854,6,82.8183,204,1997,4566
1647,1,18,"WHI",1,0,0,"highschool",33757.747778248,1,2,10.35229,4,22.1834785714286,48,1997,4659
1648,1,18,"WHI",0,1,0,"highschool",127199.932289463,1,0,1.380305,2,2.95779642857143,12,1997,4468
1649,1,18,"WHI",0,0,0,"somecollege",38285.1764705882,0,0,0,1,0,0,1997,4546
1650,1,18,"WHI",0,1,0,"highschool",154139.150232755,1,0,9.024592,2,19.3384114285714,12,1997,4550
1651,1,18,"WHI",0,0,0,"somecollege",84927.3878914405,1,3,19.84273,5,42.5201357142857,72,1998,4851
1652,1,18,"WHI",1,1,0,"highschool",154346.336534447,0,0,0,1,0,0,1998,4837
1653,1,18,"WHI",0,0,0,"highschool",144325.451356994,0,0,0,1,0,0,1998,4770
1654,1,18,"WHI",0,0,0,"highschool",143151.973277662,0,0,0,1,0,0,1998,4900
1655,1,18,"WHI",0,0,0,"highschool",35488.4475991649,1,1,10.0569,2,21.5505,12,1998,4890
1656,1,18,"WHI",1,1,0,"highschool",117946.899373695,1,2,10.0569,2,21.5505,12,1998,5009
1657,1,18,"WHI",1,0,0,"highschool",20458.6638830898,1,2,10.0569,2,21.5505,12,1998,4982
1658,1,18,"WHI",1,1,0,"highschool",22780.6475878986,1,0,0.6769281,2,1.45056021428571,12,1999,5425
1659,1,18,"WHI",0,0,0,"somecollege",686.382665576451,1,10,104.7885,6,224.546785714286,192,1999,5344
1660,1,18,"WHI",0,0,0,"somecollege",12979.2845461979,1,1,4.061568,4,8.70336,48,1999,5316
1661,1,18,"WHI",0,1,0,"somecollege",95288.2040332147,1,7,48.72474,5,104.410157142857,144,2000,5700
1662,1,18,"WHI",0,0,0,"somecollege",129719.523131673,1,6,52.20508,7,111.868028571429,360,2000,5755
1663,1,18,"WHI",1,0,0,"highschool",33821.5658362989,1,8,41.76406,7,89.4944142857143,360,2000,5771
1664,1,18,"WHI",1,0,0,"highschool",23822.7821273231,1,1,44.89637,6,96.2065071428571,192,2000,5823
1665,1,18,"WHI",1,0,0,"highschool",28724.2040332147,1,20,97.44948,6,208.820314285714,288,2000,5506
1666,1,18,"WHI",0,0,0,"highschool",35606.9584816133,1,9,80.81346,6,173.1717,192,2000,5675
1667,1,18,"WHI",1,0,0,"somecollege",145448.817714512,0,0,0,1,0,0,2000,5816
1668,1,18,"WHI",1,1,0,"highschool",22196.7734282325,0,0,0,1,0,0,2000,5774
1669,1,18,"WHI",1,1,0,"somecollege",69114.1431395809,1,2,9.101941,2,19.5041592857143,12,2000,5655
1670,1,18,"WHI",1,0,0,"highschool",106787.036524414,1,2,11.36022,3,24.3433285714286,24,2001,6054
1671,1,18,"WHI",0,0,0,"highschool",60652.3183391003,1,0,0.7100141,2,1.52145878571429,12,2001,6156
1672,1,18,"WHI",0,0,0,"highschool",39176.6205305652,1,4,17.04034,5,36.5150142857143,60,2001,5943
1673,1,18,"WHI",0,0,0,"highschool",24165.6693579393,1,1,8.520169,4,18.257505,48,2001,5866
1674,1,18,"WHI",0,1,0,"highschool",94275.5409457901,0,1,0,1,0,0,2001,6071
1675,1,18,"WHI",1,1,0,"highschool",62891.5916955017,1,2,9.284307,2,19.8949435714286,12,2001,6001
1676,1,18,"WHI",0,0,0,"highschool",2475.28565936178,1,2,9.284307,2,19.8949435714286,12,2001,5890
1677,1,18,"WHI",1,0,0,"highschool",35308.0092272203,1,0,9.284307,2,19.8949435714286,12,2001,6000
1678,1,18,"WHI",1,0,0,"somecollege",136212.932626798,1,16,54.96766,6,117.787842857143,228,2002,6545
1679,1,18,"WHI",1,1,0,"highschool",109114.794852385,1,1,49.4709,7,106.009071428571,348,2002,6563
1680,1,18,"WHI",0,1,0,"highschool",6409.21347464042,0,3,0,1,0,0,2002,6432
1681,1,18,"WHI",1,1,0,"highschool",115710.168054504,0,0,0,1,0,0,2002,6365
1682,1,18,"WHI",1,0,0,"highschool",1517.27176381529,0,0,0,1,0,0,2002,6569
1683,1,18,"WHI",0,0,0,"highschool",43057.4852384557,1,2,8.984622,2,19.2527614285714,12,2002,6306
1684,1,18,"WHI",0,0,0,"highschool",83409.3557910674,1,1,8.984622,2,19.2527614285714,12,2002,6491
1685,1,18,"WHI",0,1,0,"highschool",49975.0074019245,1,0,5.927295,5,12.7013464285714,60,2003,6734
1686,1,18,"WHI",0,0,0,"highschool",104440.443375278,1,2,17.78188,5,38.1040285714286,120,2003,6582
1687,1,18,"WHI",0,1,0,"somecollege",52341.3441894893,0,2,0,1,0,0,2003,6734
1688,1,18,"WHI",1,0,0,"highschool",33384.6461880089,0,0,0,1,0,0,2003,6884
1689,1,18,"WHI",0,0,0,"highschool",84194.5092524056,0,0,0,1,0,0,2003,6693
1690,1,18,"WHI",1,0,0,"highschool",19812.0829015544,1,0,9.012403,2,19.3122921428571,12,2003,6792
1691,1,18,"WHI",0,0,0,"somecollege",23174.7720207254,1,1,9.012403,2,19.3122921428571,12,2003,6791
1692,1,18,"WHI",1,0,0,"highschool",17405.2533333333,1,0,5.794495,3,12.416775,24,2004,7016
1693,1,18,"WHI",1,1,0,"highschool",100538.958558559,1,4,43.60357,5,93.4362214285714,132,2004,6953
1694,1,18,"WHI",0,1,0,"highschool",110053.812612613,1,2,28.97247,6,62.0838642857143,300,2004,7187
1695,1,18,"WHI",1,0,0,"highschool",27935.5581981982,0,0,0,1,0,0,2004,6993
1696,1,18,"WHI",1,1,0,"highschool",19749.3189189189,0,0,0,1,0,0,2004,7247
1697,1,18,"WHI",0,0,0,"somecollege",74920.8136936937,1,2,9.471268,2,20.2955742857143,12,2004,7252
1698,1,18,"WHI",0,0,0,"somecollege",83886.6313513513,1,2,9.471268,2,20.2955742857143,12,2004,6936
1699,1,18,"WHI",0,1,0,"somecollege",4095.11855855856,1,2,9.471268,2,20.2955742857143,12,2004,7133
1700,1,18,"WHI",1,0,0,"highschool",39958.7654234925,1,0,18.13331,5,38.8570928571429,132,2005,7403
1701,1,18,"WHI",0,1,0,"highschool",115716.851864761,1,0,4.21705,4,9.03653571428571,48,2005,7352
1702,1,18,"WHI",1,1,0,"somecollege",5171.2708260718,1,1,14.05683,5,30.1217785714286,144,2005,7498
1703,1,18,"WHI",0,1,0,"highschool",104115.005228303,1,0,2.108525,2,4.51826785714286,12,2005,7350
1704,1,18,"WHI",0,0,0,"highschool",47207.8250261415,1,1,0.7028417,2,1.50608935714286,12,2005,7395
1705,1,18,"WHI",0,0,0,"somecollege",54124.3353084699,0,1,0,1,0,0,2005,7636
1706,1,18,"WHI",0,1,0,"highschool",4587.3760892297,0,0,0,1,0,0,2005,7471
1707,1,18,"WHI",0,0,0,"somecollege",105143.58800976,1,3,9.190519,2,19.6939692857143,12,2005,7664
1708,1,18,"WHI",0,1,0,"highschool",28204.822586267,1,0,9.190519,2,19.6939692857143,12,2005,7418
1709,1,18,"WHI",1,1,0,"highschool",31030.2028581387,1,0,9.190519,2,19.6939692857143,12,2005,7492
1710,1,18,"WHI",1,0,0,"highschool",112873.426280934,1,0,9.190519,2,19.6939692857143,12,2005,7441
1711,1,18,"WHI",0,0,0,"somecollege",123585.896828163,1,0,9.190519,2,19.6939692857143,12,2005,7542
1712,1,18,"WHI",1,0,0,"highschool",29837.4415935179,1,3,19.90833,4,42.6607071428571,48,2006,8025
1713,1,18,"WHI",0,1,0,"somecollege",114000.026333558,0,0,0,1,0,0,2006,7746
1714,1,18,"WHI",1,0,0,"highschool",27401.6556380824,0,0,0,1,0,0,2006,7915
1715,1,18,"WHI",1,0,0,"somecollege",33378.1330182309,0,0,0,1,0,0,2006,7985
1716,1,18,"WHI",0,1,0,"highschool",74841.4274139095,0,1,0,1,0,0,2006,7733
1717,1,18,"WHI",0,1,0,"somecollege",121602.025658339,1,0,9.641698,2,20.6607814285714,12,2006,7998
1718,1,18,"WHI",0,1,0,"highschool",65997.1897366644,1,0,9.641698,2,20.6607814285714,12,2006,7756
1719,1,18,"WHI",0,1,0,"highschool",72788.9250506415,1,0,9.641698,2,20.6607814285714,12,2006,7731
1720,1,18,"WHI",1,0,0,"highschool",7110.69796454366,1,3,11.02989,6,23.6354785714286,228,2007,8168
1721,1,18,"WHI",0,0,0,"somecollege",105571.465528562,1,0,1.470652,4,3.15139714285714,36,2007,8156
1722,1,18,"WHI",0,0,0,"highschool",59704.6106369009,1,10,36.7663,5,78.7849285714286,156,2007,8086
1723,1,18,"WHI",0,1,0,"somecollege",40049.1214707813,1,0,2.205978,2,4.72709571428571,12,2007,8257
1724,1,18,"WHI",1,0,0,"highschool",36827.0295469468,0,1,0,1,0,0,2007,8034
1725,1,18,"WHI",0,0,0,"somecollege",46204.36112935,0,2,0,1,0,0,2007,8352
1726,1,18,"WHI",1,1,0,"highschool",24321.0879842416,1,0,9.615292,2,20.6041971428571,12,2007,8300
1727,1,18,"WHI",0,1,0,"highschool",31902.8378200919,1,1,9.615292,2,20.6041971428571,12,2007,8247
1728,1,18,"WHI",0,0,0,"somecollege",36618.2127380171,1,0,9.615292,2,20.6041971428571,12,2007,8309
1729,1,18,"WHI",1,1,0,"highschool",115569.177281681,1,3,9.615292,2,20.6041971428571,12,2007,8075
1730,1,18,"WHI",0,1,0,"highschool",115479.783117294,1,5,36.84043,5,78.9437785714286,72,2008,8635
1731,1,18,"WHI",0,1,1,"highschool",13624.025924755,1,0,0.7368086,2,1.57887557142857,12,2008,8625
1732,1,18,"WHI",1,1,0,"somecollege",58071.3436610812,1,0,1.473617,2,3.15775071428571,12,2008,8707
1733,1,18,"WHI",1,0,0,"highschool",57800.1024343977,1,3,63.36554,5,135.7833,132,2008,8758
1734,1,18,"WHI",0,0,0,"somecollege",59434.5646538097,1,0,4.420852,4,9.47325428571429,48,2008,8523
1735,1,18,"WHI",0,0,0,"highschool",17438.9402466013,0,0,0,1,0,0,2008,8491
1736,1,18,"WHI",0,1,0,"highschool",14498.5450521657,1,1,9.634678,2,20.6457385714286,12,2008,8646
1737,1,18,"WHI",0,0,0,"somecollege",12038.6677205185,1,1,9.634678,2,20.6457385714286,12,2008,8435
1738,1,18,"WHI",0,1,0,"highschool",4059.26525450522,1,2,9.634678,2,20.6457385714286,12,2008,8499
1739,1,18,"WHI",1,0,0,"highschool",17442.3115482234,1,2,14.64207,4,31.3758642857143,36,2009,8776
1740,1,18,"WHI",0,1,0,"somecollege",52886.5621827411,1,1,7.321037,5,15.6879364285714,72,2009,9044
1741,1,18,"WHI",0,1,0,"highschool",94016.2531725888,0,0,0,1,0,0,2009,8926
1742,1,18,"WHI",0,1,0,"highschool",105390.6535533,0,0,0,1,0,0,2009,8776
1743,1,18,"WHI",1,0,0,"highschool",29522.9923857868,0,0,0,1,0,0,2009,9088
1744,1,18,"WHI",1,0,0,"highschool",84657.4505076142,0,0,0,1,0,0,2009,9085
1745,1,18,"WHI",0,1,0,"somecollege",9069.01649746193,1,3,9.573156,2,20.5139057142857,12,2009,9016
1746,1,18,"WHI",0,0,0,"highschool",3835.2671319797,1,1,9.573156,2,20.5139057142857,12,2009,8778
1747,1,18,"WHI",0,1,0,"highschool",33606.3252184769,1,2,14.94417,5,32.0232214285714,60,2010,9135
1748,1,18,"WHI",0,0,0,"somecollege",9572.78776529338,1,0,2.988833,4,6.40464214285714,36,2010,9197
1749,1,18,"WHI",0,0,0,"highschool",96169.929463171,1,12,71.732,6,153.711428571429,240,2010,9430
1750,1,18,"WHI",1,1,0,"somecollege",55989.3820224719,1,0,1.494417,2,3.20232214285714,12,2010,9267
1751,1,18,"WHI",1,0,0,"somecollege",2318.75218476904,0,1,0,1,0,0,2010,9264
1752,1,18,"WHI",0,1,0,"somecollege",5101.48564294632,0,2,0,1,0,0,2010,9476
1753,1,18,"WHI",0,1,0,"highschool",96197.6298377029,1,1,9.770668,2,20.9371457142857,12,2010,9350
1754,1,18,"WHI",1,1,0,"somecollege",104372.702871411,1,1,9.770668,2,20.9371457142857,12,2010,9179
1755,1,18,"WHI",0,0,0,"somecollege",16143.5474406991,1,0,9.770668,2,20.9371457142857,12,2010,9428
1756,1,23,"WHI",1,1,0,"highschool",32581.5879794385,1,1,29.93091,5,64.1376642857143,132,2000,5515
1757,1,20,"WHI",1,1,0,"collegeplus",121624.498311951,1,0,5.898763,5,12.6402064285714,60,2006,7966
1758,1,25,"WHI",1,0,0,"highschool",100723.942446043,1,5,105.684273045486,7,226.466299383184,360,1988,1220
1759,1,24,"WHI",1,0,0,"highschool",3859.49666913398,0,0,0,1,0,0,2003,6651
1760,1,29,"WHI",1,1,1,"highschool",27415.500988533,0,0,0,1,0,0,2000,5480
1761,1,28,"WHI",1,1,1,"highschool",53692.9023079355,1,0,6.336554,5,13.57833,132,2008,8749
1762,1,33,"WHI",1,0,1,"collegeplus",148852.981651376,1,0,9.126335,2,19.5564321428571,12,1987,987
1763,1,31,"WHI",1,0,0,"collegeplus",9707.46450116009,1,1,4.636349,2,9.93503357142857,12,1993,3269
1764,1,32,"WHI",1,1,0,"collegeplus",101505.230925051,1,4,55.30091,7,118.50195,360,2006,7692
1765,1,34,"WHI",1,1,1,"collegeplus",99801.5725576984,1,0,6.336554,5,13.57833,60,2008,8542
1766,1,32,"WHI",1,0,1,"collegeplus",22868.4413531457,1,0,9.634678,2,20.6457385714286,12,2008,8553
1767,1,45,"WHI",1,0,1,"highschool",110161.808486239,1,1,60.0222570103589,6,128.619122165055,312,1987,1035
1768,1,65,"WHI",0,0,1,"highschool",11713.1605504587,0,3,0,1,0,0,1987,941
