"X","microsim.init.id","microsim.init.sex","microsim.init.age","microsim.init.race","microsim.roles.employment.status","microsim.roles.parenthood.status","microsim.roles.marital.status","microsim.init.education","microsim.init.income","microsim.init.drinkingstatus","microsim.init.heavy.episodic.drinking","microsim.init.alc.gpd","microsim.init.drink.frequency","microsim.init.drinks.per.month","microsim.init.annual.frequency","microsim.init.spawn.year","microsim.spawn.tick","norms.autonomy","habit.update.interval","trait.impulsivity"
544,1001,1,18,"WHI",0,0,0,"highschool",88368.14001207,0,0,0,1,0,0,1985,7,0.991,106,0.258433460954964
549,1002,1,18,"WHI",0,0,0,"highschool",37631.6692818346,1,2,8.878289,2,19.024905,12,1985,11,0.947,91,0.50086979192326
528,1003,0,30,"WHI",1,0,1,"somecollege",83768.5153892577,0,0,0,1,0,0,1985,18,0.895,72,0.322441348699559
543,1004,1,18,"WHI",1,1,0,"highschool",66876.4441762221,1,2,48.885405210955,5,104.754439737761,84,1985,38,0.988,131,0.353650988010808
537,1005,1,18,"WHI",1,0,0,"highschool",41461.3421846711,1,0,0.678963961263264,2,1.45492277413557,12,1985,50,0.983,107,0.846362280892556
337,1006,0,18,"WHI",0,0,0,"highschool",87819.1309595655,1,1,4.337021,2,9.29361642857143,12,1985,79,0.725,149,0.544171361474166
1,1007,0,18,"BLA",0,0,0,"highschool",1013.21182860591,1,0,5.83909006686407,5,12.5123358575659,60,1985,84,0.081,166,0.535164711255671
336,1008,0,18,"WHI",1,0,1,"highschool",51325.6511768256,1,1,4.337021,2,9.29361642857143,12,1985,91,0.866,96,0.21422299919662
335,1009,0,18,"WHI",0,0,0,"somecollege",80594.9752564876,0,0,0,1,0,0,1985,98,0.937,61,0.863939594430839
548,1010,1,18,"WHI",1,0,0,"highschool",95241.9118889559,1,2,8.878289,2,19.024905,12,1985,109,0.955,117,0.10434552266827
540,1011,1,18,"WHI",1,0,0,"highschool",44991.9613759807,1,0,10.184459418949,5,21.8238416120336,72,1985,126,0.983,88,0.502672700296059
545,1012,1,18,"WHI",1,0,0,"highschool",102653.534097767,0,1,0,1,0,0,1985,133,0.972,132,0.333404734033561
90,1013,0,18,"OTH",0,0,0,"somecollege",142420.982498491,1,0,5.43171169010611,5,11.6393821930845,60,1985,166,0.162,115,0.641980964055327
526,1014,0,28,"WHI",1,0,1,"somecollege",66392.1557030779,1,0,5.43171169010611,5,11.6393821930845,60,1985,173,0.306,102,0.35176495032206
539,1015,1,18,"WHI",0,0,0,"highschool",50037.9348219674,1,0,5.83909006686407,5,12.5123358575659,60,1985,206,1,89,0.358017119725669
541,1016,1,18,"WHI",1,0,0,"somecollege",169068.007242004,1,0,8.75863510029611,6,18.7685037863488,192,1985,229,0.931,99,0.231198088662191
168,1017,0,18,"SPA",1,0,0,"highschool",15401.2661436331,0,0,0,1,0,0,1985,232,0.954,76,0.682095193022343
538,1018,1,18,"WHI",0,0,0,"somecollege",33764.0567290284,1,0,0.678963961263264,2,1.45492277413557,12,1985,236,0.985,73,0.327389313606266
334,1019,0,18,"WHI",0,0,0,"somecollege",4840.65298732649,1,2,14.5977251671602,5,31.2808396439147,60,1985,244,0.44,93,0.75813511037876
547,1020,1,18,"WHI",0,0,0,"highschool",37926.2595051298,1,2,8.878289,2,19.024905,12,1985,256,0.996,81,0.127244442051449
242,1021,1,18,"SPA",1,0,0,"somecollege",129773.688593844,1,1,8.14756753515917,4,17.4590732896268,48,1985,290,0.677,172,0.125148638312544
333,1022,0,18,"WHI",0,0,0,"highschool",33085.6065178033,1,2,23.3563602674563,6,50.0493434302635,252,1985,300,0.304,165,0.570686268468235
112,1023,0,28,"OTH",1,0,0,"collegeplus",69346.9849124925,1,0,1.554382,2,3.33081857142857,12,1985,301,0.778,94,0.262919350846991
546,1024,1,18,"WHI",1,0,0,"highschool",15314.2281231141,0,0,0,1,0,0,1985,301,0.941,105,0.171125671953407
91,1025,0,18,"OTH",0,0,0,"highschool",167032.656608328,1,0,1.554382,2,3.33081857142857,12,1985,335,0.726,141,0.119249996046451
542,1026,1,18,"WHI",0,0,0,"somecollege",21163.6294508147,1,3,11.6781801337281,5,25.0246717151316,120,1985,344,0.537,84,0.629847763661469
244,1027,1,18,"SPA",0,0,0,"highschool",8970.83036773428,1,2,11.4772572575416,5,24.594122694732,120,1986,372,0.745,88,0.22529550176283
339,1028,0,18,"WHI",1,0,0,"highschool",91557.3036773428,1,0,1.33456479738856,3,2.85978170868977,24,1986,376,0.719,90,0.198975448327661
343,1029,0,18,"WHI",0,0,1,"highschool",51322.3618030842,0,0,0,1,0,0,1986,380,0.908,132,0.23458646889765
345,1030,0,18,"WHI",0,0,0,"highschool",70584.4234875445,1,0,4.262403,2,9.13372071428572,12,1986,386,0.745,108,0.413602324314988
346,1031,0,18,"WHI",0,0,0,"highschool",94268.2930011862,1,1,4.262403,2,9.13372071428572,12,1986,414,0.708,164,0.133834078361124
110,1032,0,23,"OTH",0,0,0,"highschool",41761.5183867141,0,0,0,1,0,0,1986,415,0.931,165,0.126464329205648
56,1033,1,18,"BLA",1,0,0,"highschool",30875.8873072361,0,2,0,1,0,0,1986,446,0.995,164,0.174122469610888
550,1034,1,18,"WHI",1,0,0,"somecollege",29726.5682087782,1,1,4.00369439216567,5,8.57934512606929,84,1986,503,0.92,129,0.573259239651844
342,1035,0,18,"WHI",0,0,1,"highschool",17570.9833926453,0,0,0,1,0,0,1986,521,0.893,87,0.292562405062664
340,1036,0,18,"WHI",1,0,0,"highschool",3976.55634638197,1,1,8.60794294315618,5,18.445592021049,60,1986,537,0.21,64,0.448339188296741
341,1037,0,18,"WHI",0,0,0,"somecollege",30237.6204033215,0,0,0,1,0,0,1986,537,0.973,99,0.227390246158547
557,1038,1,18,"WHI",1,0,0,"highschool",216056.637010676,1,2,8.725538,2,18.6975814285714,12,1986,559,0.988,81,0.451290020953239
243,1039,1,18,"SPA",0,0,0,"highschool",36800.1447212337,1,7,60.2556006020933,6,129.119144147343,180,1986,607,0.998,123,0.432281957448665
58,1040,1,18,"BLA",0,0,0,"somecollege",5228.96322657177,1,2,4.654568,2,9.97407428571429,12,1986,608,0.965,82,0.116796814542561
555,1041,1,18,"WHI",1,0,0,"somecollege",94099.4045077106,0,1,0,1,0,0,1986,624,0.979,149,0.123126967168357
552,1042,1,18,"WHI",1,0,0,"highschool",1767.84578884935,1,4,86.0794294315618,6,184.45592021049,180,1986,626,0.967,160,0.509749101731852
344,1043,0,18,"WHI",1,0,0,"highschool",25403.4614472123,0,0,0,1,0,0,1986,632,0.909,103,0.239369299076694
553,1044,1,18,"WHI",1,0,0,"highschool",94873.6595492289,1,16,45.9090290301663,5,98.3764907789278,120,1986,642,0.962,66,0.351564932983991
55,1045,1,18,"BLA",1,0,0,"highschool",83663.4116251483,1,0,4.00369439216567,4,8.57934512606929,48,1986,648,0.989,98,0.34784680206455
554,1046,1,18,"WHI",0,0,0,"highschool",10637.7817319098,0,0,0,1,0,0,1986,654,0.975,122,0.408081749310101
556,1047,1,18,"WHI",1,0,0,"highschool",28535.5753262159,1,0,8.725538,2,18.6975814285714,12,1986,673,1,109,0.268344857321956
134,1048,1,18,"OTH",1,0,0,"highschool",22694.665480427,1,6,24.022166352994,5,51.4760707564157,60,1986,684,0.942,133,0.604910943531796
169,1049,0,18,"SPA",0,0,0,"highschool",21828.2894424674,1,0,1.978875,2,4.24044642857143,12,1986,692,0.719,132,0.349162831511772
338,1050,0,18,"WHI",0,0,0,"somecollege",21508.059311981,1,2,22.9545145150832,5,49.188245389464,120,1986,696,0.137,140,0.516983317626167
551,1051,1,18,"WHI",1,1,0,"highschool",60848.1115065243,1,20,66.0609574707335,5,141.559194580143,156,1986,705,0.944,136,0.562561620603542
57,1052,1,18,"BLA",0,0,0,"somecollege",23102.6298932384,1,0,4.654568,2,9.97407428571429,12,1986,710,0.952,107,0.15003181520114
171,1053,0,18,"SPA",0,1,0,"highschool",91455.5263761468,0,0,0,1,0,0,1987,733,0.893,131,0.350219037964322
564,1054,1,18,"WHI",0,0,0,"highschool",194577.564220183,0,0,0,1,0,0,1987,736,0.98,143,0.461485128660518
246,1055,1,18,"SPA",1,1,0,"somecollege",71958.3302752294,0,0,0,1,0,0,1987,742,0.996,81,0.189369858707204
565,1056,1,18,"WHI",1,0,0,"highschool",96290.0676605505,0,1,0,1,0,0,1987,762,0.989,161,0.532732273590557
348,1057,0,18,"WHI",1,0,0,"somecollege",42306.4770642202,1,1,6.00222570103589,5,12.8619122165055,60,1987,767,0.22,131,0.106575470638763
562,1058,1,18,"WHI",0,1,0,"somecollege",6465.13876146789,1,8,72.0267084124307,5,154.342946598066,132,1987,782,0.999,122,0.62914550325701
4,1059,0,18,"BLA",0,0,0,"somecollege",4923.59862385321,0,2,0,1,0,0,1987,791,0.918,65,0.153696927208194
566,1060,1,18,"WHI",0,0,0,"highschool",137593.589449541,1,2,9.126335,2,19.5564321428571,12,1987,814,0.971,98,0.210909785284217
3,1061,0,18,"BLA",1,0,0,"highschool",23841.9220183486,1,0,2.79173288420274,3,5.98228475186301,24,1987,817,0.72,77,0.248635678667108
245,1062,1,18,"SPA",1,0,0,"highschool",26212.5435779817,1,1,21.0077899536256,5,45.0166927577691,60,1987,818,0.876,155,0.360383221755558
560,1063,1,18,"WHI",1,0,0,"somecollege",18265.2362385321,1,12,41.8759932630411,6,89.7342712779452,180,1987,823,0.995,126,0.406424575537339
559,1064,1,18,"WHI",1,0,0,"highschool",21846.6135321101,1,0,6.00222570103589,5,12.8619122165055,60,1987,826,0.994,166,0.370675170368147
558,1065,1,18,"WHI",0,0,0,"somecollege",14711.4243119266,1,0,0.697933221050685,2,1.49557118796575,12,1987,840,0.988,101,0.298767250220735
561,1066,1,18,"WHI",0,0,0,"highschool",24458.9621559633,1,4,24.0089028041436,5,51.447648866022,60,1987,866,0.564,125,0.199940257902669
2,1067,0,18,"BLA",0,0,0,"highschool",31920.6949541284,1,0,0.697933221050685,2,1.49557118796575,12,1987,886,0.745,112,0.440048140146375
5,1068,0,18,"BLA",0,0,0,"somecollege",7313.30389908257,0,2,0,1,0,0,1987,923,0.904,100,0.862081162785657
768,1069,1,65,"WHI",0,0,1,"highschool",11713.1605504587,0,3,0,1,0,0,1987,941,0.998,87,0.226499441025089
563,1070,1,18,"WHI",1,0,0,"highschool",58400.4105504587,0,0,0,1,0,0,1987,968,0.963,64,0.153574793813927
349,1071,0,18,"WHI",0,0,0,"highschool",59271.9002293578,0,0,0,1,0,0,1987,972,0.889,145,0.39702910092451
59,1072,1,18,"BLA",0,0,0,"highschool",51097.7087155963,0,0,0,1,0,0,1987,973,1,142,0.115461882740307
347,1073,0,18,"WHI",1,0,0,"highschool",131893.919724771,1,0,42.0155799072513,7,90.0333855155385,360,1987,981,0.922,121,0.683341818414502
325,1074,1,32,"SPA",1,0,0,"highschool",40448.995412844,0,0,0,1,0,0,1987,983,0.974,142,0.332393392953565
762,1075,1,33,"WHI",1,0,1,"collegeplus",148852.981651376,1,0,9.126335,2,19.5564321428571,12,1987,987,0.913,108,0.176235293159653
170,1076,0,18,"SPA",0,0,1,"highschool",30500.0183486239,0,0,0,1,0,0,1987,994,0.894,169,0.264220947837283
350,1077,0,18,"WHI",1,0,0,"highschool",99033.881880734,0,0,0,1,0,0,1987,1010,0.897,67,0.23180239071234
767,1078,1,45,"WHI",1,0,1,"highschool",110161.808486239,1,1,60.0222570103589,6,128.619122165055,312,1987,1035,0.988,173,0.676588332415122
6,1079,0,18,"BLA",0,0,0,"somecollege",5122.91743119266,1,0,2.918734,2,6.25443,12,1987,1093,0.739,123,0.144659273348335
570,1080,1,18,"WHI",1,0,0,"highschool",17243.6900940786,1,0,9.182404,2,19.67658,12,1988,1107,0.808,63,0.355039795599309
355,1081,0,18,"WHI",1,0,0,"highschool",95313.0337576093,1,3,14.0444216671742,5,30.0951892868019,60,1988,1171,0.044,99,0.779556548512196
352,1082,0,18,"WHI",0,0,0,"highschool",18324.2346430548,1,4,18.1173039506548,6,38.8227941799746,192,1988,1176,0.349,135,0.329377083452573
92,1083,0,18,"OTH",1,0,0,"highschool",35025.6059767571,1,0,2.80888433343485,3,6.01903785736039,24,1988,1180,0.707,115,0.400839685289312
571,1084,1,18,"WHI",0,0,0,"highschool",180150.106253459,1,2,9.182404,2,19.67658,12,1988,1183,0.91,117,0.329065047050174
60,1085,1,18,"BLA",0,0,0,"highschool",191794.610957388,1,0,1.40444216671742,2,3.00951892868019,12,1988,1188,0.913,89,0.545288606814467
357,1086,0,18,"WHI",0,0,0,"highschool",41412.6884338683,1,0,4.485581,2,9.61195928571429,12,1988,1189,0.812,87,0.169785895015793
61,1087,1,18,"BLA",0,0,0,"highschool",47367.9623685667,1,5,63.4105638272917,6,135.879779629911,192,1988,1194,0.991,66,0.780023744883272
354,1088,0,18,"WHI",0,0,0,"somecollege",3427.86386275595,1,0,4.21332650015227,3,9.02855678604058,24,1988,1197,0.812,146,0.397298609160682
529,1089,0,32,"WHI",1,0,1,"somecollege",50061.1377974544,0,0,0,1,0,0,1988,1216,0.895,115,0.224092910667481
247,1090,1,18,"SPA",0,0,0,"highschool",56528.0332042059,1,0,14.0444216671742,5,30.0951892868019,72,1988,1219,0.941,90,0.335734630535154
758,1091,1,25,"WHI",1,0,0,"highschool",100723.942446043,1,5,105.684273045486,7,226.466299383184,360,1988,1220,0.906,139,0.530063212214975
353,1092,0,18,"WHI",0,0,0,"highschool",59845.3868289984,1,0,0.702221083358712,2,1.5047594643401,12,1988,1220,0.764,133,0.244752304874223
62,1093,1,18,"BLA",1,0,0,"highschool",10985.5362479247,0,2,0,1,0,0,1988,1223,0.984,136,0.262046604909105
569,1094,1,18,"WHI",0,0,0,"highschool",68160.2589928058,1,1,9.182404,2,19.67658,12,1988,1231,0.862,66,0.375801771241229
568,1095,1,18,"WHI",1,0,0,"highschool",131003.747648035,1,0,6.03910131688492,5,12.9409313933248,60,1988,1234,0.817,129,0.587608909717816
567,1096,1,18,"WHI",0,0,0,"highschool",86419.0060874378,1,10,63.1998975022841,6,135.428351790609,216,1988,1238,0.95,86,0.525528927485259
7,1097,0,18,"BLA",1,1,0,"somecollege",3466.74709463199,0,0,0,1,0,0,1988,1252,0.897,124,0.145566329930978
8,1098,0,18,"BLA",1,0,1,"highschool",97699.2363032651,0,0,0,1,0,0,1988,1268,0.905,143,0.147966572329005
63,1099,1,18,"BLA",1,0,0,"highschool",11114.4648588821,0,2,0,1,0,0,1988,1297,1,126,0.322701392397885
351,1100,0,18,"WHI",1,0,0,"somecollege",20513.9745434422,1,0,4.21332650015227,3,9.02855678604058,24,1988,1310,0.747,95,0.255510422504347
572,1101,1,18,"WHI",0,1,0,"highschool",44773.0182623132,1,0,9.182404,2,19.67658,12,1988,1346,0.983,96,0.647660726543636
93,1102,0,18,"OTH",1,0,0,"highschool",92801.9955727726,1,0,0.702221083358712,2,1.5047594643401,12,1988,1370,0.729,106,0.139761671356934
135,1103,1,18,"OTH",1,0,0,"highschool",75789.558384062,1,10,36.2346079013095,5,77.6455883599489,132,1988,1410,0.961,85,0.530499097592517
356,1104,0,18,"WHI",1,0,0,"highschool",86341.2396236857,0,0,0,1,0,0,1988,1420,0.893,87,0.6392306997494
172,1105,0,18,"SPA",0,0,0,"highschool",58865.1200885446,1,0,12.6399795004568,5,27.0856703581217,84,1988,1421,0.167,124,0.431351384238806
174,1106,0,18,"SPA",0,0,1,"somecollege",6444.38406198119,0,0,0,1,0,0,1988,1442,0.911,80,0.20604584888028
173,1107,0,18,"SPA",1,0,0,"highschool",61881.6402877698,1,0,4.21332650015227,3,9.02855678604058,24,1988,1457,0.747,116,0.575732332692452
314,1108,1,21,"SPA",1,0,0,"highschool",87820.6373276776,1,2,70.9438906413721,5,152.02262280294,120,1989,1463,0.944,105,0.638642296421759
581,1109,1,18,"WHI",1,0,0,"somecollege",13705.737009544,1,1,9.663319,2,20.7071121428571,12,1989,1489,0.973,81,0.497937109977467
532,1110,0,43,"WHI",1,0,0,"collegeplus",75891.3520678685,0,0,0,1,0,0,1989,1502,0.893,153,0.157449948234128
358,1111,0,18,"WHI",1,0,0,"somecollege",15909.6352067869,1,2,31.7769510164479,5,68.0934664638169,132,1989,1534,0.246,101,0.525080906154109
363,1112,0,18,"WHI",0,1,1,"highschool",89234.347826087,1,0,4.720507,2,10.1153721428571,12,1989,1538,0.711,106,0.687893236030084
362,1113,0,18,"WHI",1,1,0,"highschool",8876.37645811241,1,1,4.720507,2,10.1153721428571,12,1989,1538,0.713,101,0.238229799568949
574,1114,1,18,"WHI",1,0,0,"highschool",21376.243902439,1,0,6.65098974762864,4,14.2521208877757,48,1989,1543,0.691,93,0.163458079675779
359,1115,0,18,"WHI",1,0,0,"somecollege",133594.661717922,1,2,14.7799772169525,5,31.6713797506125,72,1989,1545,0.32,173,0.743550145813662
576,1116,1,18,"WHI",1,0,0,"highschool",33491.8016967126,1,0,2.21699658254288,2,4.75070696259189,12,1989,1565,0.998,147,0.415014823660433
579,1117,1,18,"WHI",0,1,0,"highschool",11821.4432661718,1,2,9.663319,2,20.7071121428571,12,1989,1594,0.864,106,0.582125534984638
575,1118,1,18,"WHI",1,0,1,"highschool",24599.7391304348,1,1,25.4215608131583,5,54.4747731710535,132,1989,1597,0.497,108,0.339438331000653
248,1119,1,18,"SPA",1,0,0,"highschool",49960.2545068929,0,1,0,1,0,0,1989,1604,0.968,85,0.766073917756704
531,1120,0,40,"WHI",0,0,1,"somecollege",78646.2248144221,1,0,1.47799772169525,4,3.16713797506125,36,1989,1612,0.079,156,0.328379298948921
328,1121,1,35,"SPA",0,1,0,"highschool",3647.02014846235,1,0,2.21699658254288,4,4.75070696259189,48,1989,1613,0.909,149,0.354671794277289
577,1122,1,18,"WHI",1,0,0,"highschool",174504.031813362,0,1,0,1,0,0,1989,1646,0.96,69,0.134900730375323
123,1123,0,47,"OTH",0,0,1,"collegeplus",86879.4708377519,1,0,0.8692323,2,1.86264064285714,12,1989,1649,0.708,122,0.19743061423712
11,1124,0,18,"BLA",0,0,0,"highschool",157192.45068929,0,0,0,1,0,0,1989,1657,0.906,111,0.111184087806454
10,1125,0,18,"BLA",1,1,1,"highschool",27968.3308589608,0,0,0,1,0,0,1989,1666,0.903,111,0.427483617402633
361,1126,0,18,"WHI",0,0,0,"highschool",66895.3690349947,0,0,0,1,0,0,1989,1676,0.908,88,0.346341615589635
580,1127,1,18,"WHI",1,0,0,"highschool",157564.995758218,1,2,9.663319,2,20.7071121428571,12,1989,1687,0.93,148,0.784384499060581
320,1128,1,29,"SPA",1,0,0,"collegeplus",47599.4952279958,0,0,0,1,0,0,1989,1689,0.999,118,0.17938839182677
9,1129,0,18,"BLA",0,0,0,"highschool",59871.9141039236,1,0,1.47799772169525,2,3.16713797506125,12,1989,1695,0.763,76,0.775625259136664
94,1130,0,18,"OTH",0,0,0,"somecollege",32070.2481442206,1,0,2.95599544339051,4,6.33427595012252,36,1989,1745,0.066,144,0.395673545848119
250,1131,1,18,"SPA",1,0,0,"highschool",60466.0254506893,1,0,12.90401,2,27.65145,12,1989,1764,0.968,116,0.541946207567856
360,1132,0,18,"WHI",1,0,0,"highschool",13976.3223753977,1,0,4.43399316508576,4,9.50141392518377,48,1989,1785,0.036,162,0.257176205847942
578,1133,1,18,"WHI",1,0,0,"highschool",22829.1696712619,0,0,0,1,0,0,1989,1800,0.925,90,0.234732417887702
249,1134,1,18,"SPA",0,0,0,"highschool",34074.1484623542,0,0,0,1,0,0,1989,1816,0.992,106,0.283654104914306
573,1135,1,18,"WHI",1,1,0,"highschool",51344.553552492,1,0,1.47799772169525,2,3.16713797506125,12,1989,1822,0.983,65,0.257565860637382
368,1136,0,18,"WHI",1,0,0,"somecollege",28072.2860030318,0,4,0,1,0,0,1990,1830,0.891,175,0.399037287808434
369,1137,0,18,"WHI",0,0,0,"highschool",15640.353713997,0,1,0,1,0,0,1990,1865,0.896,127,0.350730832152053
367,1138,0,18,"WHI",1,0,0,"highschool",163442.630621526,0,0,0,1,0,0,1990,1884,0.897,127,0.484774302164308
366,1139,0,18,"WHI",1,0,0,"highschool",95409.8948964123,1,0,11.59903,5,24.8550642857143,72,1990,1895,0.038,61,0.711465311329459
590,1140,1,18,"WHI",1,0,0,"highschool",31745.9939363315,0,1,0,1,0,0,1990,1904,0.988,148,0.308306217343573
593,1141,1,18,"WHI",1,0,0,"highschool",68283.1308741789,1,0,10.11144,2,21.6673714285714,12,1990,1911,0.949,115,0.633042430958906
582,1142,1,18,"WHI",1,0,0,"highschool",29447.5907023749,1,8,66.5011168064992,5,142.502393156784,132,1990,1918,0.972,150,0.66889417905222
583,1143,1,18,"WHI",0,0,0,"somecollege",115308.834765033,1,30,139.188384013603,7,298.260822886292,360,1990,1922,0.988,157,0.81964519052204
64,1144,1,18,"BLA",0,0,0,"highschool",10980.0141485599,1,2,3.093075,4,6.62801785714286,36,1990,1959,0.836,66,0.175202838827797
584,1145,1,18,"WHI",1,0,0,"highschool",8958.16675088428,1,3,4.639613,4,9.94202785714286,36,1990,1972,0.5,150,0.539012936778994
585,1146,1,18,"WHI",0,0,0,"highschool",13981.0186963113,1,4,39.90067,5,85.5014357142857,72,1990,2002,0.839,138,0.218524003662916
595,1147,1,18,"WHI",0,0,0,"somecollege",53042.66195048,1,3,10.11144,2,21.6673714285714,12,1990,2002,0.997,131,0.655578590257135
591,1148,1,18,"WHI",0,0,0,"highschool",57480.6356745831,0,0,0,1,0,0,1990,2012,0.995,66,0.231216944522352
370,1149,0,18,"WHI",1,0,0,"highschool",69727.5745325922,0,0,0,1,0,0,1990,2023,0.936,73,0.218956426039369
365,1150,0,18,"WHI",0,0,0,"somecollege",16940.9135927236,1,0,0.7732688,2,1.65700457142857,12,1990,2025,0.742,142,0.505269762140919
251,1151,1,18,"SPA",1,0,0,"collegeplus",68100.0060636685,1,2,24.7446,4,53.0241428571428,36,1990,2032,0.814,139,0.708191015550092
12,1152,0,18,"BLA",1,0,0,"highschool",31452.6205154118,1,0,3.093075,4,6.62801785714286,36,1990,2032,0.07,101,0.359185170658699
13,1153,0,18,"BLA",0,0,0,"highschool",23212.0040424457,0,0,0,1,0,0,1990,2035,0.909,136,0.364137935717755
589,1154,1,18,"WHI",0,0,0,"highschool",48204.8034360788,0,2,0,1,0,0,1990,2113,0.952,132,0.373925296704379
594,1155,1,18,"WHI",1,0,0,"highschool",48429.0378979282,1,2,10.11144,2,21.6673714285714,12,1990,2115,0.95,87,0.530378373388627
587,1156,1,18,"WHI",1,0,0,"somecollege",11348.132390096,1,1,4.639613,4,9.94202785714286,36,1990,2142,0.956,146,0.198348753810443
592,1157,1,18,"WHI",1,0,0,"highschool",1263.18746841839,0,3,0,1,0,0,1990,2157,0.99,99,0.324686471607146
364,1158,0,18,"WHI",0,0,0,"somecollege",92253.7948458818,1,1,12.3723,5,26.5120714285714,60,1990,2169,0.215,141,0.590789581995439
588,1159,1,18,"WHI",0,0,0,"highschool",94195.2915613946,1,5,16.62528,5,35.6256,72,1990,2175,1,81,0.664372614232308
596,1160,1,18,"WHI",1,0,1,"highschool",24316.3587670541,1,0,10.11144,2,21.6673714285714,12,1990,2179,0.986,122,0.253315499896227
586,1161,1,18,"WHI",1,0,0,"highschool",135478.724608388,1,7,92.79226,6,198.840557142857,312,1990,2184,0.932,78,0.531894882530322
136,1162,1,18,"OTH",0,0,0,"highschool",55015.638225256,1,0,1.492905,2,3.19908214285714,12,1991,2192,0.896,118,0.122540453169397
601,1163,1,18,"WHI",0,0,0,"highschool",168759.338859093,1,0,12.92907,5,27.70515,60,1991,2198,0.68,66,0.431965424018333
376,1164,0,18,"WHI",0,0,0,"somecollege",48313.8020477816,1,0,4.801573,2,10.289085,12,1991,2201,0.784,62,0.28080038056908
371,1165,0,18,"WHI",1,0,0,"somecollege",70559.4987810824,1,0,3.758449,5,8.05381928571429,72,1991,2202,0.331,161,0.701451067801029
600,1166,1,18,"WHI",0,0,0,"somecollege",37511.891760117,1,3,38.7872,5,83.1154285714286,132,1991,2208,0.962,142,0.430080772889385
597,1167,1,18,"WHI",1,0,0,"highschool",43627.7454900049,1,2,12.92907,5,27.70515,132,1991,2238,0.99,160,0.342792972256579
604,1168,1,18,"WHI",1,0,0,"highschool",64510.3568990736,1,0,9.829269,2,21.0627192857143,12,1991,2246,0.999,143,0.23319941014964
599,1169,1,18,"WHI",0,0,0,"somecollege",11180.5450999512,1,2,7.516898,4,16.1076385714286,36,1991,2299,0.95,116,0.581996233028652
377,1170,0,18,"WHI",0,0,0,"highschool",6128.47489029742,1,2,4.801573,2,10.289085,12,1991,2353,0.719,118,0.301771661012646
252,1171,1,18,"SPA",0,0,0,"highschool",4296.6036079961,1,0,4.510139,4,9.66458357142857,48,1991,2353,0.887,127,0.349867965073713
602,1172,1,18,"WHI",1,0,0,"somecollege",7619.57484154071,0,0,0,1,0,0,1991,2380,1,110,0.354736434335571
372,1173,0,18,"WHI",0,0,0,"highschool",726.618235007314,1,2,16.16133,5,34.6314214285714,60,1991,2390,0.019,159,0.595574100575469
373,1174,0,18,"WHI",0,0,1,"highschool",20237.1292052657,1,0,9.696799,6,20.778855,192,1991,2408,0.543,111,0.625873483635187
254,1175,1,18,"SPA",1,0,0,"highschool",47051.6860068259,1,1,13.12561,2,28.1263071428571,12,1991,2411,0.956,100,0.49124235975946
175,1176,0,18,"SPA",0,0,0,"highschool",9474.88542174549,0,0,0,1,0,0,1991,2421,0.918,71,0.341891451338747
177,1177,0,18,"SPA",0,0,0,"highschool",11519.5134080936,0,0,0,1,0,0,1991,2429,0.912,76,0.383824234787928
118,1178,0,33,"OTH",0,1,1,"highschool",29037.6840565578,1,0,1.720877,2,3.68759357142857,12,1991,2439,0.73,104,0.142232445229735
176,1179,0,18,"SPA",0,0,0,"highschool",17904.0175524135,0,0,0,1,0,0,1991,2446,0.894,173,0.465553220839532
161,1180,1,45,"OTH",1,1,1,"somecollege",59593.5134080936,1,0,2.25507,4,4.83229285714286,48,1991,2453,0.926,81,0.265873818722328
14,1181,0,18,"BLA",0,0,0,"highschool",26704.5724037055,0,0,0,1,0,0,1991,2463,0.924,73,0.32821389568788
178,1182,0,18,"SPA",0,0,0,"highschool",9022.32666991711,1,0,2.229192,2,4.77684,12,1991,2488,0.726,76,0.356497002100583
375,1183,0,18,"WHI",0,0,0,"highschool",34024.8454412482,0,0,0,1,0,0,1991,2490,0.902,143,0.791598256060364
374,1184,0,18,"WHI",1,0,0,"highschool",28179.4451487079,0,0,0,1,0,0,1991,2493,0.912,115,0.250993595678998
598,1185,1,18,"WHI",0,0,0,"somecollege",67721.5407118479,1,0,12.92907,5,27.70515,132,1991,2530,0.855,159,0.793443842836728
603,1186,1,18,"WHI",1,0,0,"highschool",139887.532910775,1,2,9.829269,2,21.0627192857143,12,1991,2539,0.954,151,0.400813578091603
253,1187,1,18,"SPA",0,0,0,"highschool",4644.58703071672,0,0,0,1,0,0,1991,2540,0.985,83,0.249875584957066
258,1188,1,18,"SPA",0,0,0,"highschool",16053.4015223597,1,0,13.26316,2,28.4210571428571,12,1992,2601,0.891,70,0.582687692527917
381,1189,0,18,"WHI",1,0,0,"highschool",30577.9914367269,0,0,0,1,0,0,1992,2628,0.889,139,0.494796782979904
111,1190,0,20,"OTH",0,0,1,"highschool",36042.3054234063,1,0,1.73891,2,3.72623571428571,12,1992,2634,0.829,134,0.363011967554096
611,1191,1,18,"WHI",0,0,0,"highschool",32921.3482397717,1,4,9.932269,2,21.2834335714286,12,1992,2639,0.997,100,0.235659829199037
15,1192,0,18,"BLA",0,0,0,"highschool",24719.5994291151,0,0,0,1,0,0,1992,2639,0.902,87,0.822993534592394
605,1193,1,18,"WHI",1,0,0,"highschool",61525.431018078,1,0,0.7595667,2,1.62764292857143,12,1992,2650,0.914,125,0.476450027264826
608,1194,1,18,"WHI",1,0,0,"highschool",48742.5252140818,0,1,0,1,0,0,1992,2657,0.999,65,0.18647837919578
179,1195,0,18,"SPA",0,0,0,"somecollege",36842.7764034253,0,0,0,1,0,0,1992,2702,0.908,133,0.457058963950501
610,1196,1,18,"WHI",1,0,0,"somecollege",7640.53948620362,0,1,0,1,0,0,1992,2711,0.984,140,0.25424200136742
380,1197,0,18,"WHI",0,0,0,"highschool",73674.9971455756,0,0,0,1,0,0,1992,2726,0.914,144,0.260613938951752
606,1198,1,18,"WHI",0,0,0,"highschool",53079.1427212179,1,2,16.71047,4,35.80815,36,1992,2732,0.687,121,0.428109718188028
255,1199,1,18,"SPA",0,0,0,"highschool",25520.0704091342,1,2,27.3444,5,58.5951428571429,60,1992,2743,0.779,71,0.353844275147127
256,1200,1,18,"SPA",0,0,0,"highschool",18039.6251189343,1,0,4.5574,4,9.76585714285714,36,1992,2785,0.902,97,0.531356851711932
236,1201,0,31,"SPA",0,1,1,"somecollege",35217.204567079,1,0,2.252551,2,4.826895,12,1992,2820,0.709,73,0.218453801806796
95,1202,0,18,"OTH",0,0,0,"highschool",47426.5861084681,1,2,7.595667,4,16.2764292857143,36,1992,2825,0.419,134,0.816167464781405
609,1203,1,18,"WHI",1,0,0,"highschool",83043.146527117,0,0,0,1,0,0,1992,2834,0.955,113,0.1965679033299
96,1204,0,18,"OTH",0,0,0,"highschool",125550.794481446,0,0,0,1,0,0,1992,2857,0.895,101,0.212263797076872
379,1205,0,18,"WHI",1,0,1,"highschool",33887.191246432,0,0,0,1,0,0,1992,2865,0.914,158,0.132907470649891
384,1206,0,18,"WHI",0,0,0,"highschool",34024.4148430067,1,0,4.851888,2,10.3969028571429,12,1992,2875,0.73,78,0.477282564657085
257,1207,1,18,"SPA",1,0,0,"highschool",4739.49191246432,0,0,0,1,0,0,1992,2890,0.988,66,0.233244364551894
382,1208,0,18,"WHI",1,0,0,"somecollege",53307.848715509,1,0,4.851888,2,10.3969028571429,12,1992,2893,0.733,99,0.358571704365764
378,1209,0,18,"WHI",1,0,0,"highschool",23273.4738344434,1,0,1.519133,2,3.255285,12,1992,2897,0.769,83,0.241243379716995
607,1210,1,18,"WHI",0,0,0,"highschool",30124.098001903,0,0,0,1,0,0,1992,2901,0.999,74,0.291167360620447
383,1211,0,18,"WHI",0,0,0,"somecollege",17075.5413891532,1,3,4.851888,2,10.3969028571429,12,1992,2903,0.738,102,0.580789307385268
612,1212,1,18,"WHI",1,0,0,"highschool",16048.1236917222,1,2,9.932269,2,21.2834335714286,12,1992,2916,0.997,156,0.486864973646655
184,1213,0,18,"SPA",0,1,1,"highschool",4731.03758700696,1,0,2.291572,2,4.91051142857143,12,1993,2929,0.723,84,0.200774881930475
621,1214,1,18,"WHI",1,0,0,"somecollege",87705.2343387471,1,2,10.10433,2,21.6521357142857,12,1993,2934,0.984,96,0.508499094524836
615,1215,1,18,"WHI",0,0,0,"somecollege",136563.450580046,1,3,92.72698,6,198.700671428571,312,1993,2938,0.982,68,0.343065429854103
619,1216,1,18,"WHI",1,0,0,"highschool",13733.2222737819,0,2,0,1,0,0,1993,2958,0.998,93,0.200616680451281
618,1217,1,18,"WHI",1,1,0,"somecollege",15890.2459396752,0,0,0,1,0,0,1993,2970,0.958,146,0.257074909600998
620,1218,1,18,"WHI",0,1,0,"highschool",40583.6194895592,1,1,10.10433,2,21.6521357142857,12,1993,2999,0.987,132,0.643350573047558
97,1219,0,18,"OTH",0,0,0,"collegeplus",115518.312761021,1,1,9.272698,4,19.8700671428571,48,1993,3029,0.248,114,0.569396767526593
232,1220,0,29,"SPA",0,1,1,"somecollege",25499.8979118329,0,1,0,1,0,0,1993,3033,0.89,76,0.22714678059159
183,1221,0,18,"SPA",0,1,1,"somecollege",24468.5763341067,0,0,0,1,0,0,1993,3048,0.894,87,0.154123361658538
616,1222,1,18,"WHI",1,1,0,"collegeplus",79365.4292343387,1,0,3.863624,5,8.27919428571429,72,1993,3051,0.996,80,0.281442737208284
614,1223,1,18,"WHI",1,1,0,"somecollege",115955.89512761,1,4,64.90888,5,139.090457142857,108,1993,3053,1,87,0.479373354704676
613,1224,1,18,"WHI",0,1,0,"collegeplus",92147.9823665893,1,0,1.54545,2,3.31167857142857,12,1993,3062,0.899,121,0.372048238584076
65,1225,1,18,"BLA",1,1,0,"collegeplus",133287.588863109,1,2,9.272698,4,19.8700671428571,36,1993,3094,0.961,78,0.206579880447587
622,1226,1,18,"WHI",1,0,0,"somecollege",97079.7930394432,1,4,10.10433,2,21.6521357142857,12,1993,3139,0.875,123,0.642216944444498
617,1227,1,18,"WHI",0,1,0,"highschool",91943.777262181,0,3,0,1,0,0,1993,3145,0.981,107,0.810068378067775
182,1228,0,18,"SPA",0,1,1,"somecollege",20586.9633410673,0,0,0,1,0,0,1993,3145,0.889,106,0.287010643020847
385,1229,0,18,"WHI",1,1,0,"collegeplus",22822.9234338747,1,0,3.090899,4,6.623355,36,1993,3147,0.142,100,0.480725109196802
181,1230,0,18,"SPA",1,0,1,"somecollege",33887.7512761021,0,1,0,1,0,0,1993,3148,0.917,157,0.195025390337256
237,1231,0,36,"SPA",0,1,1,"highschool",28327.8812064965,0,0,0,1,0,0,1993,3170,0.898,91,0.502920861845967
180,1232,0,18,"SPA",1,1,0,"collegeplus",162020.448259861,1,0,1.54545,2,3.31167857142857,12,1993,3181,0.768,121,0.212583192180522
260,1233,1,18,"SPA",1,0,0,"highschool",712.143851508121,1,2,13.49292,2,28.9134,12,1993,3209,0.996,99,0.295864927280412
259,1234,1,18,"SPA",0,1,0,"highschool",21468.9921113689,1,2,1.54545,2,3.31167857142857,12,1993,3211,0.88,110,0.180938104165954
388,1235,0,18,"WHI",0,1,0,"somecollege",57851.8208816705,1,1,4.935938,2,10.57701,12,1993,3222,0.778,130,0.183262076592385
387,1236,0,18,"WHI",0,0,0,"somecollege",53390.1967517401,0,0,0,1,0,0,1993,3243,0.929,65,0.329766039006492
386,1237,0,18,"WHI",0,0,0,"collegeplus",16219.7197215777,1,1,12.3636,5,26.4934285714286,60,1993,3258,0.356,151,0.342292891757268
763,1238,1,31,"WHI",1,0,0,"collegeplus",9707.46450116009,1,1,4.636349,2,9.93503357142857,12,1993,3269,1,100,0.192389024746283
185,1239,0,18,"SPA",1,1,0,"highschool",145060.773636364,1,5,31.9028,6,68.3631428571428,324,1994,3312,0.456,145,0.546472055918803
390,1240,0,18,"WHI",0,0,0,"somecollege",61919.6481818182,1,0,4.451553,4,9.53904214285714,36,1994,3313,0.041,104,0.144816516064104
262,1241,1,18,"SPA",0,1,0,"highschool",16130.0036363636,1,4,186.9652,6,400.639714285714,312,1994,3315,0.994,61,0.64805631495505
626,1242,1,18,"WHI",1,1,0,"highschool",102011.010909091,1,2,26.70932,5,57.2342571428571,60,1994,3316,0.98,94,0.277175824957999
187,1243,0,18,"SPA",0,1,0,"highschool",10826.7354545455,0,0,0,1,0,0,1994,3330,0.893,90,0.29413895153747
627,1244,1,18,"WHI",1,0,1,"highschool",36158.0354545455,1,0,0.7419255,2,1.58984035714286,12,1994,3342,0.97,114,0.188940844710334
98,1245,0,18,"OTH",1,1,0,"highschool",144701.059090909,0,0,0,1,0,0,1994,3345,0.928,157,0.52600039144597
16,1246,0,18,"BLA",0,1,0,"somecollege",73566.6672727273,0,0,0,1,0,0,1994,3352,0.895,134,0.402659786171389
68,1247,1,18,"BLA",0,1,0,"highschool",8046.51181818182,0,2,0,1,0,0,1994,3367,0.99,68,0.459619730220862
391,1248,0,18,"WHI",0,1,1,"highschool",2012.04818181818,0,2,0,1,0,0,1994,3432,0.895,102,0.134819458021849
329,1249,1,36,"SPA",1,1,0,"highschool",41204.1245454545,0,0,0,1,0,0,1994,3436,0.996,116,0.122559270663192
263,1250,1,18,"SPA",1,0,0,"highschool",42906.8854545455,1,0,5.935404,4,12.7187228571429,36,1994,3452,0.924,87,0.370913931750179
625,1251,1,18,"WHI",1,0,0,"highschool",39178.6290909091,1,2,12.76112,5,27.3452571428571,132,1994,3458,0.634,82,0.468810660104873
389,1252,0,18,"WHI",0,1,0,"highschool",5019.19454545455,1,4,15.9514,5,34.1815714285714,60,1994,3492,0.083,134,0.158468186922188
326,1253,1,33,"SPA",1,1,1,"highschool",77510.08,1,1,11.12888,6,23.8476,228,1994,3497,0.718,138,0.118963622928899
66,1254,1,18,"BLA",0,0,0,"highschool",59070.5072727273,1,0,19.14168,6,41.0178857142857,192,1994,3502,0.464,119,0.476281732565072
52,1255,0,21,"BLA",0,1,1,"highschool",33149.2081818182,1,0,3.102708,2,6.64866,12,1994,3511,0.743,117,0.30752214075841
261,1256,1,18,"SPA",0,1,0,"highschool",845.497272727273,1,4,186.9652,6,400.639714285714,312,1994,3512,0.994,116,0.288792746229579
186,1257,0,18,"SPA",1,1,0,"highschool",145733.137272727,1,5,31.9028,6,68.3631428571428,324,1994,3519,0.032,102,0.576154574667854
69,1258,1,18,"BLA",0,1,0,"highschool",15830.8018181818,0,2,0,1,0,0,1994,3523,0.993,178,0.160746835041551
162,1259,1,38,"OTH",1,1,1,"somecollege",56249.9418181818,1,0,10.80292,2,23.1491142857143,12,1994,3531,0.95,133,0.403708007449301
624,1260,1,18,"WHI",1,0,0,"highschool",23141.0754545455,1,0,11.12888,5,23.8476,72,1994,3552,0.876,129,0.603483673688192
623,1261,1,18,"WHI",1,0,0,"somecollege",32028.0418181818,1,0,12.76112,5,27.3452571428571,132,1994,3565,0.883,70,0.641886955963936
264,1262,1,18,"SPA",1,0,0,"highschool",48353.0309090909,1,0,12.95511,2,27.76095,12,1994,3588,0.943,98,0.396663443296392
67,1263,1,18,"BLA",1,1,0,"highschool",18306.7809090909,1,4,38.28336,5,82.0357714285714,60,1994,3636,0.988,102,0.281567148749506
628,1264,1,18,"WHI",0,1,0,"highschool",16316.5845454545,1,0,9.701588,2,20.7891171428571,12,1994,3645,0.797,133,0.562100382810709
634,1265,1,18,"WHI",1,1,0,"highschool",37209.7913892588,1,0,10.19745,2,21.8516785714286,12,1995,3662,0.988,90,0.367962452779504
629,1266,1,18,"WHI",1,0,0,"highschool",7643.84642698624,1,0,3.119386,4,6.68439857142857,36,1995,3675,0.498,133,0.12041194972648
18,1267,0,18,"BLA",0,1,0,"somecollege",15804.7234798047,0,1,0,1,0,0,1995,3703,0.895,70,0.192159374449084
267,1268,1,18,"SPA",1,1,0,"highschool",27307.4238792721,1,3,13.61727,2,29.1798642857143,12,1995,3714,0.986,132,0.295668706566767
20,1269,0,18,"BLA",0,1,0,"highschool",24843.7319130049,0,0,0,1,0,0,1995,3724,0.894,84,0.369785406684753
188,1270,0,18,"SPA",0,1,0,"highschool",15305.7478917,1,0,1.559693,2,3.34219928571429,12,1995,3731,0.701,110,0.487231519173143
265,1271,1,18,"SPA",0,0,0,"highschool",13432.948069241,1,10,80.48015,6,172.457464285714,204,1995,3732,0.995,122,0.621856347935609
635,1272,1,18,"WHI",1,1,0,"highschool",67599.7026187306,1,2,10.19745,2,21.8516785714286,12,1995,3744,0.861,138,0.616088131283854
636,1273,1,18,"WHI",1,1,0,"highschool",68380.9933422104,1,2,10.19745,2,21.8516785714286,12,1995,3745,0.962,93,0.431845887756093
396,1274,0,18,"WHI",0,0,0,"highschool",62247.2046160675,1,1,4.981429,2,10.6744907142857,12,1995,3775,0.733,66,0.338225468474805
633,1275,1,18,"WHI",1,0,0,"somecollege",97817.2703062583,0,2,0,1,0,0,1995,3776,0.967,126,0.345624434315057
70,1276,1,18,"BLA",1,1,0,"highschool",44338.2485574789,1,0,5.439749,2,11.656605,12,1995,3819,0.941,84,0.393827933171094
266,1277,1,18,"SPA",1,1,0,"highschool",34680.4447403462,1,2,15.59693,4,33.4219928571429,36,1995,3855,0.981,110,0.838521689022658
393,1278,0,18,"WHI",0,1,0,"highschool",40554.8974700399,0,0,0,1,0,0,1995,3876,0.899,117,0.507028569135592
233,1279,0,27,"SPA",0,1,1,"highschool",46516.3426542388,0,0,0,1,0,0,1995,3880,0.913,134,0.132532333703857
631,1280,1,18,"WHI",0,0,0,"highschool",75420.8166888593,1,5,31.19386,5,66.8439857142857,60,1995,3887,0.983,116,0.647059539105687
397,1281,0,18,"WHI",0,0,0,"highschool",34334.1162893919,1,1,4.981429,2,10.6744907142857,12,1995,3896,0.738,164,0.246800674651615
17,1282,0,18,"BLA",0,1,0,"highschool",158621.713271194,1,0,1.559693,2,3.34219928571429,12,1995,3916,0.808,145,0.100057306512005
637,1283,1,18,"WHI",0,0,0,"highschool",31033.3271193964,1,0,10.19745,2,21.8516785714286,12,1995,3916,0.983,94,0.679452924612846
394,1284,0,18,"WHI",0,1,0,"highschool",59373.1708832668,0,1,0,1,0,0,1995,3932,0.892,119,0.707408815102432
395,1285,0,18,"WHI",0,1,0,"somecollege",155281.531291611,1,0,4.981429,2,10.6744907142857,12,1995,3973,0.752,100,0.102235368354211
392,1286,0,18,"WHI",0,1,0,"somecollege",76955.4948956946,1,0,3.119386,4,6.68439857142857,36,1995,3974,0.35,85,0.533037540424183
19,1287,0,18,"BLA",1,1,0,"highschool",33208.138482024,0,0,0,1,0,0,1995,3989,0.94,75,0.321605217423374
632,1288,1,18,"WHI",0,0,0,"highschool",66227.5197514425,0,0,0,1,0,0,1995,3993,0.964,121,0.18640768749428
630,1289,1,18,"WHI",0,0,0,"highschool",128975.341322681,1,4,53.65344,5,114.971657142857,132,1995,4010,0.989,72,0.494608145710574
399,1290,0,18,"WHI",0,0,0,"somecollege",61436.682230869,1,8,33.80274,5,72.4344428571429,132,1996,4043,0.212,77,0.290848890274469
641,1291,1,18,"WHI",1,0,0,"highschool",39365.3938607869,1,3,33.80274,5,72.4344428571429,132,1996,4056,0.756,109,0.633360509507446
21,1292,0,18,"BLA",0,1,0,"highschool",3234.35105923044,1,30,141.4998,7,303.213857142857,360,1996,4065,0.918,116,0.534566041280323
270,1293,1,18,"SPA",1,1,0,"somecollege",422.080415045396,0,0,0,1,0,0,1996,4071,0.987,77,0.211184547621665
638,1294,1,18,"WHI",1,1,0,"highschool",145776.023346303,1,2,30.42246,6,65.1909857142857,204,1996,4083,0.709,120,0.281216423396783
72,1295,1,18,"BLA",0,1,0,"highschool",94774.6398616515,0,0,0,1,0,0,1996,4137,0.98,115,0.167473502136519
406,1296,0,18,"WHI",0,0,0,"highschool",106189.996541288,1,4,5.02144,2,10.7602285714286,12,1996,4139,0.806,91,0.8449409797064
401,1297,0,18,"WHI",1,0,1,"somecollege",33203.6593169044,1,0,0.7861101,2,1.68452164285714,12,1996,4165,0.759,91,0.317871822340718
404,1298,0,18,"WHI",1,1,0,"highschool",16964.7548638132,0,0,0,1,0,0,1996,4185,0.903,133,0.343597044621033
643,1299,1,18,"WHI",1,1,0,"highschool",25395.1716385646,0,0,0,1,0,0,1996,4193,0.966,107,0.103558131045117
189,1300,0,18,"SPA",0,1,0,"somecollege",52761.6506701254,1,0,7.074991,4,15.160695,48,1996,4193,0.16,64,0.19039331616595
71,1301,1,18,"BLA",1,0,0,"highschool",46988.4219628188,1,0,0.7861101,2,1.68452164285714,12,1996,4201,0.941,76,0.282018337489077
642,1302,1,18,"WHI",0,0,0,"somecollege",52098.1530479896,1,12,67.60547,6,144.868864285714,336,1996,4254,0.999,75,0.413797239581236
403,1303,0,18,"WHI",0,0,0,"somecollege",22482.177258971,0,0,0,1,0,0,1996,4258,0.896,80,0.280921471977041
640,1304,1,18,"WHI",0,1,0,"highschool",140368.91742326,1,0,0.7861101,2,1.68452164285714,12,1996,4271,0.964,116,0.1794604626259
268,1305,1,18,"SPA",0,0,0,"somecollege",54330.0631214872,1,0,4.716661,4,10.1071307142857,48,1996,4289,0.991,66,0.249819948291053
271,1306,1,18,"SPA",1,0,0,"highschool",31907.0410722006,0,0,0,1,0,0,1996,4294,0.983,115,0.118941658459174
405,1307,0,18,"WHI",0,0,0,"highschool",25126.5750108085,1,0,5.02144,2,10.7602285714286,12,1996,4317,0.713,116,0.401249299996621
400,1308,0,18,"WHI",1,1,0,"highschool",32896.691742326,1,2,12.57776,4,26.9523428571429,36,1996,4318,0.304,62,0.50316129432584
645,1309,1,18,"WHI",1,0,0,"somecollege",42332.7470817121,1,1,10.27936,2,22.0272,12,1996,4327,0.974,101,0.36939408104566
398,1310,0,18,"WHI",0,0,0,"somecollege",66611.9636835279,1,8,33.80274,5,72.4344428571429,132,1996,4332,0.062,167,0.528145227877358
644,1311,1,18,"WHI",0,1,0,"highschool",147608.236057069,1,0,10.27936,2,22.0272,12,1996,4341,0.948,175,0.475469568034538
402,1312,0,18,"WHI",0,1,0,"highschool",104415.340250757,0,0,0,1,0,0,1996,4372,0.953,116,0.284911049680565
269,1313,1,18,"SPA",0,1,0,"highschool",27195.4085603113,1,1,3.144441,4,6.73808785714286,36,1996,4373,0.856,130,0.51523915855489
639,1314,1,18,"WHI",0,0,0,"highschool",135371.101599654,1,3,14.14998,4,30.3213857142857,48,1996,4375,0.768,128,0.374572887436751
408,1315,0,18,"WHI",0,0,0,"highschool",139959.049513331,1,0,2.76061,3,5.91559285714286,24,1997,4388,0.768,98,0.600496020372006
414,1316,0,18,"WHI",0,1,1,"somecollege",24277.2213288193,1,1,4.40849,2,9.44676428571429,12,1997,4391,0.709,126,0.411407384008504
73,1317,1,18,"BLA",0,0,0,"highschool",5482.05416842996,0,0,0,1,0,0,1997,4401,1,106,0.561800064317182
190,1318,0,18,"SPA",1,1,0,"highschool",7934.34617012273,1,1,14.4932,4,31.0568571428571,48,1997,4417,0.415,146,0.48136180829791
191,1319,0,18,"SPA",1,0,1,"somecollege",45775.0740584003,1,0,0.6901525,2,1.47889821428571,12,1997,4417,0.705,175,0.341815448211228
648,1320,1,18,"WHI",0,1,0,"highschool",127199.932289463,1,0,1.380305,2,2.95779642857143,12,1997,4468,0.951,96,0.145394718655555
238,1321,0,38,"SPA",1,1,1,"collegeplus",36746.8209902666,0,0,0,1,0,0,1997,4469,0.918,119,0.366488942151649
321,1322,1,26,"SPA",1,1,1,"highschool",53232.1074904782,1,0,2.76061,5,5.91559285714286,60,1997,4538,0.8,178,0.156409218421051
649,1323,1,18,"WHI",0,0,0,"somecollege",38285.1764705882,0,0,0,1,0,0,1997,4546,0.999,87,0.12665472126738
650,1324,1,18,"WHI",0,1,0,"highschool",154139.150232755,1,0,9.024592,2,19.3384114285714,12,1997,4550,0.937,65,0.602429441155298
407,1325,0,18,"WHI",0,0,0,"somecollege",5228.53068133728,1,0,1.380305,2,2.95779642857143,12,1997,4555,0.712,63,0.127341782951272
411,1326,0,18,"WHI",1,1,0,"somecollege",31450.997037664,0,0,0,1,0,0,1997,4561,0.922,108,0.156787533736588
409,1327,0,18,"WHI",1,0,0,"somecollege",10328.7346593314,1,0,2.967656,5,6.35926285714286,60,1997,4562,0.071,76,0.50532347802736
22,1328,0,18,"BLA",1,0,0,"highschool",16616.7431231485,0,0,0,1,0,0,1997,4565,0.895,141,0.100366976939587
646,1329,1,18,"WHI",0,0,0,"somecollege",133056.011849344,1,7,38.64854,6,82.8183,204,1997,4566,0.824,76,0.760051021587332
193,1330,0,18,"SPA",1,0,0,"somecollege",7040.75412611088,1,0,2.046698,2,4.38578142857143,12,1997,4570,0.78,135,0.115895076845358
410,1331,0,18,"WHI",0,0,0,"somecollege",121714.748201439,1,0,0.6901525,2,1.47889821428571,12,1997,4586,0.785,106,0.254453326739617
23,1332,0,18,"BLA",0,1,0,"highschool",19062.7752856538,0,0,0,1,0,0,1997,4600,0.894,149,0.213808262999965
413,1333,0,18,"WHI",0,1,0,"highschool",89088.4663563267,1,2,4.40849,2,9.44676428571429,12,1997,4615,0.768,109,0.25967355118113
272,1334,1,18,"SPA",1,1,0,"highschool",41929.9678374947,1,6,33.12732,5,70.9871142857143,120,1997,4650,0.858,136,0.390301202471296
647,1335,1,18,"WHI",1,0,0,"highschool",33757.747778248,1,2,10.35229,4,22.1834785714286,48,1997,4659,0.925,155,0.502491241681857
273,1336,1,18,"SPA",0,0,0,"somecollege",136372.161658908,0,1,0,1,0,0,1997,4684,0.993,149,0.74618192930149
274,1337,1,18,"SPA",1,1,0,"highschool",22042.4587388912,1,0,12.05108,2,25.8237428571429,12,1997,4689,0.988,167,0.349553613775971
192,1338,0,18,"SPA",1,1,1,"highschool",1436.63309352518,1,0,8.902967,5,19.0777864285714,60,1997,4704,0.173,78,0.219927906907444
412,1339,0,18,"WHI",0,0,0,"somecollege",96957.084214981,0,1,0,1,0,0,1997,4709,0.904,95,0.228450172298373
137,1340,1,18,"OTH",0,1,0,"highschool",26915.7435463394,0,0,0,1,0,0,1997,4721,0.999,94,0.17685541022345
653,1341,1,18,"WHI",0,0,0,"highschool",144325.451356994,0,0,0,1,0,0,1998,4770,0.999,67,0.143899662500386
415,1342,0,18,"WHI",0,1,0,"highschool",59688.3448851775,1,1,11.53647,4,24.7210071428571,48,1998,4776,0.075,88,0.536272448501419
195,1343,0,18,"SPA",0,1,0,"somecollege",43423.321085595,1,0,2.307295,2,4.94420357142857,12,1998,4777,0.764,162,0.562718475722309
24,1344,0,18,"BLA",0,0,0,"highschool",101334.464300626,1,0,3.216343,2,6.89216357142857,12,1998,4791,0.75,168,0.103358700321167
419,1345,0,18,"WHI",1,0,0,"highschool",35902.2530271399,1,0,4.912772,2,10.5273685714286,12,1998,4796,0.724,147,0.41353430723337
652,1346,1,18,"WHI",1,1,0,"highschool",154346.336534447,0,0,0,1,0,0,1998,4837,0.941,102,0.126405724769624
651,1347,1,18,"WHI",0,0,0,"somecollege",84927.3878914405,1,3,19.84273,5,42.5201357142857,72,1998,4851,0.827,103,0.52423734592355
420,1348,0,18,"WHI",1,1,0,"highschool",33484.2705636743,1,0,4.912772,2,10.5273685714286,12,1998,4879,0.79,160,0.104989567849656
416,1349,0,18,"WHI",1,0,0,"highschool",32846.5778705637,0,0,0,1,0,0,1998,4883,0.889,78,0.327314264211299
655,1350,1,18,"WHI",0,0,0,"highschool",35488.4475991649,1,1,10.0569,2,21.5505,12,1998,4890,0.972,108,0.338608915884067
194,1351,0,18,"SPA",0,1,0,"highschool",87634.1077244259,1,0,3.076393,4,6.59227071428571,36,1998,4895,0.174,114,0.106662228886074
654,1352,1,18,"WHI",0,0,0,"highschool",143151.973277662,0,0,0,1,0,0,1998,4900,0.976,165,0.246778971114631
421,1353,0,18,"WHI",0,1,0,"somecollege",55119.5006263048,1,0,4.912772,2,10.5273685714286,12,1998,4910,0.812,131,0.32992115157083
418,1354,0,18,"WHI",0,0,0,"highschool",77166.9920668058,0,0,0,1,0,0,1998,4920,0.929,89,0.676345089550607
278,1355,1,18,"SPA",0,0,0,"highschool",68257.8229645094,0,0,0,1,0,0,1998,4924,0.967,179,0.17511272859481
158,1356,1,30,"OTH",1,0,1,"somecollege",88840.0108559499,1,0,23.07295,7,49.4420357142857,360,1998,4940,0.974,135,0.651019141086945
275,1357,1,18,"SPA",1,1,0,"highschool",37823.0513569937,1,0,1.538196,4,3.29613428571429,36,1998,4948,0.968,146,0.271529249404555
277,1358,1,18,"SPA",0,0,0,"highschool",142134.444258873,0,0,0,1,0,0,1998,4974,0.928,130,0.470110552760842
657,1359,1,18,"WHI",1,0,0,"highschool",20458.6638830898,1,2,10.0569,2,21.5505,12,1998,4982,0.886,136,0.553775394951983
417,1360,0,18,"WHI",1,1,0,"somecollege",130412.015866388,0,0,0,1,0,0,1998,4995,0.935,148,0.318033897625171
25,1361,0,18,"BLA",0,0,0,"somecollege",64317.4070981211,1,4,3.216343,2,6.89216357142857,12,1998,4997,0.75,78,0.220263605132839
656,1362,1,18,"WHI",1,1,0,"highschool",117946.899373695,1,2,10.0569,2,21.5505,12,1998,5009,0.98,141,0.694337351745135
26,1363,0,18,"BLA",1,1,0,"highschool",32224.3256784969,1,0,3.216343,2,6.89216357142857,12,1998,5055,0.744,118,0.184988915966743
27,1364,0,18,"BLA",0,0,0,"somecollege",10843.8638830898,1,0,3.216343,2,6.89216357142857,12,1998,5063,0.751,84,0.209469680413332
276,1365,1,18,"SPA",0,0,0,"highschool",150873.767849687,1,4,16.53561,5,35.43345,72,1998,5077,0.623,90,0.425559703355907
422,1366,0,18,"WHI",0,1,0,"somecollege",34197.6217118998,1,0,4.912772,2,10.5273685714286,12,1998,5090,0.781,80,0.162045081738305
138,1367,1,18,"OTH",1,1,0,"highschool",55834.3958246347,0,1,0,1,0,0,1998,5092,0.95,107,0.214676210775898
429,1368,0,18,"WHI",1,1,0,"somecollege",46524.3475061325,1,0,4.061568,4,8.70336,48,1999,5139,0.118,151,0.651590820858414
279,1369,1,18,"SPA",0,1,0,"highschool",2509.68111201962,1,0,1.353856,2,2.90112,12,1999,5180,0.986,138,0.291750984882693
74,1370,1,18,"BLA",0,0,0,"highschool",12014.7203597711,1,0,2.707712,3,5.80224,24,1999,5196,0.861,137,0.24212445467217
430,1371,0,18,"WHI",1,1,0,"somecollege",86890.9051512674,0,1,0,1,0,0,1999,5212,0.901,70,0.524529474395508
425,1372,0,18,"WHI",1,1,0,"somecollege",142422.891251022,1,0,4.061568,3,8.70336,24,1999,5215,0.803,125,0.181624184977467
99,1373,0,18,"OTH",0,1,0,"highschool",49718.899427637,1,1,1.549721,2,3.32083071428571,12,1999,5232,0.749,155,0.105956678982375
197,1374,0,18,"SPA",1,1,0,"highschool",125813.640228945,1,0,6.769281,3,14.5056021428571,24,1999,5234,0.912,109,0.540564447588315
432,1375,0,18,"WHI",0,0,0,"highschool",7491.24693376942,1,1,4.324017,2,9.26575071428572,12,1999,5244,0.748,87,0.443753566492417
196,1376,0,18,"SPA",0,0,0,"somecollege",14327.8601798855,1,0,20.30784,5,43.5168,72,1999,5254,0.115,93,0.631799573186644
139,1377,1,18,"OTH",1,1,0,"highschool",43056.1496320523,0,0,0,1,0,0,1999,5259,0.995,71,0.439388676994886
29,1378,0,18,"BLA",1,0,0,"somecollege",9467.24284546198,0,0,0,1,0,0,1999,5261,0.896,97,0.40489400957199
113,1379,0,29,"OTH",1,0,0,"collegeplus",83631.343417825,0,2,0,1,0,0,1999,5276,0.891,147,0.388127880583416
423,1380,0,18,"WHI",1,0,0,"highschool",30197.8135731807,1,3,11.64316,5,24.9496285714286,60,1999,5303,0.355,129,0.438648475462907
433,1381,0,18,"WHI",1,1,0,"highschool",91245.0506950123,1,2,4.324017,2,9.26575071428572,12,1999,5303,0.784,137,0.68835804682548
428,1382,0,18,"WHI",0,0,0,"highschool",81073.2829108749,1,1,0.6769281,2,1.45056021428571,12,1999,5315,0.711,125,0.437491858532659
660,1383,1,18,"WHI",0,0,0,"somecollege",12979.2845461979,1,1,4.061568,4,8.70336,48,1999,5316,0.944,159,0.11214342582621
431,1384,0,18,"WHI",0,1,0,"highschool",120054.980376124,0,0,0,1,0,0,1999,5335,0.931,123,0.267540727883858
659,1385,1,18,"WHI",0,0,0,"somecollege",686.382665576451,1,10,104.7885,6,224.546785714286,192,1999,5344,0.95,91,0.621561327582615
281,1386,1,18,"SPA",0,0,0,"somecollege",54.4268192968111,0,0,0,1,0,0,1999,5347,0.967,102,0.255389531398572
427,1387,0,18,"WHI",1,1,0,"highschool",69383.6116107931,1,0,0.6769281,2,1.45056021428571,12,1999,5367,0.727,79,0.1551065540189
424,1388,0,18,"WHI",1,1,0,"somecollege",30684.6312346689,1,0,1.353856,3,2.90112,24,1999,5394,0.807,86,0.371718346312329
280,1389,1,18,"SPA",0,0,0,"highschool",22901.5960752249,1,0,81.23137,7,174.067221428571,360,1999,5396,0.992,179,0.49397412847068
75,1390,1,18,"BLA",1,0,0,"highschool",6172.90842191333,0,2,0,1,0,0,1999,5396,0.984,114,0.337389714894928
28,1391,0,18,"BLA",1,0,0,"highschool",42525.4881439084,1,0,10.83085,5,23.2089642857143,60,1999,5400,0.136,138,0.222796438673006
426,1392,0,18,"WHI",1,1,0,"highschool",41335.6573998365,1,2,23.28633,5,49.8992785714286,120,1999,5404,0.139,113,0.373012905184934
658,1393,1,18,"WHI",1,1,0,"highschool",22780.6475878986,1,0,0.6769281,2,1.45056021428571,12,1999,5425,0.998,167,0.171925115498721
198,1394,0,18,"SPA",1,1,0,"highschool",31623.4938675388,0,0,0,1,0,0,1999,5447,0.909,158,0.381255234891605
437,1395,0,18,"WHI",1,1,1,"highschool",40072.6334519573,1,0,2.993091,5,6.41376642857143,60,2000,5476,0.034,112,0.419407549493086
760,1396,1,29,"WHI",1,1,1,"highschool",27415.500988533,0,0,0,1,0,0,2000,5480,0.994,104,0.275617365348014
199,1397,0,18,"SPA",0,1,0,"highschool",108986.449980229,0,0,0,1,0,0,2000,5480,0.904,129,0.500022279417228
201,1398,0,18,"SPA",0,1,0,"highschool",25232.3795966785,1,0,2.06424,2,4.42337142857143,12,2000,5498,0.86,74,0.676324267455955
665,1399,1,18,"WHI",1,0,0,"highschool",28724.2040332147,1,20,97.44948,6,208.820314285714,288,2000,5506,1,81,0.594338130046168
756,1400,1,23,"WHI",1,1,0,"highschool",32581.5879794385,1,1,29.93091,5,64.1376642857143,132,2000,5515,0.999,92,0.210839076850585
434,1401,0,18,"WHI",0,1,0,"somecollege",67615.3491498616,1,0,0.6960677,2,1.49157364285714,12,2000,5526,0.769,127,0.250755832012288
439,1402,0,18,"WHI",1,0,0,"highschool",73465.7635429023,0,0,0,1,0,0,2000,5548,0.888,130,0.174175603363006
524,1403,0,25,"WHI",1,0,1,"collegeplus",99321.0565440886,1,0,0.6960677,2,1.49157364285714,12,2000,5553,0.761,134,0.152148925100164
441,1404,0,18,"WHI",1,0,0,"highschool",101049.421905892,1,4,4.446275,2,9.52773214285714,12,2000,5568,0.729,173,0.222662850989102
155,1405,1,27,"OTH",1,0,0,"collegeplus",36352.699881376,1,0,1.382436,2,2.96236285714286,12,2000,5603,0.744,64,0.288551116370275
124,1406,0,36,"OTH",0,0,0,"somecollege",71259.2463424278,1,0,0.6960677,2,1.49157364285714,12,2000,5619,0.765,83,0.398488832021196
200,1407,0,18,"SPA",0,1,0,"highschool",22748.0371688414,0,0,0,1,0,0,2000,5621,0.917,148,0.150406601195083
76,1408,1,18,"BLA",0,0,1,"highschool",27488.6128904705,0,0,0,1,0,0,2000,5642,0.992,73,0.363662824078216
159,1409,1,30,"OTH",1,0,1,"highschool",101369.652036378,0,0,0,1,0,0,2000,5644,0.954,99,0.160127914246531
319,1410,1,24,"SPA",1,1,1,"highschool",32685.4068801898,1,3,11.97236,6,25.6550571428571,252,2000,5645,0.735,177,0.248223973745318
282,1411,1,18,"SPA",1,1,0,"highschool",23716.0387504943,0,0,0,1,0,0,2000,5650,0.986,96,0.218789401117465
669,1412,1,18,"WHI",1,1,0,"somecollege",69114.1431395809,1,2,9.101941,2,19.5041592857143,12,2000,5655,0.85,76,0.385475011443609
315,1413,1,20,"SPA",1,0,0,"somecollege",40713.09371293,1,0,25.05844,5,53.6966571428571,84,2000,5670,0.911,170,0.341406149013295
666,1414,1,18,"WHI",0,0,0,"highschool",35606.9584816133,1,9,80.81346,6,173.1717,192,2000,5675,0.987,105,0.522586095053371
442,1415,0,18,"WHI",0,1,0,"somecollege",93744.0806642942,1,0,4.446275,2,9.52773214285714,12,2000,5696,0.71,139,0.63192800236223
30,1416,0,18,"BLA",0,0,0,"somecollege",43245.6899960459,1,0,5.986182,5,12.8275328571429,60,2000,5696,0.449,73,0.121950351760467
661,1417,1,18,"WHI",0,1,0,"somecollege",95288.2040332147,1,7,48.72474,5,104.410157142857,144,2000,5700,0.97,171,0.723318264661154
436,1418,0,18,"WHI",1,0,0,"highschool",115559.209964413,1,4,47.88946,5,102.620271428571,132,2000,5713,0.921,115,0.316379308053331
119,1419,0,32,"OTH",1,1,1,"somecollege",5786.07591933571,0,0,0,1,0,0,2000,5728,0.907,88,0.605620490651791
662,1420,1,18,"WHI",0,0,0,"somecollege",129719.523131673,1,6,52.20508,7,111.868028571429,360,2000,5755,0.997,82,0.837136866344087
435,1421,0,18,"WHI",1,0,0,"highschool",67277.5721629102,1,1,8.979274,5,19.2413014285714,60,2000,5755,0.123,145,0.256268405849571
663,1422,1,18,"WHI",1,0,0,"highschool",33821.5658362989,1,8,41.76406,7,89.4944142857143,360,2000,5771,0.97,128,0.595365506568515
440,1423,0,18,"WHI",1,1,0,"highschool",31142.745749308,1,0,4.446275,2,9.52773214285714,12,2000,5771,0.705,66,0.171085674472188
668,1424,1,18,"WHI",1,1,0,"highschool",22196.7734282325,0,0,0,1,0,0,2000,5774,0.962,93,0.385724069742859
100,1425,0,18,"OTH",0,0,0,"highschool",125821.196520364,1,0,0.6960677,2,1.49157364285714,12,2000,5790,0.711,167,0.211577757538525
438,1426,0,18,"WHI",1,1,0,"highschool",33040.7307236062,0,0,0,1,0,0,2000,5795,0.898,153,0.589974166898708
667,1427,1,18,"WHI",1,0,0,"somecollege",145448.817714512,0,0,0,1,0,0,2000,5816,0.993,99,0.646943651450547
664,1428,1,18,"WHI",1,0,0,"highschool",23822.7821273231,1,1,44.89637,6,96.2065071428571,192,2000,5823,0.754,70,0.618377532411802
673,1429,1,18,"WHI",0,0,0,"highschool",24165.6693579393,1,1,8.520169,4,18.257505,48,2001,5866,0.669,103,0.233557674224647
676,1430,1,18,"WHI",0,0,0,"highschool",2475.28565936178,1,2,9.284307,2,19.8949435714286,12,2001,5890,0.85,136,0.270129730876054
203,1431,0,18,"SPA",0,0,0,"highschool",31334.1876201461,1,0,2.840056,2,6.08583428571429,12,2001,5895,0.714,164,0.757213490816907
142,1432,1,18,"OTH",1,0,0,"highschool",21158.645136486,1,0,4.260084,3,9.12875142857143,24,2001,5913,0.95,78,0.23032488687595
141,1433,1,18,"OTH",0,0,0,"somecollege",113611.488658208,1,0,0.7100141,2,1.52145878571429,12,2001,5916,0.966,87,0.47550480324246
164,1434,1,36,"OTH",1,1,1,"collegeplus",87714.1145713187,0,0,0,1,0,0,2001,5937,0.99,147,0.188667509520384
206,1435,0,18,"SPA",1,1,0,"highschool",25617.2871972318,1,0,2.105599,2,4.51199785714286,12,2001,5939,0.763,78,0.17755445358649
31,1436,0,18,"BLA",0,1,0,"somecollege",45566.0138408304,1,0,0.7100141,2,1.52145878571429,12,2001,5939,0.738,94,0.270129901032549
672,1437,1,18,"WHI",0,0,0,"highschool",39176.6205305652,1,4,17.04034,5,36.5150142857143,60,2001,5943,0.948,83,0.47381304844499
444,1438,0,18,"WHI",0,0,0,"highschool",35782.8773548635,1,0,0.7100141,2,1.52145878571429,12,2001,5962,0.794,115,0.114835489514786
77,1439,1,18,"BLA",1,1,0,"somecollege",49337.9454056132,0,1,0,1,0,0,2001,5968,0.981,103,0.125946553952804
283,1440,1,18,"SPA",0,1,0,"highschool",62831.877739331,1,2,12.39789,2,26.5669071428571,12,2001,5969,0.992,68,0.663774690074119
125,1441,0,48,"OTH",1,1,1,"collegeplus",52084.7873894656,1,0,0.8351395,2,1.78958464285714,12,2001,5970,0.801,67,0.42228412111803
316,1442,1,21,"SPA",1,1,0,"highschool",47228.0522875817,1,0,1.420028,2,3.04291714285714,12,2001,5974,0.915,82,0.481136875353424
167,1443,1,66,"OTH",0,0,1,"somecollege",45813.4002306805,1,0,1.420028,3,3.04291714285714,24,2001,5979,0.943,105,0.828675247867524
322,1444,1,28,"SPA",1,1,1,"somecollege",81036.1038062284,1,0,12.39789,2,26.5669071428571,12,2001,5980,0.996,76,0.478600679543086
449,1445,0,18,"WHI",1,0,1,"highschool",35841.169550173,1,0,4.53536,2,9.71862857142857,12,2001,5984,0.703,148,0.156991144295905
53,1446,0,33,"BLA",1,1,0,"somecollege",68683.84544406,1,0,12.21224,5,26.1690857142857,132,2001,5985,0.16,164,0.310938557531733
677,1447,1,18,"WHI",1,0,0,"highschool",35308.0092272203,1,0,9.284307,2,19.8949435714286,12,2001,6000,0.93,91,0.260378608633086
675,1448,1,18,"WHI",1,1,0,"highschool",62891.5916955017,1,2,9.284307,2,19.8949435714286,12,2001,6001,0.939,123,0.35249851285534
443,1449,0,18,"WHI",0,0,0,"somecollege",114261.23337178,1,1,7.100141,5,15.2145878571429,72,2001,6034,0.215,108,0.237944433679817
670,1450,1,18,"WHI",1,0,0,"highschool",106787.036524414,1,2,11.36022,3,24.3433285714286,24,2001,6054,0.993,68,0.345514029077088
674,1451,1,18,"WHI",0,1,0,"highschool",94275.5409457901,0,1,0,1,0,0,2001,6071,0.98,78,0.352767505413378
163,1452,1,36,"OTH",1,0,0,"highschool",25004.5082660515,1,12,9.159181,5,19.6268164285714,60,2001,6072,0.78,131,0.398737390244965
202,1453,0,18,"SPA",1,1,0,"highschool",34837.4063821607,1,0,0.7100141,2,1.52145878571429,12,2001,6074,0.754,91,0.638844778571514
448,1454,0,18,"WHI",1,0,0,"somecollege",115791.048058439,1,0,4.53536,2,9.71862857142857,12,2001,6079,0.777,77,0.117453573060964
102,1455,0,18,"OTH",0,0,0,"somecollege",39600.3052672049,1,1,1.625467,2,3.48314357142857,12,2001,6082,0.736,129,0.582963489340469
140,1456,1,18,"OTH",0,0,0,"somecollege",137168.644367551,1,0,0.7100141,2,1.52145878571429,12,2001,6090,0.868,154,0.496921249191535
445,1457,0,18,"WHI",1,1,0,"highschool",3477.62706651288,1,0,8.520169,5,18.257505,60,2001,6098,0.153,132,0.380058628555051
447,1458,0,18,"WHI",0,0,0,"highschool",5634.43829296424,0,0,0,1,0,0,2001,6100,0.916,141,0.258516674272742
101,1459,0,18,"OTH",0,0,0,"highschool",17534.5767012687,0,0,0,1,0,0,2001,6127,0.91,120,0.631232715143911
32,1460,0,18,"BLA",1,0,0,"somecollege",70203.7078046905,1,0,2.969255,2,6.36268928571429,12,2001,6142,0.73,102,0.325327766379384
205,1461,0,18,"SPA",0,1,0,"somecollege",53591.8539023452,1,0,2.105599,2,4.51199785714286,12,2001,6154,0.745,169,0.321129060444692
671,1462,1,18,"WHI",0,0,0,"highschool",60652.3183391003,1,0,0.7100141,2,1.52145878571429,12,2001,6156,0.924,143,0.188499867831092
204,1463,0,18,"SPA",0,1,0,"somecollege",47502.4521337947,0,0,0,1,0,0,2001,6156,0.929,114,0.275560187441874
446,1464,0,18,"WHI",0,0,0,"highschool",42411.1264898116,0,0,0,1,0,0,2001,6161,0.889,104,0.169179294348591
146,1465,1,18,"OTH",0,1,0,"highschool",48671.6707040121,0,0,0,1,0,0,2002,6223,0.997,64,0.8213516722651
454,1466,0,18,"WHI",0,1,0,"highschool",33678.1143073429,1,0,1.374192,2,2.94469714285714,12,2002,6236,0.702,95,0.604279189258833
126,1467,0,38,"OTH",0,0,1,"somecollege",131844.477668433,1,1,41.22575,6,88.3408928571429,288,2002,6247,0.154,87,0.366631370132679
455,1468,0,18,"WHI",0,0,0,"highschool",60629.2838758516,0,0,0,1,0,0,2002,6256,0.893,102,0.35046856248154
241,1469,0,79,"SPA",0,0,1,"highschool",3954.14458743376,0,0,0,1,0,0,2002,6261,0.893,61,0.31088205770788
683,1470,1,18,"WHI",0,0,0,"highschool",43057.4852384557,1,2,8.984622,2,19.2527614285714,12,2002,6306,0.975,159,0.175342975532253
456,1471,0,18,"WHI",0,1,0,"highschool",1472.48145344436,1,2,4.388965,2,9.404925,12,2002,6312,0.738,75,0.451225438074477
34,1472,0,18,"BLA",0,1,0,"highschool",1283.52233156699,1,1,2.873412,2,6.15731142857143,12,2002,6327,0.715,144,0.817686362084431
145,1473,1,18,"OTH",0,0,0,"somecollege",9533.33762301287,1,0,4.122575,3,8.83408928571429,24,2002,6332,0.985,91,0.311509823525723
144,1474,1,18,"OTH",1,0,0,"highschool",125571.034822104,1,0,0.6870958,2,1.47234814285714,12,2002,6333,0.959,88,0.683732907292085
457,1475,0,18,"WHI",0,1,1,"somecollege",101704.797880394,1,0,4.388965,2,9.404925,12,2002,6358,0.757,146,0.244985131697056
681,1476,1,18,"WHI",1,1,0,"highschool",115710.168054504,0,0,0,1,0,0,2002,6365,0.972,105,0.564485978218016
453,1477,0,18,"WHI",0,0,0,"highschool",52630.0143830432,1,2,13.74192,5,29.4469714285714,60,2002,6385,0.46,121,0.57291489825984
78,1478,1,18,"BLA",1,0,0,"highschool",101546.632096896,0,1,0,1,0,0,2002,6416,0.986,131,0.16524198951871
143,1479,1,18,"OTH",1,1,0,"highschool",32790.7062831189,1,2,1.374192,2,2.94469714285714,12,2002,6419,0.744,81,0.189289859381093
680,1480,1,18,"WHI",0,1,0,"highschool",6409.21347464042,0,3,0,1,0,0,2002,6432,0.937,143,0.14863813725948
451,1481,0,19,"WHI",1,0,1,"highschool",66827.1430734292,1,0,0.6870958,2,1.47234814285714,12,2002,6434,0.777,78,0.270385805387037
327,1482,1,31,"SPA",1,1,0,"highschool",64363.676003028,1,1,13.74192,2,29.4469714285714,12,2002,6450,0.957,112,0.635685157999703
207,1483,0,18,"SPA",0,0,0,"highschool",30684.161998486,0,0,0,1,0,0,2002,6450,0.911,108,0.310391294880613
452,1484,0,18,"WHI",1,0,0,"somecollege",34566.9220287661,1,0,11.81805,5,25.3243928571429,120,2002,6467,0.371,81,0.394899873580449
165,1485,1,42,"OTH",1,1,1,"somecollege",125106.335352006,1,0,4.809671,5,10.3064378571429,96,2002,6484,1,101,0.397460060381836
684,1486,1,18,"WHI",0,0,0,"highschool",83409.3557910674,1,1,8.984622,2,19.2527614285714,12,2002,6491,0.989,80,0.234448600168883
79,1487,1,18,"BLA",0,1,0,"highschool",33542.343679031,1,0,4.792775,2,10.2702321428571,12,2002,6498,0.945,141,0.478119870263584
285,1488,1,18,"SPA",0,1,0,"highschool",22292.9772899319,1,0,2.748383,3,5.88939214285714,24,2002,6508,0.985,127,0.161454675924649
284,1489,1,18,"SPA",1,0,0,"highschool",18481.6018168055,1,3,16.4903,5,35.3363571428571,120,2002,6510,0.698,141,0.700259296465421
458,1490,0,18,"WHI",0,0,0,"somecollege",29961.9182437547,1,0,4.388965,2,9.404925,12,2002,6513,0.762,142,0.128628298698324
208,1491,0,18,"SPA",0,1,0,"somecollege",54453.8198334595,0,0,0,1,0,0,2002,6532,0.902,107,0.486907023345401
33,1492,0,18,"BLA",0,1,0,"highschool",1730.02573807721,0,1,0,1,0,0,2002,6533,0.933,108,0.708458751063061
450,1493,0,18,"WHI",0,1,0,"highschool",101791.579106737,1,0,5.909024,5,12.6621942857143,120,2002,6545,0.051,75,0.2058667014563
678,1494,1,18,"WHI",1,0,0,"somecollege",136212.932626798,1,16,54.96766,6,117.787842857143,228,2002,6545,0.996,123,0.655259352984763
530,1495,0,31,"WHI",0,1,1,"highschool",26203.7312641938,0,0,0,1,0,0,2002,6560,0.893,142,0.419463746002453
679,1496,1,18,"WHI",1,1,0,"highschool",109114.794852385,1,1,49.4709,7,106.009071428571,348,2002,6563,0.986,66,0.394887661060084
682,1497,1,18,"WHI",1,0,0,"highschool",1517.27176381529,0,0,0,1,0,0,2002,6569,0.982,75,0.132723336184814
686,1498,1,18,"WHI",0,0,0,"highschool",104440.443375278,1,2,17.78188,5,38.1040285714286,120,2003,6582,1,146,0.497617197266007
152,1499,1,23,"OTH",0,1,0,"somecollege",113380.242042931,0,0,0,1,0,0,2003,6587,0.985,69,0.286783068154675
288,1500,1,18,"SPA",0,0,0,"highschool",56220.0014803849,0,0,0,1,0,0,2003,6588,0.988,146,0.136319916440533
466,1501,0,18,"WHI",0,1,0,"highschool",43479.5566247224,0,0,0,1,0,0,2003,6615,0.894,101,0.210282936743025
286,1502,1,18,"SPA",1,1,1,"highschool",27173.8675055514,1,0,1.378441,2,2.95380214285714,12,2003,6632,0.987,70,0.177644119446718
35,1503,0,18,"BLA",1,0,0,"somecollege",54819.9074759437,1,0,0.6892203,2,1.47690064285714,12,2003,6640,0.737,139,0.608458969460531
759,1504,1,24,"WHI",1,0,0,"highschool",3859.49666913398,0,0,0,1,0,0,2003,6651,0.995,118,0.297326107650109
323,1505,1,26,"SPA",1,0,0,"highschool",28324.873427091,1,1,17.78188,6,38.1040285714286,192,2003,6653,0.494,78,0.607880553653081
80,1506,1,18,"BLA",0,0,0,"highschool",114900.774241303,0,0,0,1,0,0,2003,6663,0.933,113,0.337354591338631
469,1507,0,18,"WHI",0,0,0,"somecollege",95225.5529237602,1,1,4.402536,2,9.43400571428571,12,2003,6666,0.758,131,0.422708694700103
462,1508,0,18,"WHI",1,0,0,"highschool",103678.124352332,1,0,2.756881,2,5.90760214285714,12,2003,6666,0.795,95,0.44405684929275
465,1509,0,18,"WHI",0,1,0,"highschool",114554.514433753,0,0,0,1,0,0,2003,6677,0.914,73,0.119318457626534
287,1510,1,18,"SPA",0,1,0,"highschool",91925.8201332347,0,0,0,1,0,0,2003,6680,0.94,119,0.370260209834627
289,1511,1,18,"SPA",0,1,1,"highschool",9997.73871206514,0,0,0,1,0,0,2003,6693,0.994,81,0.446624331050937
689,1512,1,18,"WHI",0,0,0,"highschool",84194.5092524056,0,0,0,1,0,0,2003,6693,0.995,150,0.119344848336715
463,1513,0,18,"WHI",0,0,0,"somecollege",119755.254626203,1,0,6.202983,4,13.2921064285714,48,2003,6718,0.094,142,0.803629792065171
331,1514,1,38,"SPA",1,1,1,"highschool",38057.1006661732,1,0,10.68461,2,22.8955928571429,12,2003,6723,0.998,121,0.370823562931679
685,1515,1,18,"WHI",0,1,0,"highschool",49975.0074019245,1,0,5.927295,5,12.7013464285714,60,2003,6734,0.988,142,0.374751133736574
687,1516,1,18,"WHI",0,1,0,"somecollege",52341.3441894893,0,2,0,1,0,0,2003,6734,0.979,98,0.327678701878876
209,1517,0,18,"SPA",1,1,0,"highschool",28112.7379718727,0,0,0,1,0,0,2003,6768,0.889,127,0.174272253020369
459,1518,0,18,"WHI",1,0,0,"highschool",33644.6831976314,1,2,27.56881,6,59.0760214285714,288,2003,6780,0.082,87,0.697072527654861
54,1519,0,45,"BLA",0,1,0,"highschool",4729.9363434493,1,2,3.306563,2,7.08549214285714,12,2003,6781,0.883,93,0.117319761391692
535,1520,0,56,"WHI",0,1,0,"somecollege",7449.37601776462,1,3,1.031006,2,2.20929857142857,12,2003,6784,0.799,122,0.234896535026277
691,1521,1,18,"WHI",0,0,0,"somecollege",23174.7720207254,1,1,9.012403,2,19.3122921428571,12,2003,6791,0.975,76,0.524292841371678
690,1522,1,18,"WHI",1,0,0,"highschool",19812.0829015544,1,0,9.012403,2,19.3122921428571,12,2003,6792,0.913,106,0.483030879437615
467,1523,0,18,"WHI",0,1,0,"highschool",73721.8608438194,1,0,4.402536,2,9.43400571428571,12,2003,6846,0.746,142,0.172614081725827
460,1524,0,18,"WHI",0,0,0,"highschool",28096.3145817913,1,1,13.78441,5,29.5380214285714,72,2003,6849,0.061,122,0.41133231625241
36,1525,0,18,"BLA",0,1,0,"highschool",120291.752035529,1,0,2.882297,2,6.17635071428571,12,2003,6864,0.709,128,0.381855261665768
688,1526,1,18,"WHI",1,0,0,"highschool",33384.6461880089,0,0,0,1,0,0,2003,6884,0.995,92,0.633679938045419
464,1527,0,18,"WHI",0,1,0,"somecollege",11005.0399703923,1,0,0.6892203,2,1.47690064285714,12,2003,6891,0.749,131,0.266722187478671
330,1528,1,35,"SPA",1,1,1,"collegeplus",110002.498149519,1,0,2.963647,5,6.35067214285714,60,2003,6908,0.993,130,0.118015004671769
461,1529,0,18,"WHI",0,1,0,"highschool",55861.4241302739,1,1,5.513763,5,11.8152064285714,120,2003,6922,0.099,176,0.221640978897811
468,1530,0,18,"WHI",0,1,0,"highschool",16204.4115470022,1,0,4.402536,2,9.43400571428571,12,2003,6925,0.757,144,0.109965924006954
698,1531,1,18,"WHI",0,0,0,"somecollege",83886.6313513513,1,2,9.471268,2,20.2955742857143,12,2004,6936,0.919,65,0.551085859476586
291,1532,1,19,"SPA",1,1,0,"highschool",5350.43963963964,0,0,0,1,0,0,2004,6951,0.995,144,0.111077340163245
693,1533,1,18,"WHI",1,1,0,"highschool",100538.958558559,1,4,43.60357,5,93.4362214285714,132,2004,6953,0.67,173,0.468217077551898
471,1534,0,18,"WHI",0,0,1,"highschool",55489.9891891892,1,3,108.6468,7,232.814571428571,360,2004,6960,0.906,93,0.394139353227592
481,1535,0,18,"WHI",0,1,0,"highschool",25559.5099099099,1,0,4.62669,2,9.91433571428571,12,2004,6981,0.725,70,0.195801475111454
473,1536,0,18,"WHI",1,0,0,"highschool",45567.3556756757,1,1,11.58899,5,24.83355,60,2004,6984,0.107,158,0.560909496956349
120,1537,0,30,"OTH",0,1,1,"somecollege",102708.451891892,1,0,12.45816,6,26.6960571428571,252,2004,6986,0.106,72,0.343279655974515
695,1538,1,18,"WHI",1,0,0,"highschool",27935.5581981982,0,0,0,1,0,0,2004,6993,0.981,64,0.204319908472985
240,1539,0,50,"SPA",1,0,1,"highschool",15895.4032432432,1,1,8.691742,5,18.6251614285714,60,2004,6999,0.272,162,0.180079381928946
692,1540,1,18,"WHI",1,0,0,"highschool",17405.2533333333,1,0,5.794495,3,12.416775,24,2004,7016,0.929,102,0.567687588754546
103,1541,0,18,"OTH",0,1,0,"highschool",55717.8659459459,1,0,1.658199,2,3.55328357142857,12,2004,7018,0.765,114,0.275787747941838
482,1542,0,18,"WHI",1,0,0,"highschool",30073.0688288288,1,1,4.62669,2,9.91433571428571,12,2004,7019,0.783,109,0.141113447429112
474,1543,0,18,"WHI",1,0,1,"highschool",25235.685045045,1,0,4.345871,5,9.31258071428571,84,2004,7036,0.08,89,0.497296322557946
479,1544,0,18,"WHI",0,1,0,"highschool",103377.423423423,0,0,0,1,0,0,2004,7053,0.908,69,0.122355728842674
38,1545,0,18,"BLA",0,1,1,"highschool",23583.2454054054,0,0,0,1,0,0,2004,7083,0.902,149,0.229157709466801
212,1546,0,18,"SPA",0,1,0,"highschool",9768.05045045045,0,0,0,1,0,0,2004,7086,0.889,122,0.284306519866526
478,1547,0,18,"WHI",0,1,0,"somecollege",55511.310990991,0,0,0,1,0,0,2004,7091,0.917,152,0.240553520011546
470,1548,0,18,"WHI",1,1,0,"highschool",110582.85981982,1,0,2.897247,3,6.20838642857143,24,2004,7105,0.701,70,0.181867608618658
292,1549,1,18,"SPA",0,1,0,"highschool",53372.4677477477,1,2,12.64755,2,27.1018928571429,12,2004,7117,0.989,91,0.689986922845016
472,1550,0,18,"WHI",1,1,0,"highschool",94297.0010810811,1,0,8.691742,4,18.6251614285714,48,2004,7122,0.202,125,0.142355238773764
480,1551,0,18,"WHI",0,0,0,"somecollege",7585.23099099099,1,0,4.62669,2,9.91433571428571,12,2004,7128,0.73,85,0.203988807579539
699,1552,1,18,"WHI",0,1,0,"somecollege",4095.11855855856,1,2,9.471268,2,20.2955742857143,12,2004,7133,0.899,121,0.320343079344346
477,1553,0,18,"WHI",1,1,0,"highschool",58123.2317117117,0,1,0,1,0,0,2004,7138,0.902,73,0.259810313393338
475,1554,0,18,"WHI",0,0,0,"somecollege",22826.3214414414,1,0,6.229082,5,13.3480328571429,60,2004,7146,0.206,134,0.375664134692185
476,1555,0,18,"WHI",0,1,0,"highschool",65909.6872072072,1,0,0.7243119,2,1.55209692857143,12,2004,7182,0.708,113,0.434883830182359
694,1556,1,18,"WHI",0,1,0,"highschool",110053.812612613,1,2,28.97247,6,62.0838642857143,300,2004,7187,0.677,138,0.429428359635266
37,1557,0,18,"BLA",0,1,0,"highschool",16920.1823423423,1,1,1.448624,3,3.10419428571429,24,2004,7200,0.772,116,0.576273444023752
210,1558,0,18,"SPA",1,1,0,"highschool",15382.3473873874,1,6,43.45871,6,93.1258071428571,180,2004,7217,0.275,97,0.402018877650347
39,1559,0,18,"BLA",0,1,0,"highschool",25780.7236036036,1,1,3.029048,2,6.49081714285714,12,2004,7222,0.759,111,0.297253831113004
290,1560,1,18,"SPA",1,1,0,"highschool",18620.596036036,1,0,2.897247,3,6.20838642857143,24,2004,7234,0.822,137,0.561741633245975
211,1561,0,18,"SPA",0,1,0,"highschool",1107.40108108108,0,0,0,1,0,0,2004,7238,0.919,151,0.639368447312633
696,1562,1,18,"WHI",1,1,0,"highschool",19749.3189189189,0,0,0,1,0,0,2004,7247,0.99,108,0.466280282756679
697,1563,1,18,"WHI",0,0,0,"somecollege",74920.8136936937,1,2,9.471268,2,20.2955742857143,12,2004,7252,0.849,164,0.340252085307607
213,1564,0,18,"SPA",0,1,0,"highschool",3199.60288288288,1,0,2.148,2,4.60285714285714,12,2004,7264,0.827,89,0.243055369680435
488,1565,0,18,"WHI",0,0,0,"highschool",61861.9072847682,1,0,4.489545,2,9.62045357142857,12,2005,7309,0.758,120,0.155372746154977
149,1566,1,18,"OTH",0,1,0,"highschool",62847.9546880446,0,1,0,1,0,0,2005,7319,0.978,64,0.146251325173955
703,1567,1,18,"WHI",0,1,0,"highschool",104115.005228303,1,0,2.108525,2,4.51826785714286,12,2005,7350,0.972,90,0.285570120860421
701,1568,1,18,"WHI",0,1,0,"highschool",115716.851864761,1,0,4.21705,4,9.03653571428571,48,2005,7352,0.925,130,0.251685377573451
215,1569,0,18,"SPA",0,0,0,"highschool",53697.6925758104,1,0,4.21705,3,9.03653571428571,24,2005,7361,0.864,120,0.11875011816566
483,1570,0,18,"WHI",1,1,0,"highschool",77567.7734402231,1,0,9.066657,5,19.4285507142857,60,2005,7365,0.497,105,0.262481742237598
536,1571,0,74,"WHI",0,0,1,"highschool",44256.1275705821,1,0,21.08525,7,45.1826785714286,360,2005,7388,0.9,137,0.508367966917366
704,1572,1,18,"WHI",0,0,0,"highschool",47207.8250261415,1,1,0.7028417,2,1.50608935714286,12,2005,7395,0.998,114,0.430176033470181
486,1573,0,18,"WHI",0,0,0,"highschool",5717.78598814918,0,0,0,1,0,0,2005,7401,0.907,101,0.108564791278838
700,1574,1,18,"WHI",1,0,0,"highschool",39958.7654234925,1,0,18.13331,5,38.8570928571429,132,2005,7403,0.798,126,0.389689269907388
708,1575,1,18,"WHI",0,1,0,"highschool",28204.822586267,1,0,9.190519,2,19.6939692857143,12,2005,7418,0.898,104,0.517711376877376
214,1576,0,18,"SPA",1,1,0,"highschool",20052.2084349948,1,0,0.7028417,2,1.50608935714286,12,2005,7420,0.711,94,0.16099190840916
710,1577,1,18,"WHI",1,0,0,"highschool",112873.426280934,1,0,9.190519,2,19.6939692857143,12,2005,7441,0.998,158,0.314800615747712
147,1578,1,18,"OTH",1,0,0,"highschool",44084.6971070059,1,8,44.98187,5,96.3897214285714,120,2005,7451,0.977,102,0.455787479571438
706,1579,1,18,"WHI",0,1,0,"highschool",4587.3760892297,0,0,0,1,0,0,2005,7471,0.999,80,0.174004685452839
129,1580,0,38,"OTH",1,1,1,"collegeplus",32069.0972464273,1,0,0.8267031,2,1.77150664285714,12,2005,7471,0.74,105,0.257168935469517
128,1581,0,35,"OTH",0,0,1,"somecollege",82815.0923666783,0,0,0,1,0,0,2005,7474,0.896,94,0.542240257425329
127,1582,0,40,"OTH",1,0,1,"somecollege",47497.8389682816,1,0,1.405683,3,3.01217785714286,24,2005,7489,0.72,175,0.195743337319523
709,1583,1,18,"WHI",1,1,0,"highschool",31030.2028581387,1,0,9.190519,2,19.6939692857143,12,2005,7492,0.872,136,0.153373876389764
702,1584,1,18,"WHI",1,1,0,"somecollege",5171.2708260718,1,1,14.05683,5,30.1217785714286,144,2005,7498,0.855,113,0.539046558578474
294,1585,1,18,"SPA",1,1,1,"highschool",25995.5608225863,0,0,0,1,0,0,2005,7514,0.992,96,0.334016858937274
216,1586,0,18,"SPA",0,1,0,"highschool",25687.5015684908,0,0,0,1,0,0,2005,7528,0.911,141,0.239059904041181
484,1587,0,18,"WHI",0,0,0,"somecollege",49096.1380271872,1,0,1.405683,3,3.01217785714286,24,2005,7539,0.718,138,0.661769165183493
295,1588,1,18,"SPA",0,0,0,"highschool",88819.0254444057,0,0,0,1,0,0,2005,7540,0.947,141,0.149267001880002
711,1589,1,18,"WHI",0,0,0,"somecollege",123585.896828163,1,0,9.190519,2,19.6939692857143,12,2005,7542,0.914,143,0.214054314560966
487,1590,0,18,"WHI",1,1,0,"highschool",38609.2338794005,0,0,0,1,0,0,2005,7552,0.893,121,0.281646211571353
489,1591,0,18,"WHI",0,0,0,"highschool",36916.8414081562,1,0,4.489545,2,9.62045357142857,12,2005,7580,0.739,163,0.32918034246254
296,1592,1,18,"SPA",0,1,0,"highschool",63476.9627047752,1,1,12.27265,2,26.2985357142857,12,2005,7589,0.997,94,0.421504207531854
485,1593,0,18,"WHI",0,0,0,"highschool",46907.4994771697,1,0,5.622733,3,12.0487135714286,24,2005,7595,0.816,99,0.17483909043396
148,1594,1,18,"OTH",0,0,0,"somecollege",62291.1279191356,0,1,0,1,0,0,2005,7600,0.982,145,0.232999287528018
293,1595,1,18,"SPA",0,1,0,"highschool",11567.0449634019,1,6,36.26663,6,77.7142071428571,192,2005,7602,0.776,79,0.566624719390767
705,1596,1,18,"WHI",0,0,0,"somecollege",54124.3353084699,0,1,0,1,0,0,2005,7636,0.99,145,0.403572997089084
166,1597,1,51,"OTH",1,1,1,"collegeplus",102856.989194841,1,0,3.022219,5,6.47618357142857,60,2005,7641,0.993,60,0.302290119254653
707,1598,1,18,"WHI",0,0,0,"somecollege",105143.58800976,1,3,9.190519,2,19.6939692857143,12,2005,7664,0.949,121,0.237066540893283
104,1599,0,18,"OTH",0,0,0,"highschool",21214.1850101283,1,2,2.949382,2,6.32010428571429,12,2006,7667,0.739,125,0.165213479849921
298,1600,1,18,"SPA",1,1,0,"highschool",19432.6029709656,0,0,0,1,0,0,2006,7688,0.991,149,0.184324243001938
764,1601,1,32,"WHI",1,1,0,"collegeplus",101505.230925051,1,4,55.30091,7,118.50195,360,2006,7692,0.996,86,0.720274155119575
490,1602,0,18,"WHI",1,1,0,"highschool",57763.4591492235,1,0,1.474691,2,3.16005214285714,12,2006,7723,0.759,121,0.238498367600281
719,1603,1,18,"WHI",0,1,0,"highschool",72788.9250506415,1,0,9.641698,2,20.6607814285714,12,2006,7731,0.994,160,0.764330496231218
716,1604,1,18,"WHI",0,1,0,"highschool",74841.4274139095,0,1,0,1,0,0,2006,7733,0.996,135,0.414354072526305
218,1605,0,18,"SPA",0,1,1,"highschool",48552.1681296421,0,0,0,1,0,0,2006,7745,0.893,112,0.228409541752369
713,1606,1,18,"WHI",0,1,0,"somecollege",114000.026333558,0,0,0,1,0,0,2006,7746,0.99,126,0.350529629212246
718,1607,1,18,"WHI",0,1,0,"highschool",65997.1897366644,1,0,9.641698,2,20.6607814285714,12,2006,7756,0.97,119,0.547676914621576
41,1608,0,18,"BLA",0,1,0,"highschool",36448.1471978393,0,0,0,1,0,0,2006,7794,0.889,125,0.105120448490276
217,1609,0,18,"SPA",0,0,0,"highschool",22370.2781904119,1,0,0.7373454,2,1.58002585714286,12,2006,7816,0.77,142,0.33736232079619
105,1610,0,18,"OTH",1,0,0,"somecollege",27693.8001350439,1,0,1.688037,2,3.61722214285714,12,2006,7838,0.75,130,0.702977202932005
525,1611,0,24,"WHI",0,1,0,"somecollege",115826.553679946,1,1,4.424072,2,9.48015428571428,12,2006,7867,0.75,94,0.449035953803844
495,1612,0,18,"WHI",0,0,0,"somecollege",7528.33896016205,0,1,0,1,0,0,2006,7867,0.92,103,0.182885127897159
40,1613,0,18,"BLA",1,1,0,"highschool",8633.24442943957,0,0,0,1,0,0,2006,7869,0.934,123,0.1836783094379
497,1614,0,18,"WHI",0,1,0,"highschool",53451.2066171506,1,0,4.709945,2,10.0927392857143,12,2006,7870,0.704,104,0.137738821718375
494,1615,0,18,"WHI",0,0,0,"somecollege",112212.201890614,0,0,0,1,0,0,2006,7894,0.918,110,0.339996555857741
714,1616,1,18,"WHI",1,0,0,"highschool",27401.6556380824,0,0,0,1,0,0,2006,7915,0.962,165,0.143024001545578
150,1617,1,18,"OTH",0,0,0,"highschool",21930.8129642134,1,0,1.464416,2,3.13803428571429,12,2006,7939,0.795,63,0.153180167377793
492,1618,0,18,"WHI",1,0,0,"highschool",31174.5644834571,0,0,0,1,0,0,2006,7943,0.904,93,0.131502757440386
89,1619,1,20,"BLA",1,0,0,"highschool",28716.3058744092,1,0,6.341171,5,13.5882235714286,60,2006,7951,0.893,118,0.343441779685619
757,1620,1,20,"WHI",1,1,0,"collegeplus",121624.498311951,1,0,5.898763,5,12.6402064285714,60,2006,7966,0.742,78,0.128902095748806
234,1621,0,27,"SPA",1,1,1,"highschool",34139.7062795409,1,1,2.186652,2,4.68568285714286,12,2006,7967,0.775,90,0.284623068648307
496,1622,0,18,"WHI",0,1,0,"highschool",49328.723160027,1,0,4.709945,2,10.0927392857143,12,2006,7973,0.856,91,0.262419366341258
219,1623,0,18,"SPA",0,1,0,"highschool",30889.9108710331,1,0,2.186652,2,4.68568285714286,12,2006,7978,0.702,145,0.273910960190876
491,1624,0,18,"WHI",0,0,0,"somecollege",59970.773126266,0,0,0,1,0,0,2006,7985,0.92,133,0.131244129677304
715,1625,1,18,"WHI",1,0,0,"somecollege",33378.1330182309,0,0,0,1,0,0,2006,7985,0.979,129,0.304127925869112
154,1626,1,25,"OTH",0,0,0,"somecollege",7097.61309925726,1,0,1.464416,2,3.13803428571429,12,2006,7985,0.948,81,0.310898332081993
81,1627,1,18,"BLA",0,1,0,"highschool",22128.0729237002,1,2,5.143286,2,11.0213271428571,12,2006,7986,0.987,65,0.233649053763837
493,1628,0,18,"WHI",0,0,0,"highschool",62352.874409183,0,0,0,1,0,0,2006,7988,0.896,68,0.277092053267341
717,1629,1,18,"WHI",0,1,0,"somecollege",121602.025658339,1,0,9.641698,2,20.6607814285714,12,2006,7998,0.892,133,0.632975782625805
297,1630,1,18,"SPA",1,0,0,"highschool",23178.0452397029,1,0,18.43364,5,39.5006571428571,72,2006,8023,0.976,112,0.719900927516232
498,1631,0,18,"WHI",1,0,0,"somecollege",51791.9756920999,1,0,4.709945,2,10.0927392857143,12,2006,8025,0.733,73,0.773084892567405
712,1632,1,18,"WHI",1,0,0,"highschool",29837.4415935179,1,3,19.90833,4,42.6607071428571,48,2006,8025,0.567,117,0.38500679855709
724,1633,1,18,"WHI",1,0,0,"highschool",36827.0295469468,0,1,0,1,0,0,2007,8034,0.985,95,0.193113241716123
121,1634,0,31,"OTH",1,1,0,"collegeplus",57589.7334208798,0,0,0,1,0,0,2007,8069,0.923,126,0.12084643357771
729,1635,1,18,"WHI",1,1,0,"highschool",115569.177281681,1,3,9.615292,2,20.6041971428571,12,2007,8075,0.967,98,0.644905879251711
722,1636,1,18,"WHI",0,0,0,"highschool",59704.6106369009,1,10,36.7663,5,78.7849285714286,156,2007,8086,0.92,129,0.252791197149425
503,1637,0,18,"WHI",1,1,0,"highschool",23676.4267892318,1,0,4.697046,2,10.0650985714286,12,2007,8090,0.77,79,0.276134997202359
220,1638,0,18,"SPA",0,1,0,"highschool",22998.9862114248,0,0,0,1,0,0,2007,8113,0.898,83,0.129997835408225
300,1639,1,18,"SPA",0,0,0,"highschool",3492.82534471438,1,2,47.42853,6,101.632564285714,192,2007,8134,0.982,89,0.573068262421233
500,1640,0,18,"WHI",1,1,0,"somecollege",85111.0604070913,1,0,4.411956,4,9.45419142857143,48,2007,8134,0.124,140,0.611881182423547
114,1641,0,29,"OTH",0,1,1,"somecollege",46645.0617202889,1,1,1.683414,2,3.60731571428571,12,2007,8136,0.891,143,0.308970345672312
721,1642,1,18,"WHI",0,0,0,"somecollege",105571.465528562,1,0,1.470652,4,3.15139714285714,36,2007,8156,0.965,100,0.39671332628627
502,1643,0,18,"WHI",0,1,0,"highschool",93667.6933683519,0,0,0,1,0,0,2007,8165,0.917,80,0.558077953133829
720,1644,1,18,"WHI",1,0,0,"highschool",7110.69796454366,1,3,11.02989,6,23.6354785714286,228,2007,8168,0.987,139,0.785030564252804
222,1645,0,18,"SPA",0,0,1,"highschool",27692.5082074852,1,0,2.180664,2,4.67285142857143,12,2007,8172,0.741,82,0.438914412523102
299,1646,1,18,"SPA",1,0,0,"highschool",20427.6257386737,1,7,51.47282,5,110.2989,108,2007,8198,0.999,102,0.524562047584182
239,1647,0,46,"SPA",1,1,0,"highschool",25319.0380827315,1,3,14.70652,5,31.5139714285714,156,2007,8229,0.009,120,0.804537371946757
527,1648,0,29,"WHI",0,1,1,"collegeplus",111761.912672357,1,4,14.70652,5,31.5139714285714,60,2007,8237,0.24,151,0.404814055674009
727,1649,1,18,"WHI",0,1,0,"highschool",31902.8378200919,1,1,9.615292,2,20.6041971428571,12,2007,8247,0.976,170,0.637050278431937
301,1650,1,18,"SPA",0,0,0,"highschool",3620.3007222587,1,0,12.64761,5,27.1020214285714,132,2007,8254,0.982,122,0.117541394998766
723,1651,1,18,"WHI",0,1,0,"somecollege",40049.1214707813,1,0,2.205978,2,4.72709571428571,12,2007,8257,0.838,104,0.473511969835574
504,1652,0,18,"WHI",0,1,0,"somecollege",115119.978332239,1,0,4.697046,2,10.0650985714286,12,2007,8270,0.757,78,0.190432162765541
317,1653,1,20,"SPA",1,0,0,"highschool",35714.9586342745,1,0,25.29522,5,54.2040428571429,132,2007,8270,0.983,132,0.557391946980517
106,1654,0,18,"OTH",0,0,0,"highschool",11363.5193696651,0,0,0,1,0,0,2007,8271,0.896,90,0.152194647933732
501,1655,0,18,"WHI",0,0,0,"highschool",29253.7780695995,0,0,0,1,0,0,2007,8288,0.908,115,0.213510573433196
726,1656,1,18,"WHI",1,1,0,"highschool",24321.0879842416,1,0,9.615292,2,20.6041971428571,12,2007,8300,0.901,88,0.279602211961984
533,1657,0,37,"WHI",1,0,1,"collegeplus",110859.872619829,1,0,2.941304,5,6.30279428571429,60,2007,8301,0.175,98,0.509178828585488
728,1658,1,18,"WHI",0,0,0,"somecollege",36618.2127380171,1,0,9.615292,2,20.6041971428571,12,2007,8309,0.887,70,0.319263599335547
82,1659,1,18,"BLA",0,1,0,"highschool",41983.1050558109,1,0,5.129201,2,10.991145,12,2007,8317,0.99,81,0.434482329818292
324,1660,1,27,"SPA",1,1,1,"collegeplus",43527.3782009192,0,0,0,1,0,0,2007,8335,0.999,97,0.418273521366271
499,1661,0,18,"WHI",0,1,0,"highschool",86830.1569271175,1,2,13.23587,5,28.3625785714286,96,2007,8351,0.054,105,0.69311329828094
725,1662,1,18,"WHI",0,0,0,"somecollege",46204.36112935,0,2,0,1,0,0,2007,8352,0.993,153,0.535566198903565
221,1663,0,18,"SPA",1,1,0,"highschool",7652.16480630335,0,0,0,1,0,0,2007,8352,0.889,116,0.314616451134175
223,1664,0,19,"SPA",1,0,0,"highschool",25299.6132632961,1,0,2.180664,2,4.67285142857143,12,2007,8366,0.802,130,0.630538973707164
131,1665,0,57,"OTH",1,0,1,"somecollege",16851.0308601445,1,0,3.161902,5,6.77550428571429,60,2007,8368,0.2,112,0.509647087990648
115,1666,0,27,"OTH",1,1,1,"collegeplus",46791.9619172685,1,0,1.683414,2,3.60731571428571,12,2007,8374,0.705,119,0.117498822924174
151,1667,1,18,"OTH",0,1,0,"highschool",96648.3932975024,0,1,0,1,0,0,2008,8410,0.948,152,0.148582817257201
505,1668,0,18,"WHI",0,0,0,"highschool",39402.4647486563,1,0,2.210426,2,4.73662714285714,12,2008,8424,0.71,112,0.467838714086898
737,1669,1,18,"WHI",0,0,0,"somecollege",12038.6677205185,1,1,9.634678,2,20.6457385714286,12,2008,8435,0.931,101,0.641704326333172
304,1670,1,18,"SPA",0,1,0,"highschool",101381.085045843,0,0,0,1,0,0,2008,8448,1,127,0.18575905022847
302,1671,1,18,"SPA",0,1,0,"highschool",73520.4021498577,1,0,1.473617,2,3.15775071428571,12,2008,8468,0.83,90,0.444551430734768
153,1672,1,23,"OTH",1,1,0,"somecollege",72346.5823585204,0,3,0,1,0,0,2008,8486,0.999,110,0.100366414496768
735,1673,1,18,"WHI",0,0,0,"highschool",17438.9402466013,0,0,0,1,0,0,2008,8491,0.963,137,0.439325942170693
738,1674,1,18,"WHI",0,1,0,"highschool",4059.26525450522,1,2,9.634678,2,20.6457385714286,12,2008,8499,0.978,125,0.358921797266848
85,1675,1,18,"BLA",1,1,0,"highschool",10670.7701549162,0,2,0,1,0,0,2008,8505,0.966,163,0.111718393935945
734,1676,1,18,"WHI",0,0,0,"somecollege",59434.5646538097,1,0,4.420852,4,9.47325428571429,48,2008,8523,0.807,179,0.596730381729025
228,1677,0,18,"SPA",0,1,0,"highschool",21619.7963958267,0,0,0,1,0,0,2008,8530,0.909,98,0.701068234771791
83,1678,1,18,"BLA",0,1,0,"somecollege",26593.3316471704,1,0,1.473617,2,3.15775071428571,12,2008,8535,0.846,95,0.331255835847202
765,1679,1,34,"WHI",1,1,1,"collegeplus",99801.5725576984,1,0,6.336554,5,13.57833,60,2008,8542,0.952,156,0.276681451669211
508,1680,0,18,"WHI",1,1,0,"highschool",20199.2873853936,0,0,0,1,0,0,2008,8545,0.913,97,0.219282834668481
766,1681,1,32,"WHI",1,0,1,"collegeplus",22868.4413531457,1,0,9.634678,2,20.6457385714286,12,2008,8553,0.998,87,0.655015140138231
509,1682,0,18,"WHI",1,1,0,"highschool",58915.4650648119,1,1,4.706516,2,10.0853914285714,12,2008,8576,0.733,76,0.330330115125444
224,1683,0,18,"SPA",1,1,0,"highschool",25969.0091685109,0,1,0,1,0,0,2008,8576,0.893,112,0.174367049917624
510,1684,0,18,"WHI",0,0,0,"highschool",12933.0622826431,1,0,4.706516,2,10.0853914285714,12,2008,8594,0.748,93,0.338269351444994
731,1685,1,18,"WHI",0,1,1,"highschool",13624.025924755,1,0,0.7368086,2,1.57887557142857,12,2008,8625,0.991,73,0.408001204663517
226,1686,0,18,"SPA",0,1,0,"highschool",14907.7451786279,0,0,0,1,0,0,2008,8626,0.888,78,0.10242602318636
303,1687,1,18,"SPA",1,1,0,"highschool",49776.2725260828,0,0,0,1,0,0,2008,8632,0.967,170,0.219409567101119
730,1688,1,18,"WHI",0,1,0,"highschool",115479.783117294,1,5,36.84043,5,78.9437785714286,72,2008,8635,0.985,65,0.688582128288069
736,1689,1,18,"WHI",0,1,0,"highschool",14498.5450521657,1,1,9.634678,2,20.6457385714286,12,2008,8646,0.918,81,0.680613976371411
507,1690,0,18,"WHI",0,1,0,"somecollege",103671.436610813,1,1,17.68341,5,37.8930214285714,120,2008,8646,0.287,144,0.607161514332545
227,1691,0,18,"SPA",0,1,0,"highschool",9014.09421435346,0,0,0,1,0,0,2008,8648,0.908,94,0.128127859228174
306,1692,1,18,"SPA",0,1,0,"highschool",37081.7154600063,0,0,0,1,0,0,2008,8654,0.981,137,0.60864499162549
305,1693,1,18,"SPA",0,1,0,"highschool",9878.09105279798,0,0,0,1,0,0,2008,8658,0.979,97,0.325959898305067
318,1694,1,21,"SPA",1,0,0,"highschool",98533.0521656655,0,2,0,1,0,0,2008,8664,0.994,127,0.146209109292822
225,1695,0,18,"SPA",0,0,0,"somecollege",14672.7473917167,0,0,0,1,0,0,2008,8692,0.909,127,0.139988710686632
732,1696,1,18,"WHI",1,1,0,"somecollege",58071.3436610812,1,0,1.473617,2,3.15775071428571,12,2008,8707,0.997,114,0.103402969406287
84,1697,1,18,"BLA",1,0,0,"somecollege",91457.3974075245,0,0,0,1,0,0,2008,8744,0.992,118,0.106554377666754
761,1698,1,28,"WHI",1,1,1,"highschool",53692.9023079355,1,0,6.336554,5,13.57833,132,2008,8749,0.98,108,0.849384571097263
506,1699,0,18,"WHI",1,0,0,"somecollege",88981.1520708188,1,0,1.473617,2,3.15775071428571,12,2008,8756,0.712,106,0.100939481305146
733,1700,1,18,"WHI",1,0,0,"highschool",57800.1024343977,1,3,63.36554,5,135.7833,132,2008,8758,0.98,83,0.670536898035808
742,1701,1,18,"WHI",0,1,0,"highschool",105390.6535533,0,0,0,1,0,0,2009,8776,1,168,0.651283842986279
739,1702,1,18,"WHI",1,0,0,"highschool",17442.3115482234,1,2,14.64207,4,31.3758642857143,36,2009,8776,0.832,130,0.493677434132088
514,1703,0,18,"WHI",0,0,0,"highschool",58210.6497461929,1,4,4.676463,2,10.0209921428571,12,2009,8778,0.845,128,0.345274420083224
746,1704,1,18,"WHI",0,0,0,"highschool",3835.2671319797,1,1,9.573156,2,20.5139057142857,12,2009,8778,0.951,120,0.656920923544219
515,1705,0,18,"WHI",0,1,0,"highschool",89475.8788071066,1,0,4.676463,2,10.0209921428571,12,2009,8784,0.752,106,0.347183880420635
308,1706,1,18,"SPA",0,0,0,"highschool",5517.66941624366,1,4,56.66483,5,121.424635714286,60,2009,8788,0.961,79,0.477087073890164
46,1707,0,18,"BLA",0,1,0,"highschool",44406.5038071066,0,0,0,1,0,0,2009,8793,0.905,72,0.248101562791432
512,1708,0,18,"WHI",1,1,0,"highschool",24719.8159898477,1,0,10.24945,5,21.9631071428571,108,2009,8793,0.022,97,0.466238457644337
309,1709,1,18,"SPA",0,1,0,"highschool",112535.583756345,1,0,18.88828,5,40.4748857142857,132,2009,8810,0.994,127,0.37130444070763
332,1710,1,48,"SPA",1,1,1,"highschool",21793.7969543147,1,2,37.77655,5,80.94975,132,2009,8828,0.916,146,0.461947384905528
513,1711,0,18,"WHI",1,1,0,"highschool",97731.8515228426,0,0,0,1,0,0,2009,8862,0.925,123,0.306028668870504
42,1712,0,18,"BLA",1,1,1,"somecollege",46033.7645939086,1,0,1.464207,2,3.13758642857143,12,2009,8869,0.884,119,0.129055874163509
516,1713,0,18,"WHI",0,1,0,"highschool",4718.70431472081,1,1,4.676463,2,10.0209921428571,12,2009,8910,0.747,103,0.491363509155257
517,1714,0,18,"WHI",0,1,0,"highschool",15136.9276649746,1,0,4.676463,2,10.0209921428571,12,2009,8917,0.703,74,0.353148600672967
43,1715,0,18,"BLA",1,1,0,"somecollege",53853.2982233503,0,2,0,1,0,0,2009,8918,0.894,129,0.815961255183424
107,1716,0,18,"OTH",0,0,0,"highschool",50428.6592639594,1,0,1.676037,2,3.59150785714286,12,2009,8921,0.728,100,0.282486713078004
741,1717,1,18,"WHI",0,1,0,"highschool",94016.2531725888,0,0,0,1,0,0,2009,8926,0.972,121,0.21333480117298
534,1718,0,49,"WHI",0,1,1,"somecollege",103380.921954315,1,0,1.095155,2,2.34676071428571,12,2009,8926,0.724,145,0.168449629188912
511,1719,0,18,"WHI",1,1,0,"somecollege",34994.9060913706,1,0,4.392622,4,9.41276142857143,36,2009,8934,0.263,170,0.160511102174154
307,1720,1,18,"SPA",0,0,0,"highschool",26972.404822335,1,0,12.59218,5,26.9832428571429,60,2009,8941,0.8,143,0.601331882236647
108,1721,0,18,"OTH",0,0,0,"highschool",762.595177664975,1,0,1.676037,2,3.59150785714286,12,2009,8954,0.805,165,0.539529924687604
87,1722,1,18,"BLA",0,1,0,"highschool",94279.0552030457,1,1,5.106723,2,10.9429778571429,12,2009,8961,0.838,83,0.145808458924952
745,1723,1,18,"WHI",0,1,0,"somecollege",9069.01649746193,1,3,9.573156,2,20.5139057142857,12,2009,9016,0.972,161,0.425610977195989
122,1724,0,30,"OTH",0,1,1,"somecollege",67724.317893401,0,0,0,1,0,0,2009,9021,0.926,142,0.226816013070372
45,1725,0,18,"BLA",0,1,0,"highschool",101215.151649746,0,0,0,1,0,0,2009,9021,0.897,61,0.281545485555716
47,1726,0,18,"BLA",0,0,0,"highschool",15567.5006345178,1,0,3.061634,2,6.56064428571429,12,2009,9028,0.702,76,0.262822050183864
86,1727,1,18,"BLA",1,1,0,"highschool",27605.9454314721,0,0,0,1,0,0,2009,9029,0.997,116,0.269798542939508
740,1728,1,18,"WHI",0,1,0,"somecollege",52886.5621827411,1,1,7.321037,5,15.6879364285714,72,2009,9044,0.894,122,0.111310227457768
130,1729,0,38,"OTH",0,1,1,"highschool",22775.7848984772,1,0,0.861122,2,1.84526142857143,12,2009,9044,0.709,88,0.101437558592606
160,1730,1,33,"OTH",1,0,0,"collegeplus",102387.20177665,1,1,10.98156,5,23.5319142857143,72,2009,9050,0.567,74,0.639862999222432
744,1731,1,18,"WHI",1,0,0,"highschool",84657.4505076142,0,0,0,1,0,0,2009,9085,1,124,0.487981521326945
743,1732,1,18,"WHI",1,0,0,"highschool",29522.9923857868,0,0,0,1,0,0,2009,9088,0.991,74,0.11558657937566
229,1733,0,18,"SPA",1,1,0,"somecollege",67739.5697969543,0,0,0,1,0,0,2009,9102,0.924,119,0.235565640001818
44,1734,0,18,"BLA",0,0,0,"highschool",114077.199238579,0,0,0,1,0,0,2009,9111,0.904,65,0.754545693096108
747,1735,1,18,"WHI",0,1,0,"highschool",33606.3252184769,1,2,14.94417,5,32.0232214285714,60,2010,9135,0.9,131,0.359628477241231
235,1736,0,28,"SPA",0,1,0,"highschool",9021.088639201,0,0,0,1,0,0,2010,9160,0.92,109,0.312319128505651
518,1737,0,18,"WHI",0,1,0,"somecollege",45423.9975031211,0,1,0,1,0,0,2010,9173,0.913,127,0.471549650160395
754,1738,1,18,"WHI",1,1,0,"somecollege",104372.702871411,1,1,9.770668,2,20.9371457142857,12,2010,9179,0.953,112,0.479643979910817
117,1739,0,26,"OTH",0,1,1,"somecollege",36779.1722846442,1,0,1.710617,2,3.66560785714286,12,2010,9184,0.733,101,0.325123987236705
748,1740,1,18,"WHI",0,0,0,"somecollege",9572.78776529338,1,0,2.988833,4,6.40464214285714,36,2010,9197,0.492,112,0.103006327502617
522,1741,0,18,"WHI",1,1,0,"somecollege",24235.5193508115,1,0,4.772947,2,10.2277435714286,12,2010,9198,0.755,127,0.321719865177459
230,1742,0,18,"SPA",1,1,0,"somecollege",19102.8707865169,0,1,0,1,0,0,2010,9202,0.897,66,0.157598536235262
50,1743,0,18,"BLA",0,1,0,"highschool",101535.722846442,1,2,3.124801,2,6.69600214285714,12,2010,9214,0.732,97,0.547222498546582
311,1744,1,18,"SPA",1,1,0,"highschool",19623.4069912609,0,0,0,1,0,0,2010,9214,0.975,122,0.283239217323654
231,1745,0,18,"SPA",0,1,0,"highschool",19845.0099875156,0,0,0,1,0,0,2010,9228,0.933,129,0.513977908977141
109,1746,0,18,"OTH",0,1,0,"highschool",6361.85268414482,0,1,0,1,0,0,2010,9231,0.912,88,0.166180198090939
48,1747,0,18,"BLA",0,1,0,"highschool",89905.0280898876,0,3,0,1,0,0,2010,9234,0.893,159,0.104097561713047
133,1748,0,72,"OTH",0,0,1,"collegeplus",91699.7815230961,0,0,0,1,0,0,2010,9235,0.903,101,0.265812444712969
310,1749,1,18,"SPA",0,1,0,"somecollege",29946.4132334582,1,1,5.230459,2,11.2081264285714,12,2010,9237,0.992,70,0.304903999118835
523,1750,0,20,"WHI",0,1,1,"highschool",27650.7446941323,1,0,0.7472084,2,1.60116085714286,12,2010,9237,0.732,107,0.42286869554756
519,1751,0,18,"WHI",0,0,0,"highschool",76348.0031210986,0,0,0,1,0,0,2010,9248,0.916,105,0.596781428351593
312,1752,1,18,"SPA",0,1,0,"highschool",19424.8876404494,0,0,0,1,0,0,2010,9251,0.99,68,0.545397634713581
751,1753,1,18,"WHI",1,0,0,"somecollege",2318.75218476904,0,1,0,1,0,0,2010,9264,0.981,153,0.111195396158419
750,1754,1,18,"WHI",1,1,0,"somecollege",55989.3820224719,1,0,1.494417,2,3.20232214285714,12,2010,9267,0.999,108,0.686326779532041
132,1755,0,71,"OTH",1,0,0,"collegeplus",22031.0312109863,1,0,1.494417,4,3.20232214285714,36,2010,9307,0.063,83,0.132244268830071
157,1756,1,26,"OTH",1,0,0,"collegeplus",23381.4244694132,1,0,1.484005,2,3.18001071428571,12,2010,9308,0.815,72,0.534668690032093
753,1757,1,18,"WHI",0,1,0,"highschool",96197.6298377029,1,1,9.770668,2,20.9371457142857,12,2010,9350,0.983,167,0.259686936356047
49,1758,0,18,"BLA",0,0,0,"highschool",14101.7990012484,0,0,0,1,0,0,2010,9361,0.891,112,0.239207310846581
313,1759,1,18,"SPA",0,1,0,"highschool",57362.8589263421,1,0,13.04736,2,27.9586285714286,12,2010,9377,0.971,95,0.383695803685216
521,1760,0,18,"WHI",0,1,0,"highschool",24206.6647940075,1,0,4.772947,2,10.2277435714286,12,2010,9395,0.737,126,0.363170309408009
755,1761,1,18,"WHI",0,0,0,"somecollege",16143.5474406991,1,0,9.770668,2,20.9371457142857,12,2010,9428,0.979,119,0.443400809470426
749,1762,1,18,"WHI",0,0,0,"highschool",96169.929463171,1,12,71.732,6,153.711428571429,240,2010,9430,0.957,116,0.740243228754242
156,1763,1,27,"OTH",0,0,1,"collegeplus",52985.04556804,0,0,0,1,0,0,2010,9433,0.997,71,0.199200729278091
88,1764,1,18,"BLA",0,1,0,"somecollege",31510.3302122347,1,1,0.7472084,2,1.60116085714286,12,2010,9442,0.988,137,0.566519065329539
520,1765,0,18,"WHI",0,0,0,"highschool",9150.3570536829,0,0,0,1,0,0,2010,9451,0.907,115,0.355470791771384
51,1766,0,18,"BLA",0,0,0,"highschool",16724.1011235955,1,0,3.124801,2,6.69600214285714,12,2010,9454,0.717,100,0.165595362310145
116,1767,0,28,"OTH",0,1,1,"collegeplus",110337.516853933,1,0,1.710617,2,3.66560785714286,12,2010,9464,0.727,98,0.228102120859441
752,1768,1,18,"WHI",0,1,0,"somecollege",5101.48564294632,0,2,0,1,0,0,2010,9476,1,115,0.408237832262456
